[
null,
{"id":1,"battlerName":"Kora","characterIndex":0,"characterName":"Kora","classId":1,"equips":[1,0,0,3,0],"faceIndex":0,"faceName":"Kora","traits":[],"initialLevel":1,"maxLevel":50,"name":"Kora","nickname":"","note":"","profile":""},
{"id":2,"battlerName":"Valha","characterIndex":0,"characterName":"Valha","classId":2,"equips":[3,0,0,3,0],"faceIndex":0,"faceName":"Valha","traits":[],"initialLevel":1,"maxLevel":50,"name":"Valha","nickname":"","note":"","profile":""},
{"id":3,"battlerName":"Theri","characterIndex":0,"characterName":"Theri","classId":3,"equips":[9,0,0,3,0],"faceIndex":0,"faceName":"Theri","traits":[],"initialLevel":1,"maxLevel":50,"name":"Theri","nickname":"","note":"","profile":""},
{"id":4,"battlerName":"Actor2_1","characterIndex":0,"characterName":"Actor2","classId":4,"equips":[0,0,0,0,0],"faceIndex":0,"faceName":"Actor2","traits":[],"initialLevel":1,"maxLevel":30,"name":"Kudo","nickname":"","note":"","profile":""},
{"id":5,"battlerName":"Mundo2","characterIndex":1,"characterName":"Mundo","classId":2,"equips":[0,0,0,0,0],"faceIndex":1,"faceName":"Mundo","traits":[],"initialLevel":1,"maxLevel":30,"name":"Mundo","nickname":"","note":"","profile":""},
{"id":6,"battlerName":"Actor2_5","characterIndex":4,"characterName":"Actor2","classId":2,"equips":[0,0,0,0,0],"faceIndex":4,"faceName":"Actor2","traits":[],"initialLevel":1,"maxLevel":30,"name":"Business","nickname":"","note":"","profile":""},
{"id":7,"battlerName":"Actor2_2","characterIndex":1,"characterName":"Actor2","classId":4,"equips":[0,0,0,0,0],"faceIndex":1,"faceName":"Actor2","traits":[],"initialLevel":1,"maxLevel":30,"name":"Maha","nickname":"","note":"","profile":""},
{"id":8,"battlerName":"Actor1_5","characterIndex":4,"characterName":"Actor1","classId":1,"equips":[0,0,0,0,0],"faceIndex":4,"faceName":"Actor1","traits":[],"initialLevel":1,"maxLevel":30,"name":"Tucka","nickname":"","note":"","profile":""},
{"id":9,"battlerName":"Actor3_7","characterIndex":6,"characterName":"Actor3","classId":3,"equips":[0,0,0,0,0],"faceIndex":6,"faceName":"Actor3","traits":[],"initialLevel":1,"maxLevel":30,"name":"Hunter","nickname":"","note":"","profile":""},
{"id":10,"battlerName":"Waldron","characterIndex":0,"characterName":"Waldron","classId":4,"equips":[17,0,0,17,0],"faceIndex":0,"faceName":"Waldron","traits":[],"initialLevel":1,"maxLevel":50,"name":"Waldron","nickname":"","note":"","profile":""},
{"id":11,"battlerName":"Gelena","characterIndex":0,"characterName":"KingdomWarrior","classId":1,"equips":[0,0,0,0,0],"faceIndex":0,"faceName":"KingdomWarrior","traits":[],"initialLevel":1,"maxLevel":30,"name":"Gelena","nickname":"","note":"","profile":""},
{"id":12,"battlerName":"Era","characterIndex":1,"characterName":"KingdomWarrior","classId":2,"equips":[20,0,0,20,0],"faceIndex":1,"faceName":"KingdomWarrior","traits":[],"initialLevel":1,"maxLevel":30,"name":"Era","nickname":"","note":"","profile":""},
{"id":13,"battlerName":"Krurlas","characterIndex":2,"characterName":"KingdomWarrior","classId":3,"equips":[0,0,0,0,0],"faceIndex":2,"faceName":"KingdomWarrior","traits":[],"initialLevel":1,"maxLevel":30,"name":"Krurlas","nickname":"","note":"","profile":""},
{"id":14,"battlerName":"slime-purple_3","characterIndex":1,"characterName":"Monster","classId":1,"equips":[0,0,0,0,0],"faceIndex":1,"faceName":"Monster","traits":[],"initialLevel":1,"maxLevel":30,"name":"Slime","nickname":"","note":"","profile":""},
{"id":15,"battlerName":"gazer-neon_3","characterIndex":1,"characterName":"Monster","classId":1,"equips":[0,0,0,0,0],"faceIndex":1,"faceName":"Monster","traits":[],"initialLevel":1,"maxLevel":30,"name":"Poison Slime","nickname":"","note":"","profile":""},
{"id":16,"battlerName":"rat-grey-sv_2","characterIndex":1,"characterName":"Monster","classId":1,"equips":[0,0,0,0,0],"faceIndex":1,"faceName":"Monster","traits":[],"initialLevel":1,"maxLevel":30,"name":"Rat","nickname":"","note":"","profile":""},
{"id":17,"battlerName":"scorpion-black_4","characterIndex":1,"characterName":"Monster","classId":1,"equips":[0,0,0,0,0],"faceIndex":1,"faceName":"Monster","traits":[],"initialLevel":1,"maxLevel":30,"name":"Scorpion","nickname":"","note":"","profile":""},
{"id":18,"battlerName":"minotaur-black_1","characterIndex":3,"characterName":"Monster","classId":4,"equips":[0,0,0,0,0],"faceIndex":3,"faceName":"Monster","traits":[],"initialLevel":1,"maxLevel":30,"name":"Minotaur","nickname":"","note":"","profile":""},
{"id":19,"battlerName":"Assassin","characterIndex":4,"characterName":"Evil","classId":1,"equips":[0,0,0,0,0],"faceIndex":4,"faceName":"Evil","traits":[],"initialLevel":1,"maxLevel":30,"name":"Assassin","nickname":"","note":"","profile":""},
{"id":20,"battlerName":"General_M","characterIndex":5,"characterName":"Evil","classId":4,"equips":[0,0,0,0,0],"faceIndex":5,"faceName":"Evil","traits":[],"initialLevel":1,"maxLevel":30,"name":"Killa","nickname":"","note":"","profile":""},
{"id":21,"battlerName":"willowisp-gold_2","characterIndex":0,"characterName":"Monster","classId":2,"equips":[0,0,0,0,0],"faceIndex":0,"faceName":"Monster","traits":[],"initialLevel":1,"maxLevel":30,"name":"Willowsip","nickname":"","note":"","profile":""},
{"id":22,"battlerName":"plant-green_2","characterIndex":0,"characterName":"Monster","classId":2,"equips":[0,0,0,0,0],"faceIndex":0,"faceName":"Monster","traits":[],"initialLevel":1,"maxLevel":30,"name":"Plant","nickname":"","note":"","profile":""},
{"id":23,"battlerName":"sahuagin-black_2","characterIndex":0,"characterName":"Monster","classId":4,"equips":[0,0,0,0,0],"faceIndex":0,"faceName":"Monster","traits":[],"initialLevel":1,"maxLevel":30,"name":"Shark","nickname":"","note":"","profile":""},
{"id":24,"battlerName":"cheiftan-sv_2","characterIndex":2,"characterName":"Monster","classId":3,"equips":[0,0,0,0,0],"faceIndex":2,"faceName":"Monster","traits":[],"initialLevel":1,"maxLevel":30,"name":"Orc","nickname":"","note":"","profile":""},
{"id":25,"battlerName":"ogre-red_2","characterIndex":2,"characterName":"Monster","classId":4,"equips":[0,0,0,0,0],"faceIndex":2,"faceName":"Monster","traits":[],"initialLevel":1,"maxLevel":30,"name":"OrcChampion","nickname":"","note":"","profile":""},
{"id":26,"battlerName":"demon-blue_2","characterIndex":6,"characterName":"Monster","classId":1,"equips":[0,0,0,0,0],"faceIndex":6,"faceName":"Monster","traits":[],"initialLevel":1,"maxLevel":30,"name":"GeleneFallenForm","nickname":"","note":"","profile":""},
{"id":27,"battlerName":"soldier-2_3","characterIndex":7,"characterName":"People3","classId":4,"equips":[0,0,0,0,0],"faceIndex":7,"faceName":"People3","traits":[],"initialLevel":1,"maxLevel":30,"name":"Knight","nickname":"","note":"","profile":""},
{"id":28,"battlerName":"snake-black-red_2","characterIndex":1,"characterName":"Monster","classId":3,"equips":[0,0,0,0,0],"faceIndex":1,"faceName":"Monster","traits":[],"initialLevel":1,"maxLevel":30,"name":"Snake","nickname":"","note":"","profile":""},
{"id":29,"battlerName":"ghost-death_4","characterIndex":6,"characterName":"Monster","classId":2,"equips":[0,0,0,0,0],"faceIndex":6,"faceName":"Monster","traits":[],"initialLevel":1,"maxLevel":30,"name":"Ghost","nickname":"","note":"","profile":""},
{"id":30,"battlerName":"","characterIndex":3,"characterName":"KingdomWarrior","classId":2,"equips":[0,0,0,0,0],"faceIndex":3,"faceName":"KingdomWarrior","traits":[],"initialLevel":1,"maxLevel":30,"name":"Aveline","nickname":"","note":"","profile":""},
{"id":31,"battlerName":"suffering-soul-evil_2","characterIndex":0,"characterName":"","classId":1,"equips":[0,0,0,0,0],"faceIndex":0,"faceName":"","traits":[],"initialLevel":1,"maxLevel":30,"name":"FireSkull","nickname":"","note":"","profile":""},
{"id":32,"battlerName":"gargoyle-grey-gold_2","characterIndex":0,"characterName":"","classId":3,"equips":[0,0,0,0,0],"faceIndex":0,"faceName":"","traits":[],"initialLevel":1,"maxLevel":30,"name":"KrurlasChildrenForm","nickname":"","note":"","profile":""},
{"id":33,"battlerName":"Mage-wi-alt-victory","characterIndex":3,"characterName":"Evil","classId":2,"equips":[0,0,0,0,0],"faceIndex":3,"faceName":"Evil","traits":[],"initialLevel":1,"maxLevel":30,"name":"DarkMage","nickname":"","note":"","profile":""},
{"id":34,"battlerName":"Mundo","characterIndex":0,"characterName":"Mundo","classId":2,"equips":[0,0,0,0,0],"faceIndex":0,"faceName":"Mundo","traits":[],"initialLevel":1,"maxLevel":50,"name":"Mundo","nickname":"","note":"","profile":""},
{"id":35,"battlerName":"Mundo3","characterIndex":2,"characterName":"Mundo","classId":4,"equips":[0,0,0,0,0],"faceIndex":2,"faceName":"Mundo","traits":[],"initialLevel":1,"maxLevel":50,"name":"MundoSuperHuman","nickname":"","note":"","profile":""},
{"id":36,"battlerName":"dark_lord__b_w_","characterIndex":7,"characterName":"Monster","classId":4,"equips":[0,0,0,0,0],"faceIndex":7,"faceName":"Monster","traits":[],"initialLevel":1,"maxLevel":50,"name":"MundoFinal","nickname":"","note":"","profile":""},
{"id":37,"battlerName":"actor3-4_2","characterIndex":3,"characterName":"Actor3","classId":4,"equips":[0,0,0,0,0],"faceIndex":3,"faceName":"Actor3","traits":[],"initialLevel":1,"maxLevel":50,"name":"Elicia","nickname":"","note":"","profile":""}
]