[
null,
{"id":1,"expParams":[30,20,30,30],"traits":[{"code":23,"dataId":0,"value":0.9},{"code":22,"dataId":0,"value":0.95},{"code":22,"dataId":2,"value":0.1},{"code":22,"dataId":6,"value":0.1},{"code":51,"dataId":1,"value":1},{"code":52,"dataId":2,"value":1},{"code":51,"dataId":10,"value":1},{"code":52,"dataId":1,"value":1},{"code":41,"dataId":1,"value":1},{"code":41,"dataId":2,"value":1}],"learnings":[{"level":1,"note":"","skillId":3},{"level":5,"note":"","skillId":4},{"level":1,"note":"","skillId":12},{"level":10,"note":"","skillId":5},{"level":15,"note":"","skillId":22},{"level":20,"note":"","skillId":29},{"level":25,"note":"","skillId":44},{"level":30,"note":"","skillId":49},{"level":40,"note":"","skillId":51},{"level":50,"note":"","skillId":55}],"name":"Assassin","note":"","params":[[1,252,295,338,381,424,466,509,552,595,637,680,723,766,809,851,894,937,980,1022,1065,1108,1151,1194,1236,1279,1322,1365,1407,1450,1493,1536,1579,1621,1664,1707,1750,1792,1835,1878,1921,1964,2006,2049,2092,2135,2177,2220,2263,2306,2348,2391,2434,2477,2520,2562,2605,2648,2691,2733,2776,2819,2862,2905,2947,2990,3033,3076,3118,3161,3204,3247,3290,3332,3375,3418,3461,3503,3546,3589,3632,3675,3717,3760,3803,3846,3888,3931,3974,4017,4060,4102,4145,4188,4231,4273,4316,4359,4402,4444],[0,72,82,92,102,112,122,131,141,151,161,171,180,190,200,210,220,230,239,249,259,269,279,288,298,308,318,328,338,347,357,367,377,387,396,406,416,426,436,446,455,465,475,485,495,504,514,524,534,544,553,563,573,583,593,603,612,622,632,642,652,661,671,681,691,701,711,720,730,740,750,760,769,779,789,799,809,819,828,838,848,858,868,877,887,897,907,917,927,936,946,956,966,976,985,995,1005,1015,1025,1034],[1,22,24,26,28,30,32,34,36,38,40,42,44,46,48,50,52,54,56,58,60,62,64,66,68,70,72,74,76,78,80,82,84,86,88,90,92,94,96,98,100,102,104,106,108,110,112,114,116,118,120,122,124,126,128,130,132,134,136,138,140,142,144,146,148,150,152,154,156,158,160,162,164,166,168,170,172,174,176,178,180,182,184,186,188,190,192,194,196,198,200,202,204,206,208,210,212,214,216,217],[0,17,19,20,22,23,25,26,27,29,30,32,33,35,36,37,39,40,42,43,45,46,47,49,50,52,53,55,56,57,59,60,62,63,65,66,67,69,70,72,73,75,76,77,79,80,82,83,85,86,87,89,90,92,93,95,96,97,99,100,102,103,105,106,107,109,110,112,113,115,116,117,119,120,122,123,125,126,127,129,130,132,133,135,136,137,139,140,142,143,145,146,147,149,150,152,153,155,156,157],[0,17,19,21,22,24,25,27,28,30,32,33,35,36,38,39,41,42,44,46,47,49,50,52,53,55,57,58,60,61,63,64,66,67,69,71,72,74,75,77,78,80,82,83,85,86,88,89,91,92,94,96,97,99,100,102,103,105,106,108,110,111,113,114,116,117,119,121,122,124,125,127,128,130,131,133,135,136,138,139,141,142,144,146,147,149,150,152,153,155,156,158,160,161,163,164,166,167,169,170],[0,13,15,16,17,19,20,21,22,24,25,26,28,29,30,31,33,34,35,36,38,39,40,42,43,44,45,47,48,49,50,52,53,54,56,57,58,59,61,62,63,65,66,67,68,70,71,72,73,75,76,77,79,80,81,82,84,85,86,87,89,90,91,93,94,95,96,98,99,100,102,103,104,105,107,108,109,110,112,113,114,116,117,118,119,121,122,123,124,126,127,128,130,131,132,133,135,136,137,138],[0,35,39,43,46,50,53,57,60,64,67,71,75,78,82,85,89,92,96,99,103,107,110,114,117,121,124,128,131,135,138,142,146,149,153,156,160,163,167,170,174,178,181,185,188,192,195,199,202,206,209,213,217,220,224,227,231,234,238,241,245,249,252,256,259,263,266,270,273,277,281,284,288,291,295,298,302,305,309,312,316,320,323,327,330,334,337,341,344,348,352,355,359,362,366,369,373,376,380,383],[0,34,38,42,46,49,53,57,60,64,68,72,75,79,83,86,90,94,97,101,105,109,112,116,120,123,127,131,135,138,142,146,149,153,157,160,164,168,172,175,179,183,186,190,194,197,201,205,209,212,216,220,223,227,231,235,238,242,246,249,253,257,260,264,268,272,275,279,283,286,290,294,297,301,305,309,312,316,320,323,327,331,335,338,342,346,349,353,357,360,364,368,372,375,379,383,386,390,394,397]]},
{"id":2,"expParams":[30,20,30,30],"traits":[{"code":23,"dataId":0,"value":0.9},{"code":22,"dataId":0,"value":0.95},{"code":22,"dataId":4,"value":0.1},{"code":41,"dataId":1,"value":1},{"code":51,"dataId":6,"value":1},{"code":51,"dataId":11,"value":1},{"code":52,"dataId":1,"value":1},{"code":52,"dataId":2,"value":1},{"code":41,"dataId":2,"value":1},{"code":22,"dataId":5,"value":0.1}],"learnings":[{"level":1,"note":"","skillId":8},{"level":5,"note":"","skillId":9},{"level":1,"note":"","skillId":13},{"level":10,"note":"","skillId":14},{"level":15,"note":"","skillId":21},{"level":20,"note":"","skillId":30},{"level":25,"note":"","skillId":45},{"level":30,"note":"","skillId":46},{"level":40,"note":"","skillId":53},{"level":50,"note":"","skillId":57}],"name":"Mage","note":"","params":[[1,337,386,434,482,530,578,626,674,722,770,818,866,914,962,1010,1058,1106,1154,1202,1250,1299,1347,1395,1443,1491,1539,1587,1635,1683,1731,1779,1827,1875,1923,1971,2019,2067,2115,2163,2211,2260,2308,2356,2404,2452,2500,2548,2596,2644,2692,2740,2788,2836,2884,2932,2980,3028,3076,3124,3173,3221,3269,3317,3365,3413,3461,3509,3557,3605,3653,3701,3749,3797,3845,3893,3941,3989,4037,4085,4134,4182,4230,4278,4326,4374,4422,4470,4518,4566,4614,4662,4710,4758,4806,4854,4902,4950,4998,5046],[0,135,152,168,184,200,216,232,248,264,280,296,312,328,344,360,376,392,408,424,440,456,472,488,504,520,536,552,568,584,600,616,632,648,665,681,697,713,729,745,761,777,793,809,825,841,857,873,889,905,921,937,953,969,985,1001,1017,1033,1049,1065,1081,1097,1113,1129,1145,1161,1177,1194,1210,1226,1242,1258,1274,1290,1306,1322,1338,1354,1370,1386,1402,1418,1434,1450,1466,1482,1498,1514,1530,1546,1562,1578,1594,1610,1626,1642,1658,1674,1690,1706],[1,17,19,21,22,24,26,27,29,30,32,34,35,37,38,40,42,43,45,47,48,50,51,53,55,56,58,59,61,63,64,66,67,69,71,72,74,76,77,79,80,82,84,85,87,88,90,92,93,95,96,98,100,101,103,105,106,108,109,111,113,114,116,117,119,121,122,124,126,127,129,130,132,134,135,137,138,140,142,143,145,146,148,150,151,153,155,156,158,159,161,163,164,166,167,169,171,172,174,175],[1,14,16,17,18,19,20,22,23,24,25,26,27,29,30,31,32,33,34,36,37,38,39,40,41,43,44,45,46,47,49,50,51,52,53,54,56,57,58,59,60,61,63,64,65,66,67,68,70,71,72,73,74,76,77,78,79,80,81,83,84,85,86,87,88,90,91,92,93,94,95,97,98,99,100,101,103,104,105,106,107,108,110,111,112,113,114,115,117,118,119,120,121,122,124,125,126,127,128,129],[1,22,25,27,29,31,33,35,37,39,41,43,45,47,49,51,54,56,58,60,62,64,66,68,70,72,74,76,78,80,83,85,87,89,91,93,95,97,99,101,103,105,107,109,112,114,116,118,120,122,124,126,128,130,132,134,136,138,141,143,145,147,149,151,153,155,157,159,161,163,165,167,170,172,174,176,178,180,182,184,186,188,190,192,194,196,199,201,203,205,207,209,211,213,215,217,219,221,223,225],[1,22,24,26,28,30,32,34,36,38,40,42,43,45,47,49,51,53,55,57,59,61,63,64,66,68,70,72,74,76,78,80,82,84,85,87,89,91,93,95,97,99,101,103,105,106,108,110,112,114,116,118,120,122,124,126,127,129,131,133,135,137,139,141,143,145,147,148,150,152,154,156,158,160,162,164,166,168,169,171,173,175,177,179,181,183,185,187,189,190,192,194,196,198,200,202,204,206,208,209],[1,28,31,34,37,40,43,46,49,52,54,57,60,63,66,69,72,75,78,80,83,86,89,92,95,98,101,104,106,109,112,115,118,121,124,127,130,132,135,138,141,144,147,150,153,156,158,161,164,167,170,173,176,179,182,184,187,190,193,196,199,202,205,208,210,213,216,219,222,225,228,231,234,236,239,242,245,248,251,254,257,260,262,265,268,271,274,277,280,283,286,288,291,294,297,300,303,306,309,311],[1,29,32,35,38,41,44,47,50,53,56,59,62,65,68,71,74,77,79,82,85,88,91,94,97,100,103,106,109,112,115,118,121,124,126,129,132,135,138,141,144,147,150,153,156,159,162,165,168,171,173,176,179,182,185,188,191,194,197,200,203,206,209,212,215,218,221,223,226,229,232,235,238,241,244,247,250,253,256,259,262,265,268,270,273,276,279,282,285,288,291,294,297,300,303,306,309,312,315,317]]},
{"id":3,"expParams":[30,20,30,30],"traits":[{"code":23,"dataId":0,"value":0.9},{"code":22,"dataId":0,"value":0.95},{"code":22,"dataId":2,"value":0.1},{"code":41,"dataId":1,"value":0},{"code":51,"dataId":7,"value":0},{"code":52,"dataId":1,"value":0},{"code":41,"dataId":2,"value":1},{"code":51,"dataId":8,"value":1},{"code":52,"dataId":2,"value":1},{"code":22,"dataId":3,"value":0.05}],"learnings":[{"level":1,"note":"","skillId":15},{"level":1,"note":"","skillId":16},{"level":5,"note":"","skillId":11},{"level":10,"note":"","skillId":17},{"level":15,"note":"","skillId":23},{"level":20,"note":"","skillId":31},{"level":25,"note":"","skillId":41},{"level":30,"note":"","skillId":47},{"level":40,"note":"","skillId":50},{"level":50,"note":"","skillId":58}],"name":"Archer","note":"","params":[[1,226,272,318,364,409,455,501,546,592,638,683,729,775,820,866,912,957,1003,1049,1094,1140,1186,1231,1277,1323,1368,1414,1460,1505,1551,1597,1642,1688,1734,1779,1825,1871,1916,1962,2008,2053,2099,2145,2190,2236,2282,2327,2373,2419,2464,2510,2556,2602,2647,2693,2739,2784,2830,2876,2921,2967,3013,3058,3104,3150,3195,3241,3287,3332,3378,3424,3469,3515,3561,3606,3652,3698,3743,3789,3835,3880,3926,3972,4017,4063,4109,4154,4200,4246,4291,4337,4383,4428,4474,4520,4565,4611,4657,4702],[0,124,141,157,174,190,207,223,239,256,272,289,305,321,338,354,371,387,403,420,436,453,469,485,502,518,535,551,568,584,600,617,633,650,666,682,699,715,732,748,764,781,797,814,830,846,863,879,896,912,928,945,961,978,994,1011,1027,1043,1060,1076,1093,1109,1125,1142,1158,1175,1191,1207,1224,1240,1257,1273,1289,1306,1322,1339,1355,1372,1388,1404,1421,1437,1454,1470,1486,1503,1519,1536,1552,1568,1585,1601,1618,1634,1650,1667,1683,1700,1716,1732],[1,20,22,24,25,27,29,30,32,33,35,37,38,40,42,43,45,46,48,50,51,53,55,56,58,59,61,63,64,66,68,69,71,72,74,76,77,79,81,82,84,85,87,89,90,92,94,95,97,98,100,102,103,105,106,108,110,111,113,115,116,118,119,121,123,124,126,128,129,131,132,134,136,137,139,141,142,144,145,147,149,150,152,154,155,157,158,160,162,163,165,167,168,170,171,173,175,176,178,179],[1,12,14,15,16,17,18,19,21,22,23,24,25,26,27,29,30,31,32,33,34,36,37,38,39,40,41,42,44,45,46,47,48,49,51,52,53,54,55,56,57,59,60,61,62,63,64,66,67,68,69,70,71,72,74,75,76,77,78,79,81,82,83,84,85,86,87,89,90,91,92,93,94,96,97,98,99,100,101,102,104,105,106,107,108,109,111,112,113,114,115,116,117,119,120,121,122,123,124,125],[1,20,22,24,26,28,29,31,33,35,37,38,40,42,44,46,47,49,51,53,55,56,58,60,62,64,65,67,69,71,73,74,76,78,80,82,83,85,87,89,91,92,94,96,98,100,101,103,105,107,108,110,112,114,116,117,119,121,123,125,126,128,130,132,134,135,137,139,141,143,144,146,148,150,152,153,155,157,159,161,162,164,166,168,170,171,173,175,177,179,180,182,184,186,188,189,191,193,195,196],[1,12,13,14,15,16,17,18,19,20,21,22,23,24,25,25,26,27,28,29,30,31,32,33,34,35,36,37,38,38,39,40,41,42,43,44,45,46,47,48,49,50,51,51,52,53,54,55,56,57,58,59,60,61,62,63,64,64,65,66,67,68,69,70,71,72,73,74,75,76,77,77,78,79,80,81,82,83,84,85,86,87,88,89,90,90,91,92,93,94,95,96,97,98,99,100,101,102,103,103],[1,39,44,48,52,56,60,64,68,72,76,80,84,88,92,96,100,104,108,112,116,120,124,128,132,136,140,144,148,152,156,160,164,168,173,177,181,185,189,193,197,201,205,209,213,217,221,225,229,233,237,241,245,249,253,257,261,265,269,273,277,281,285,289,293,297,301,306,310,314,318,322,326,330,334,338,342,346,350,354,358,362,366,370,374,378,382,386,390,394,398,402,406,410,414,418,422,426,430,434],[1,35,39,42,46,49,52,56,59,62,66,69,73,76,79,83,86,89,93,96,99,103,106,110,113,116,120,123,126,130,133,137,140,143,147,150,153,157,160,163,167,170,174,177,180,184,187,190,194,197,200,204,207,211,214,217,221,224,227,231,234,238,241,244,248,251,254,258,261,264,268,271,275,278,281,285,288,291,295,298,302,305,308,312,315,318,322,325,328,332,335,339,342,345,349,352,355,359,362,365]]},
{"id":4,"expParams":[30,20,30,30],"traits":[{"code":23,"dataId":0,"value":0.9},{"code":22,"dataId":0,"value":0.95},{"code":22,"dataId":7,"value":0.01},{"code":22,"dataId":2,"value":0.05},{"code":41,"dataId":1,"value":0},{"code":41,"dataId":2,"value":1},{"code":51,"dataId":2,"value":1},{"code":51,"dataId":4,"value":1},{"code":52,"dataId":1,"value":1},{"code":52,"dataId":2,"value":1}],"learnings":[{"level":1,"note":"","skillId":33},{"level":1,"note":"","skillId":36},{"level":5,"note":"","skillId":34},{"level":10,"note":"","skillId":37},{"level":15,"note":"","skillId":35},{"level":20,"note":"","skillId":10},{"level":25,"note":"","skillId":43},{"level":30,"note":"","skillId":48},{"level":40,"note":"","skillId":52},{"level":50,"note":"","skillId":56}],"name":"Warrior","note":"","params":[[1,656,739,822,905,987,1070,1153,1236,1318,1401,1484,1567,1649,1732,1815,1898,1980,2063,2146,2228,2311,2394,2477,2559,2642,2725,2808,2890,2973,3056,3139,3221,3304,3387,3469,3552,3635,3718,3800,3883,3966,4049,4131,4214,4297,4380,4462,4545,4628,4710,4793,4876,4959,5041,5124,5207,5290,5372,5455,5538,5621,5703,5786,5869,5952,6034,6117,6200,6282,6365,6448,6531,6613,6696,6779,6862,6944,7027,7110,7193,7275,7358,7441,7523,7606,7689,7772,7854,7937,8020,8103,8185,8268,8351,8434,8516,8599,8682,8764],[0,109,124,139,154,169,184,198,213,228,243,258,272,287,302,317,332,346,361,376,391,406,420,435,450,465,480,494,509,524,539,554,568,583,598,613,628,643,657,672,687,702,717,731,746,761,776,791,805,820,835,850,865,879,894,909,924,939,953,968,983,998,1013,1027,1042,1057,1072,1087,1102,1116,1131,1146,1161,1176,1190,1205,1220,1235,1250,1264,1279,1294,1309,1324,1338,1353,1368,1383,1398,1412,1427,1442,1457,1472,1486,1501,1516,1531,1546,1560],[1,12,13,14,15,16,17,18,19,20,21,22,23,24,25,26,27,28,29,30,31,32,33,34,35,36,37,38,39,40,41,42,43,44,45,46,47,48,49,50,51,52,53,54,55,56,57,58,59,60,61,62,63,64,65,66,67,68,69,70,71,72,73,74,75,76,77,78,79,80,81,82,83,84,85,86,87,88,89,90,91,92,93,94,95,96,97,98,99,100,101,102,103,104,105,106,107,108,109,110],[1,21,23,25,27,29,31,33,34,36,38,40,42,44,45,47,49,51,53,55,56,58,60,62,64,66,67,69,71,73,75,77,78,80,82,84,86,88,89,91,93,95,97,99,100,102,104,106,108,110,111,113,115,117,119,121,123,124,126,128,130,132,134,135,137,139,141,143,145,146,148,150,152,154,156,157,159,161,163,165,167,168,170,172,174,176,178,179,181,183,185,187,189,190,192,194,196,198,200,201],[1,12,13,14,15,16,17,18,19,20,21,22,22,23,24,25,26,27,28,29,30,31,32,32,33,34,35,36,37,38,39,40,41,42,42,43,44,45,46,47,48,49,50,51,52,52,53,54,55,56,57,58,59,60,61,62,62,63,64,65,66,67,68,69,70,71,72,72,73,74,75,76,77,78,79,80,81,82,82,83,84,85,86,87,88,89,90,91,92,92,93,94,95,96,97,98,99,100,101,101],[1,21,24,26,28,30,32,34,36,38,40,42,44,46,48,50,52,54,56,58,60,62,64,66,68,70,72,74,76,78,80,82,84,86,89,91,93,95,97,99,101,103,105,107,109,111,113,115,117,119,121,123,125,127,129,131,133,135,137,139,141,143,145,147,149,151,153,156,158,160,162,164,166,168,170,172,174,176,178,180,182,184,186,188,190,192,194,196,198,200,202,204,206,208,210,212,214,216,218,220],[1,20,23,26,29,32,35,38,40,43,46,49,52,55,58,60,63,66,69,72,75,77,80,83,86,89,92,95,97,100,103,106,109,112,114,117,120,123,126,129,132,134,137,140,143,146,149,151,154,157,160,163,166,169,171,174,177,180,183,186,188,191,194,197,200,203,206,208,211,214,217,220,223,225,228,231,234,237,240,243,245,248,251,254,257,260,262,265,268,271,274,277,280,282,285,288,291,294,297,299],[1,27,31,34,37,40,43,46,49,52,55,58,61,64,68,71,74,77,80,83,86,89,92,95,98,101,105,108,111,114,117,120,123,126,129,132,135,138,142,145,148,151,154,157,160,163,166,169,172,175,178,182,185,188,191,194,197,200,203,206,209,212,215,219,222,225,228,231,234,237,240,243,246,249,252,256,259,262,265,268,271,274,277,280,283,286,289,293,296,299,302,305,308,311,314,317,320,323,326,329]]}
]