[
null,
{"id":1,"actions":[{"conditionParam1":0,"conditionParam2":0,"conditionType":0,"rating":5,"skillId":1}],"battlerHue":41,"battlerName":"Slime","dropItems":[{"kind":1,"dataId":1,"denominator":5},{"kind":0,"dataId":0,"denominator":10},{"kind":0,"dataId":0,"denominator":10}],"exp":10,"traits":[{"code":22,"dataId":0,"value":0.95},{"code":22,"dataId":1,"value":0.05},{"code":31,"dataId":1,"value":0}],"gold":5,"name":"Slime","note":"<Sideview Battler: slime-purple_3>\n<Scale Sprite: 200%>\n","params":[200,0,20,20,20,20,20,20]},
{"id":2,"actions":[{"conditionParam1":0,"conditionParam2":0,"conditionType":0,"rating":5,"skillId":1},{"conditionParam1":0,"conditionParam2":0.6,"conditionType":2,"rating":5,"skillId":8}],"battlerHue":258,"battlerName":"Gazer","dropItems":[{"kind":1,"dataId":4,"denominator":1},{"dataId":1,"denominator":1,"kind":0},{"dataId":1,"denominator":1,"kind":0}],"exp":250,"traits":[{"code":22,"dataId":0,"value":0.95},{"code":22,"dataId":1,"value":0.05},{"code":31,"dataId":1,"value":0},{"code":32,"dataId":4,"value":0.1},{"code":63,"dataId":1,"value":1}],"gold":1000,"name":"Poison Slime","note":"<Sideview Battler: gazer-neon_3>\n<Scale Sprite: 300%>\n","params":[1200,150,60,60,60,60,60,60]},
{"id":3,"actions":[{"conditionParam1":0,"conditionParam2":0,"conditionType":0,"rating":5,"skillId":1},{"conditionParam1":1,"conditionParam2":3,"conditionType":1,"rating":5,"skillId":3}],"battlerHue":250,"battlerName":"Rat","dropItems":[{"kind":1,"dataId":1,"denominator":5},{"kind":1,"dataId":10,"denominator":8},{"dataId":1,"denominator":1,"kind":0}],"exp":50,"traits":[{"code":22,"dataId":0,"value":0.95},{"code":22,"dataId":1,"value":0.05},{"code":31,"dataId":1,"value":0}],"gold":30,"name":"Rat","note":"<Sideview Battler: rat-grey-sv_2>\n<Scale Sprite: 200%>\n","params":[1000,200,40,40,40,40,40,40]},
{"id":4,"actions":[{"conditionParam1":0,"conditionParam2":0,"conditionType":0,"rating":5,"skillId":1},{"conditionParam1":1,"conditionParam2":3,"conditionType":1,"rating":5,"skillId":33},{"conditionParam1":1,"conditionParam2":3,"conditionType":1,"rating":5,"skillId":10}],"battlerHue":0,"battlerName":"Actor2_1","dropItems":[{"kind":1,"dataId":4,"denominator":1},{"dataId":1,"denominator":1,"kind":0},{"dataId":1,"denominator":1,"kind":0}],"exp":500,"traits":[{"code":22,"dataId":0,"value":0.95},{"code":22,"dataId":1,"value":0.05},{"code":31,"dataId":4,"value":0},{"code":63,"dataId":1,"value":1}],"gold":1200,"name":"Kudo","note":"<Sideview Battler: Actor2_1>\n<Sideview Weapon: 2, swing, 1>\n","params":[1500,400,70,70,70,70,70,70]},
{"id":5,"actions":[{"conditionParam1":0,"conditionParam2":0,"conditionType":0,"rating":5,"skillId":1},{"conditionParam1":1,"conditionParam2":3,"conditionType":1,"rating":5,"skillId":4}],"battlerHue":104,"battlerName":"Scorpion","dropItems":[{"kind":1,"dataId":1,"denominator":3},{"kind":1,"dataId":9,"denominator":6},{"dataId":1,"denominator":1,"kind":0}],"exp":70,"traits":[{"code":22,"dataId":0,"value":0.95},{"code":22,"dataId":1,"value":0.05},{"code":31,"dataId":1,"value":0},{"code":13,"dataId":4,"value":0.1}],"gold":50,"name":"Scorpion","note":"<Sideview Battler: scorpion-black_4>\n<Scale Sprite: 200%>\n","params":[1200,150,50,50,50,50,50,50]},
{"id":6,"actions":[{"conditionParam1":0,"conditionParam2":0,"conditionType":0,"rating":5,"skillId":1},{"conditionParam1":1,"conditionParam2":3,"conditionType":1,"rating":5,"skillId":3},{"conditionParam1":1,"conditionParam2":3,"conditionType":1,"rating":5,"skillId":4},{"conditionParam1":0.1,"conditionParam2":0.5,"conditionType":2,"rating":5,"skillId":8}],"battlerHue":81,"battlerName":"Minotaur","dropItems":[{"kind":1,"dataId":4,"denominator":1},{"dataId":1,"denominator":1,"kind":0},{"dataId":1,"denominator":1,"kind":0}],"exp":1000,"traits":[{"code":22,"dataId":0,"value":0.95},{"code":22,"dataId":1,"value":0.05},{"code":31,"dataId":1,"value":0},{"code":63,"dataId":1,"value":1}],"gold":1500,"name":"Minotaur","note":"<Sideview Battler: minotaur-black_1>\n<Scale Sprite: 200%>","params":[2000,400,80,80,80,80,80,80]},
{"id":7,"actions":[{"conditionParam1":0,"conditionParam2":0,"conditionType":0,"rating":5,"skillId":1},{"conditionParam1":2,"conditionParam2":4,"conditionType":1,"rating":5,"skillId":19},{"conditionParam1":1,"conditionParam2":3,"conditionType":1,"rating":5,"skillId":20}],"battlerHue":0,"battlerName":"Fanatic","dropItems":[{"dataId":1,"denominator":1,"kind":0},{"dataId":1,"denominator":1,"kind":0},{"dataId":1,"denominator":1,"kind":0}],"exp":0,"traits":[{"code":22,"dataId":0,"value":0.95},{"code":22,"dataId":1,"value":0.05},{"code":31,"dataId":1,"value":0},{"code":63,"dataId":1,"value":1}],"gold":0,"name":"Mundo","note":"<Sideview Battler: Mundo2>\n<Sideview Weapon: 11, thrust, 12>\n","params":[3000,999,100,100,100,100,100,100]},
{"id":8,"actions":[{"conditionParam1":0,"conditionParam2":0,"conditionType":0,"rating":5,"skillId":1},{"conditionParam1":1,"conditionParam2":3,"conditionType":1,"rating":5,"skillId":3},{"conditionParam1":1,"conditionParam2":3,"conditionType":1,"rating":5,"skillId":4},{"conditionParam1":2,"conditionParam2":4,"conditionType":1,"rating":5,"skillId":12}],"battlerHue":270,"battlerName":"Assassin","dropItems":[{"kind":1,"dataId":9,"denominator":5},{"kind":1,"dataId":1,"denominator":3},{"dataId":1,"denominator":1,"kind":0}],"exp":120,"traits":[{"code":22,"dataId":0,"value":0.95},{"code":22,"dataId":1,"value":0.05},{"code":31,"dataId":1,"value":0},{"code":13,"dataId":4,"value":0.15}],"gold":80,"name":"Assasin","note":"<Sideview Battler: Assassin>\n<Sideview Weapon: 1, swing, 1>","params":[1500,500,100,100,100,100,100,100]},
{"id":9,"actions":[{"conditionParam1":0,"conditionParam2":0,"conditionType":0,"rating":5,"skillId":1},{"conditionParam1":1,"conditionParam2":3,"conditionType":1,"rating":5,"skillId":9},{"conditionParam1":0,"conditionParam2":0.6,"conditionType":2,"rating":5,"skillId":8},{"conditionParam1":1,"conditionParam2":3,"conditionType":1,"rating":5,"skillId":13},{"conditionParam1":1,"conditionParam2":3,"conditionType":1,"rating":5,"skillId":14}],"battlerHue":0,"battlerName":"Actor2_5","dropItems":[{"dataId":1,"denominator":1,"kind":0},{"dataId":1,"denominator":1,"kind":0},{"dataId":1,"denominator":1,"kind":0}],"exp":400,"traits":[{"code":22,"dataId":0,"value":0.95},{"code":22,"dataId":1,"value":0.05},{"code":31,"dataId":2,"value":0}],"gold":500,"name":"Bussiness","note":"<Sideview Battler: Actor2_5>\n<Sideview Weapon: 6, swing, 3>\n","params":[2000,500,110,110,110,110,110,110]},
{"id":10,"actions":[{"conditionParam1":0,"conditionParam2":0,"conditionType":0,"rating":5,"skillId":1},{"conditionParam1":1,"conditionParam2":3,"conditionType":1,"rating":5,"skillId":10},{"conditionParam1":1,"conditionParam2":2,"conditionType":1,"rating":5,"skillId":33},{"conditionParam1":1,"conditionParam2":3,"conditionType":1,"rating":5,"skillId":34},{"conditionParam1":0,"conditionParam2":0.7,"conditionType":2,"rating":5,"skillId":35},{"conditionParam1":1,"conditionParam2":0,"conditionType":4,"rating":5,"skillId":36}],"battlerHue":0,"battlerName":"Actor2_2","dropItems":[{"dataId":1,"denominator":1,"kind":0},{"dataId":1,"denominator":1,"kind":0},{"dataId":1,"denominator":1,"kind":0}],"exp":400,"traits":[{"code":22,"dataId":0,"value":0.95},{"code":22,"dataId":1,"value":0.05},{"code":31,"dataId":4,"value":0}],"gold":500,"name":"Maha","note":"<Sideview Battler: Actor2_2>\n<Sideview Weapon: 4, swing, 5>\n","params":[2000,500,110,110,110,110,110,110]},
{"id":11,"actions":[{"conditionParam1":0,"conditionParam2":0,"conditionType":0,"rating":5,"skillId":1},{"conditionParam1":1,"conditionParam2":3,"conditionType":1,"rating":5,"skillId":4},{"conditionParam1":1,"conditionParam2":3,"conditionType":1,"rating":5,"skillId":3},{"conditionParam1":1,"conditionParam2":3,"conditionType":1,"rating":5,"skillId":12},{"conditionParam1":1,"conditionParam2":3,"conditionType":1,"rating":5,"skillId":5}],"battlerHue":0,"battlerName":"Actor1_5","dropItems":[{"dataId":1,"denominator":1,"kind":0},{"dataId":1,"denominator":1,"kind":0},{"dataId":1,"denominator":1,"kind":0}],"exp":400,"traits":[{"code":22,"dataId":0,"value":0.95},{"code":22,"dataId":1,"value":0.05},{"code":31,"dataId":1,"value":0}],"gold":500,"name":"Tucka","note":"<Sideview Battler: Actor1_5>\n<Sideview Weapon: 1, swing, 1>\n","params":[2000,500,110,110,110,110,110,110]},
{"id":12,"actions":[{"conditionParam1":0,"conditionParam2":0,"conditionType":0,"rating":5,"skillId":1},{"conditionParam1":1,"conditionParam2":3,"conditionType":1,"rating":5,"skillId":15},{"conditionParam1":1,"conditionParam2":3,"conditionType":1,"rating":5,"skillId":11},{"conditionParam1":1,"conditionParam2":3,"conditionType":1,"rating":5,"skillId":16},{"conditionParam1":1,"conditionParam2":3,"conditionType":1,"rating":5,"skillId":23}],"battlerHue":0,"battlerName":"Actor1_6","dropItems":[{"dataId":1,"denominator":1,"kind":0},{"dataId":1,"denominator":1,"kind":0},{"dataId":1,"denominator":1,"kind":0}],"exp":400,"traits":[{"code":22,"dataId":0,"value":0.95},{"code":22,"dataId":1,"value":0.05},{"code":31,"dataId":3,"value":0}],"gold":500,"name":"Hunter","note":"<Sideview Battler: Actor3_7>\n<Sideview Weapon: 7, missile, 6>\n","params":[2000,500,110,110,110,110,110,110]},
{"id":13,"actions":[{"conditionParam1":0,"conditionParam2":0,"conditionType":0,"rating":5,"skillId":1},{"conditionParam1":1,"conditionParam2":3,"conditionType":1,"rating":5,"skillId":19},{"conditionParam1":1,"conditionParam2":3,"conditionType":1,"rating":5,"skillId":20},{"conditionParam1":1,"conditionParam2":3,"conditionType":1,"rating":5,"skillId":3},{"conditionParam1":1,"conditionParam2":3,"conditionType":1,"rating":5,"skillId":4},{"conditionParam1":0,"conditionParam2":0.5,"conditionType":2,"rating":5,"skillId":8}],"battlerHue":0,"battlerName":"General_m","dropItems":[{"kind":1,"dataId":4,"denominator":1},{"dataId":1,"denominator":1,"kind":0},{"dataId":1,"denominator":1,"kind":0}],"exp":1700,"traits":[{"code":22,"dataId":0,"value":0.95},{"code":22,"dataId":1,"value":0.05},{"code":31,"dataId":1,"value":0},{"code":63,"dataId":1,"value":1}],"gold":2000,"name":"Killa","note":"<Sideview Battler: General_M>\n<Sideview Weapon: 3, swing, 11>\n","params":[5000,1000,120,120,120,120,120,120]},
{"id":14,"actions":[{"conditionParam1":0,"conditionParam2":0,"conditionType":0,"rating":5,"skillId":1}],"battlerHue":80,"battlerName":"Willowisp","dropItems":[{"kind":1,"dataId":20,"denominator":10},{"kind":1,"dataId":1,"denominator":3},{"dataId":1,"denominator":1,"kind":0}],"exp":200,"traits":[{"code":22,"dataId":0,"value":0.95},{"code":22,"dataId":1,"value":0.05},{"code":31,"dataId":1,"value":0}],"gold":200,"name":"Willowsip","note":"<Sideview Battler: willowisp-gold_2>\n<Scale Sprite: 200%>\n","params":[200,200,15,15,15,15,15,15]},
{"id":15,"actions":[{"conditionParam1":0,"conditionParam2":0,"conditionType":0,"rating":5,"skillId":1},{"conditionParam1":0,"conditionParam2":0.7,"conditionType":2,"rating":5,"skillId":8},{"conditionParam1":1,"conditionParam2":3,"conditionType":1,"rating":5,"skillId":22},{"conditionParam1":2,"conditionParam2":4,"conditionType":1,"rating":5,"skillId":5}],"battlerHue":258,"battlerName":"Plant","dropItems":[{"kind":1,"dataId":18,"denominator":5},{"kind":1,"dataId":19,"denominator":5},{"dataId":1,"denominator":1,"kind":0}],"exp":150,"traits":[{"code":22,"dataId":0,"value":0.95},{"code":22,"dataId":1,"value":0.05},{"code":31,"dataId":1,"value":0},{"code":13,"dataId":4,"value":0.1},{"code":14,"dataId":9,"value":1}],"gold":100,"name":"Plant","note":"<Sideview Battler: plant-green_2>\n<Scale Sprite: 200%>\n","params":[1800,500,120,120,120,120,120,120]},
{"id":16,"actions":[{"conditionParam1":0,"conditionParam2":0,"conditionType":0,"rating":5,"skillId":1},{"conditionParam1":2,"conditionParam2":4,"conditionType":1,"rating":5,"skillId":10},{"conditionParam1":1,"conditionParam2":3,"conditionType":1,"rating":5,"skillId":33},{"conditionParam1":1,"conditionParam2":3,"conditionType":1,"rating":5,"skillId":34},{"conditionParam1":2,"conditionParam2":4,"conditionType":1,"rating":5,"skillId":35},{"conditionParam1":1,"conditionParam2":0,"conditionType":4,"rating":5,"skillId":36},{"conditionParam1":1,"conditionParam2":3,"conditionType":1,"rating":5,"skillId":37}],"battlerHue":0,"battlerName":"Actor1_7","dropItems":[{"kind":1,"dataId":4,"denominator":1},{"dataId":1,"denominator":1,"kind":0},{"dataId":1,"denominator":1,"kind":0}],"exp":2000,"traits":[{"code":22,"dataId":0,"value":0.95},{"code":22,"dataId":1,"value":0.05},{"code":31,"dataId":4,"value":0}],"gold":2000,"name":"Waldron","note":"<Sideview Battler: Waldron>\n<Sideview Weapon: 2, swing, 5>\n","params":[8000,500,120,120,120,120,120,120]},
{"id":17,"actions":[{"conditionParam1":0,"conditionParam2":0,"conditionType":0,"rating":5,"skillId":1},{"conditionParam1":1,"conditionParam2":3,"conditionType":1,"rating":5,"skillId":19},{"conditionParam1":1,"conditionParam2":3,"conditionType":1,"rating":5,"skillId":20},{"conditionParam1":1,"conditionParam2":3,"conditionType":1,"rating":5,"skillId":38}],"battlerHue":0,"battlerName":"General_f","dropItems":[{"kind":1,"dataId":4,"denominator":1},{"kind":1,"dataId":20,"denominator":2},{"dataId":1,"denominator":1,"kind":0}],"exp":3500,"traits":[{"code":22,"dataId":0,"value":0.95},{"code":22,"dataId":1,"value":0.05},{"code":31,"dataId":1,"value":0},{"code":63,"dataId":1,"value":1},{"code":14,"dataId":9,"value":1},{"code":13,"dataId":9,"value":0.2}],"gold":2500,"name":"Gelena","note":"<Sideview Battler: Gelena>\n<Sideview Weapon: 10, thrust, 16>\n","params":[12000,1000,140,140,140,140,140,140]},
{"id":18,"actions":[{"conditionParam1":0,"conditionParam2":0,"conditionType":0,"rating":5,"skillId":1},{"conditionParam1":1,"conditionParam2":3,"conditionType":1,"rating":5,"skillId":11},{"conditionParam1":0,"conditionParam2":0.7,"conditionType":2,"rating":5,"skillId":8}],"battlerHue":86,"battlerName":"Sahuagin","dropItems":[{"kind":1,"dataId":18,"denominator":5},{"kind":1,"dataId":19,"denominator":5},{"dataId":1,"denominator":1,"kind":0}],"exp":180,"traits":[{"code":22,"dataId":0,"value":0.95},{"code":22,"dataId":1,"value":0.05},{"code":31,"dataId":3,"value":0},{"code":14,"dataId":7,"value":1},{"code":13,"dataId":7,"value":0.05}],"gold":120,"name":"Shark","note":"<Sideview Battler: sahuagin-black_2>\n<Scale Sprite: 200%>\n","params":[2000,500,140,140,140,140,140,140]},
{"id":19,"actions":[{"conditionParam1":0,"conditionParam2":0,"conditionType":0,"rating":5,"skillId":1},{"conditionParam1":1,"conditionParam2":3,"conditionType":1,"rating":5,"skillId":11},{"conditionParam1":2,"conditionParam2":4,"conditionType":1,"rating":5,"skillId":17},{"conditionParam1":0,"conditionParam2":0.7,"conditionType":2,"rating":5,"skillId":8}],"battlerHue":104,"battlerName":"Orc","dropItems":[{"kind":1,"dataId":18,"denominator":5},{"kind":1,"dataId":19,"denominator":5},{"kind":1,"dataId":20,"denominator":10}],"exp":200,"traits":[{"code":22,"dataId":0,"value":0.95},{"code":22,"dataId":1,"value":0.05},{"code":31,"dataId":3,"value":0},{"code":14,"dataId":7,"value":1},{"code":13,"dataId":7,"value":0.1}],"gold":150,"name":"Orc","note":"<Sideview Battler: cheiftan-sv_2>\n<Sideview Weapon: 7, missile, 9>","params":[2500,500,150,150,150,150,150,150]},
{"id":20,"actions":[{"conditionParam1":0,"conditionParam2":0,"conditionType":0,"rating":5,"skillId":1},{"conditionParam1":1,"conditionParam2":3,"conditionType":1,"rating":5,"skillId":11},{"conditionParam1":0,"conditionParam2":0.7,"conditionType":2,"rating":5,"skillId":8},{"conditionParam1":1,"conditionParam2":3,"conditionType":1,"rating":5,"skillId":17},{"conditionParam1":2,"conditionParam2":4,"conditionType":1,"rating":5,"skillId":33},{"conditionParam1":1,"conditionParam2":3,"conditionType":1,"rating":5,"skillId":4}],"battlerHue":147,"battlerName":"Ogre","dropItems":[{"kind":1,"dataId":20,"denominator":10},{"kind":1,"dataId":4,"denominator":1},{"dataId":1,"denominator":1,"kind":0}],"exp":4000,"traits":[{"code":22,"dataId":0,"value":0.95},{"code":22,"dataId":1,"value":0.05},{"code":31,"dataId":3,"value":0},{"code":63,"dataId":1,"value":1},{"code":14,"dataId":7,"value":1}],"gold":3000,"name":"OrcChampion","note":"<Sideview Battler: ogre-red_2>\n<Scale Sprite: 200%>","params":[15000,3000,160,160,160,160,160,160]},
{"id":21,"actions":[{"conditionParam1":0,"conditionParam2":0,"conditionType":0,"rating":5,"skillId":1},{"conditionParam1":1,"conditionParam2":3,"conditionType":1,"rating":5,"skillId":19},{"conditionParam1":1,"conditionParam2":3,"conditionType":1,"rating":5,"skillId":20},{"conditionParam1":1,"conditionParam2":3,"conditionType":1,"rating":5,"skillId":38},{"conditionParam1":2,"conditionParam2":4,"conditionType":1,"rating":5,"skillId":39}],"battlerHue":229,"battlerName":"Demon","dropItems":[{"kind":1,"dataId":20,"denominator":1},{"kind":1,"dataId":4,"denominator":1},{"dataId":1,"denominator":1,"kind":0}],"exp":4500,"traits":[{"code":22,"dataId":0,"value":0.95},{"code":22,"dataId":1,"value":0.05},{"code":31,"dataId":1,"value":0},{"code":63,"dataId":1,"value":1},{"code":14,"dataId":6,"value":1},{"code":14,"dataId":9,"value":1},{"code":13,"dataId":9,"value":0.1}],"gold":3000,"name":"GelenaFallenForm","note":"<Sideview Battler: demon-blue_2>\n<Scale Sprite: 200%>","params":[18000,5000,170,170,170,170,170,170]},
{"id":22,"actions":[{"conditionParam1":0,"conditionParam2":0,"conditionType":0,"rating":5,"skillId":1},{"conditionParam1":1,"conditionParam2":2,"conditionType":1,"rating":5,"skillId":3},{"conditionParam1":1,"conditionParam2":2,"conditionType":1,"rating":5,"skillId":4},{"conditionParam1":0,"conditionParam2":0.6,"conditionType":2,"rating":5,"skillId":8}],"battlerHue":0,"battlerName":"Soldier","dropItems":[{"kind":1,"dataId":18,"denominator":5},{"kind":1,"dataId":19,"denominator":5},{"dataId":1,"denominator":1,"kind":0}],"exp":250,"traits":[{"code":22,"dataId":0,"value":0.95},{"code":22,"dataId":1,"value":0.05},{"code":31,"dataId":1,"value":0},{"code":32,"dataId":8,"value":0.1}],"gold":150,"name":"Kingdom Knight","note":"<Sideview Battler: soldier-2_3>\n<Sideview Weapon: 2, swing, 7>\n","params":[2500,500,100,100,100,100,100,100]},
{"id":23,"actions":[{"conditionParam1":0,"conditionParam2":0,"conditionType":0,"rating":5,"skillId":1},{"conditionParam1":0,"conditionParam2":0.6,"conditionType":2,"rating":5,"skillId":8},{"conditionParam1":1,"conditionParam2":2,"conditionType":1,"rating":5,"skillId":9},{"conditionParam1":1,"conditionParam2":2,"conditionType":1,"rating":5,"skillId":13},{"conditionParam1":1,"conditionParam2":3,"conditionType":1,"rating":5,"skillId":14},{"conditionParam1":0,"conditionParam2":0.6,"conditionType":2,"rating":5,"skillId":21},{"conditionParam1":1,"conditionParam2":2,"conditionType":1,"rating":5,"skillId":30},{"conditionParam1":1,"conditionParam2":2,"conditionType":1,"rating":5,"skillId":45}],"battlerHue":0,"battlerName":"Actor2_4","dropItems":[{"dataId":1,"denominator":1,"kind":0},{"dataId":1,"denominator":1,"kind":0},{"dataId":1,"denominator":1,"kind":0}],"exp":0,"traits":[{"code":22,"dataId":0,"value":0.95},{"code":22,"dataId":1,"value":0.05},{"code":31,"dataId":2,"value":0}],"gold":0,"name":"Era","note":"<Sideview Battler: Era>\n<Sideview Weapon: 6, swing, 3>\n","params":[18000,5000,110,110,110,110,110,110]},
{"id":24,"actions":[{"conditionParam1":0,"conditionParam2":0,"conditionType":0,"rating":5,"skillId":1},{"conditionParam1":1,"conditionParam2":2,"conditionType":1,"rating":5,"skillId":4},{"conditionParam1":1,"conditionParam2":3,"conditionType":1,"rating":5,"skillId":43},{"conditionParam1":0,"conditionParam2":0.7,"conditionType":2,"rating":5,"skillId":8},{"conditionParam1":1,"conditionParam2":3,"conditionType":1,"rating":5,"skillId":5}],"battlerHue":139,"battlerName":"Snake","dropItems":[{"kind":1,"dataId":18,"denominator":10},{"kind":1,"dataId":19,"denominator":5},{"dataId":1,"denominator":1,"kind":0}],"exp":300,"traits":[{"code":22,"dataId":0,"value":0.95},{"code":22,"dataId":1,"value":0.05},{"code":31,"dataId":1,"value":0},{"code":13,"dataId":4,"value":0.15}],"gold":200,"name":"Snake","note":"<Sideview Battler: snake-black-red_2>\n<Scale Sprite: 200%>","params":[3000,2000,160,160,160,160,160,160]},
{"id":25,"actions":[{"conditionParam1":0,"conditionParam2":0,"conditionType":0,"rating":5,"skillId":1},{"conditionParam1":1,"conditionParam2":3,"conditionType":1,"rating":5,"skillId":5},{"conditionParam1":1,"conditionParam2":3,"conditionType":1,"rating":5,"skillId":38},{"conditionParam1":0,"conditionParam2":0.7,"conditionType":2,"rating":5,"skillId":21},{"conditionParam1":1,"conditionParam2":3,"conditionType":1,"rating":5,"skillId":20}],"battlerHue":98,"battlerName":"Ghost","dropItems":[{"kind":1,"dataId":4,"denominator":1},{"dataId":1,"denominator":1,"kind":0},{"dataId":1,"denominator":1,"kind":0}],"exp":5000,"traits":[{"code":22,"dataId":0,"value":0.95},{"code":22,"dataId":1,"value":0.05},{"code":31,"dataId":1,"value":0},{"code":63,"dataId":1,"value":1},{"code":13,"dataId":4,"value":0.2}],"gold":2000,"name":"Ghost","note":"<Sideview Battler: ghost-death_4>\n<Scale Sprite: 300%>","params":[18000,5000,150,150,150,150,150,150]},
{"id":26,"actions":[{"conditionParam1":0,"conditionParam2":0,"conditionType":0,"rating":5,"skillId":1},{"conditionParam1":1,"conditionParam2":2,"conditionType":1,"rating":5,"skillId":11},{"conditionParam1":1,"conditionParam2":1,"conditionType":1,"rating":5,"skillId":15},{"conditionParam1":1,"conditionParam2":3,"conditionType":1,"rating":5,"skillId":16},{"conditionParam1":2,"conditionParam2":4,"conditionType":1,"rating":5,"skillId":17},{"conditionParam1":1,"conditionParam2":3,"conditionType":1,"rating":5,"skillId":31},{"conditionParam1":0,"conditionParam2":0.5,"conditionType":2,"rating":5,"skillId":47}],"battlerHue":0,"battlerName":"Swordsman","dropItems":[{"dataId":1,"denominator":1,"kind":0},{"dataId":1,"denominator":1,"kind":0},{"dataId":1,"denominator":1,"kind":0}],"exp":0,"traits":[{"code":22,"dataId":0,"value":0.95},{"code":22,"dataId":1,"value":0.05},{"code":31,"dataId":3,"value":0}],"gold":0,"name":"Krurlas","note":"<Sideview Battler: Krurlas>\n<Sideview Weapon: 8, missile, 9>\n","params":[20000,5000,200,200,200,200,200,200]},
{"id":27,"actions":[{"conditionParam1":0,"conditionParam2":0,"conditionType":0,"rating":5,"skillId":9},{"conditionParam1":1,"conditionParam2":3,"conditionType":1,"rating":5,"skillId":13},{"conditionParam1":1,"conditionParam2":3,"conditionType":1,"rating":5,"skillId":14},{"conditionParam1":0,"conditionParam2":0.7,"conditionType":2,"rating":5,"skillId":8},{"conditionParam1":0,"conditionParam2":0.7,"conditionType":2,"rating":5,"skillId":21},{"conditionParam1":1,"conditionParam2":2,"conditionType":1,"rating":5,"skillId":30},{"conditionParam1":1,"conditionParam2":2,"conditionType":1,"rating":5,"skillId":45},{"conditionParam1":1,"conditionParam2":4,"conditionType":1,"rating":5,"skillId":46},{"conditionParam1":0,"conditionParam2":0.8,"conditionType":2,"rating":5,"skillId":53}],"battlerHue":0,"battlerName":"Actor3_1","dropItems":[{"kind":1,"dataId":31,"denominator":1},{"dataId":1,"denominator":1,"kind":0},{"dataId":1,"denominator":1,"kind":0}],"exp":7000,"traits":[{"code":22,"dataId":0,"value":0.95},{"code":22,"dataId":1,"value":0.05},{"code":31,"dataId":2,"value":0}],"gold":4000,"name":"Valha","note":"<Sideview Battler: ValhaPrince>\n<Sideview Weapon: 6, swing, 3>\n","params":[20000,5000,180,180,180,180,180,180]},
{"id":28,"actions":[{"conditionParam1":0,"conditionParam2":0,"conditionType":0,"rating":5,"skillId":1},{"conditionParam1":1,"conditionParam2":2,"conditionType":1,"rating":5,"skillId":11},{"conditionParam1":1,"conditionParam2":3,"conditionType":1,"rating":5,"skillId":15},{"conditionParam1":1,"conditionParam2":4,"conditionType":1,"rating":5,"skillId":16},{"conditionParam1":1,"conditionParam2":4,"conditionType":1,"rating":5,"skillId":17},{"conditionParam1":1,"conditionParam2":3,"conditionType":1,"rating":5,"skillId":23},{"conditionParam1":1,"conditionParam2":3,"conditionType":1,"rating":5,"skillId":31},{"conditionParam1":1,"conditionParam2":2,"conditionType":1,"rating":5,"skillId":41},{"conditionParam1":0,"conditionParam2":0.5,"conditionType":2,"rating":5,"skillId":47},{"conditionParam1":1,"conditionParam2":2,"conditionType":1,"rating":5,"skillId":50}],"battlerHue":0,"battlerName":"Actor3_6","dropItems":[{"kind":1,"dataId":31,"denominator":1},{"dataId":1,"denominator":1,"kind":0},{"dataId":1,"denominator":1,"kind":0}],"exp":3500,"traits":[{"code":22,"dataId":0,"value":0.95},{"code":22,"dataId":1,"value":0.05},{"code":31,"dataId":3,"value":0}],"gold":1000,"name":"Theri","note":"<Sideview Battler: Theri>\n<Sideview Weapon: 7, missile, 6>\n","params":[20000,5000,160,160,160,160,160,160]},
{"id":29,"actions":[{"conditionParam1":0,"conditionParam2":0,"conditionType":0,"rating":5,"skillId":1},{"conditionParam1":1,"conditionParam2":2,"conditionType":1,"rating":5,"skillId":33},{"conditionParam1":1,"conditionParam2":3,"conditionType":1,"rating":5,"skillId":52},{"conditionParam1":1,"conditionParam2":4,"conditionType":1,"rating":5,"skillId":48},{"conditionParam1":1,"conditionParam2":4,"conditionType":1,"rating":5,"skillId":10},{"conditionParam1":1,"conditionParam2":0,"conditionType":4,"rating":5,"skillId":36},{"conditionParam1":1,"conditionParam2":3,"conditionType":1,"rating":5,"skillId":43},{"conditionParam1":1,"conditionParam2":2,"conditionType":1,"rating":5,"skillId":37},{"conditionParam1":0,"conditionParam2":0.5,"conditionType":2,"rating":5,"skillId":35}],"battlerHue":0,"battlerName":"Actor1_7","dropItems":[{"kind":1,"dataId":31,"denominator":1},{"dataId":1,"denominator":1,"kind":0},{"dataId":1,"denominator":1,"kind":0}],"exp":3500,"traits":[{"code":22,"dataId":0,"value":0.95},{"code":22,"dataId":1,"value":0.05},{"code":31,"dataId":4,"value":0}],"gold":1000,"name":"Waldron","note":"<Sideview Battler: Waldron>\n<Sideview Weapon: 2, swing, 5>\n","params":[20000,5000,160,160,160,160,160,160]},
{"id":30,"actions":[{"conditionParam1":0,"conditionParam2":0,"conditionType":0,"rating":5,"skillId":9},{"conditionParam1":1,"conditionParam2":3,"conditionType":1,"rating":5,"skillId":13},{"conditionParam1":1,"conditionParam2":2,"conditionType":1,"rating":5,"skillId":45}],"battlerHue":157,"battlerName":"Firespirit","dropItems":[{"kind":1,"dataId":31,"denominator":10},{"kind":1,"dataId":18,"denominator":5},{"kind":1,"dataId":19,"denominator":5}],"exp":400,"traits":[{"code":22,"dataId":0,"value":0.95},{"code":22,"dataId":1,"value":0.05},{"code":31,"dataId":2,"value":0}],"gold":300,"name":"FireSkull","note":"<Sideview Battler: suffering-soul-evil_2>\n<Scale Sprite: 200%>\n","params":[5000,1000,180,180,180,180,180,180]},
{"id":31,"actions":[{"conditionParam1":0,"conditionParam2":0,"conditionType":0,"rating":5,"skillId":41},{"conditionParam1":1,"conditionParam2":2,"conditionType":1,"rating":5,"skillId":11},{"conditionParam1":1,"conditionParam2":1,"conditionType":1,"rating":5,"skillId":41},{"conditionParam1":1,"conditionParam2":3,"conditionType":1,"rating":5,"skillId":16},{"conditionParam1":2,"conditionParam2":4,"conditionType":1,"rating":5,"skillId":17},{"conditionParam1":1,"conditionParam2":3,"conditionType":1,"rating":5,"skillId":31},{"conditionParam1":0,"conditionParam2":0.5,"conditionType":2,"rating":5,"skillId":47},{"conditionParam1":1,"conditionParam2":1,"conditionType":1,"rating":5,"skillId":15}],"battlerHue":0,"battlerName":"Swordsman","dropItems":[{"kind":1,"dataId":4,"denominator":1},{"dataId":1,"denominator":1,"kind":0},{"dataId":1,"denominator":1,"kind":0}],"exp":5000,"traits":[{"code":22,"dataId":0,"value":0.95},{"code":22,"dataId":1,"value":0.05},{"code":31,"dataId":3,"value":0},{"code":63,"dataId":1,"value":1}],"gold":3000,"name":"Krurlas","note":"<Sideview Battler: Krurlas>\n<Sideview Weapon: 8, missile, 9>\n","params":[30000,5000,200,200,200,200,200,200]},
{"id":32,"actions":[{"conditionParam1":0,"conditionParam2":0,"conditionType":0,"rating":5,"skillId":11},{"conditionParam1":1,"conditionParam2":3,"conditionType":1,"rating":5,"skillId":17},{"conditionParam1":1,"conditionParam2":2,"conditionType":1,"rating":5,"skillId":47},{"conditionParam1":1,"conditionParam2":3,"conditionType":1,"rating":5,"skillId":19},{"conditionParam1":1,"conditionParam2":3,"conditionType":1,"rating":5,"skillId":20},{"conditionParam1":1,"conditionParam2":2,"conditionType":1,"rating":5,"skillId":38},{"conditionParam1":1,"conditionParam2":4,"conditionType":1,"rating":5,"skillId":39}],"battlerHue":144,"battlerName":"Gargoyle","dropItems":[{"kind":1,"dataId":4,"denominator":1},{"kind":1,"dataId":31,"denominator":3},{"dataId":1,"denominator":1,"kind":0}],"exp":5000,"traits":[{"code":22,"dataId":0,"value":0.95},{"code":22,"dataId":1,"value":0.05},{"code":31,"dataId":3,"value":0},{"code":63,"dataId":1,"value":1}],"gold":3000,"name":"KrurlasChildrenForm","note":"<Sideview Battler: gargoyle-grey-gold_2>\n<Scale Sprite: 200%>","params":[40000,7000,200,200,200,200,200,200]},
{"id":33,"actions":[{"conditionParam1":0,"conditionParam2":0,"conditionType":0,"rating":5,"skillId":1},{"conditionParam1":1,"conditionParam2":3,"conditionType":1,"rating":5,"skillId":19},{"conditionParam1":1,"conditionParam2":3,"conditionType":1,"rating":5,"skillId":20},{"conditionParam1":1,"conditionParam2":2,"conditionType":1,"rating":5,"skillId":38},{"conditionParam1":0,"conditionParam2":0.5,"conditionType":2,"rating":5,"skillId":39}],"battlerHue":255,"battlerName":"Mage","dropItems":[{"kind":1,"dataId":31,"denominator":10},{"kind":1,"dataId":18,"denominator":5},{"kind":1,"dataId":19,"denominator":5}],"exp":500,"traits":[{"code":22,"dataId":0,"value":0.95},{"code":22,"dataId":1,"value":0.05},{"code":31,"dataId":1,"value":0},{"code":13,"dataId":5,"value":0.2}],"gold":500,"name":"DarkMage","note":"<Sideview Battler: Mage-wi-alt-victory>\n<Sideview Weapon: 6, swing, 12>\n","params":[7000,3000,180,180,180,180,180,180]},
{"id":34,"actions":[{"conditionParam1":0,"conditionParam2":0,"conditionType":0,"rating":5,"skillId":1}],"battlerHue":0,"battlerName":"Fairy","dropItems":[{"dataId":1,"denominator":1,"kind":0},{"dataId":1,"denominator":1,"kind":0},{"dataId":1,"denominator":1,"kind":0}],"exp":0,"traits":[{"code":22,"dataId":0,"value":0.95},{"code":22,"dataId":1,"value":0.05},{"code":31,"dataId":1,"value":0}],"gold":0,"name":"Test enemy","note":"","params":[999999,0,10,10,10,10,10,10]},
{"id":35,"actions":[{"conditionParam1":0,"conditionParam2":0,"conditionType":0,"rating":5,"skillId":1},{"conditionParam1":1,"conditionParam2":3,"conditionType":1,"rating":5,"skillId":3},{"conditionParam1":1,"conditionParam2":3,"conditionType":1,"rating":5,"skillId":4},{"conditionParam1":0.1,"conditionParam2":0.5,"conditionType":2,"rating":5,"skillId":8},{"conditionParam1":1,"conditionParam2":3,"conditionType":1,"rating":5,"skillId":52},{"conditionParam1":1,"conditionParam2":2,"conditionType":1,"rating":5,"skillId":19},{"conditionParam1":1,"conditionParam2":3,"conditionType":1,"rating":5,"skillId":20},{"conditionParam1":1,"conditionParam2":2,"conditionType":1,"rating":5,"skillId":33},{"conditionParam1":0,"conditionParam2":0.3,"conditionType":2,"rating":5,"skillId":39}],"battlerHue":81,"battlerName":"Minotaur","dropItems":[{"kind":1,"dataId":4,"denominator":1},{"dataId":1,"denominator":1,"kind":0},{"dataId":1,"denominator":1,"kind":0}],"exp":5000,"traits":[{"code":22,"dataId":0,"value":0.95},{"code":22,"dataId":1,"value":0.05},{"code":31,"dataId":1,"value":0},{"code":63,"dataId":1,"value":1},{"code":13,"dataId":8,"value":0.3}],"gold":3000,"name":"Minotaur","note":"<Sideview Battler: minotaur-black_1>\n<Scale Sprite: 200%>\n","params":[40000,7000,200,200,200,200,200,200]},
{"id":36,"actions":[{"conditionParam1":0,"conditionParam2":0,"conditionType":0,"rating":5,"skillId":1},{"conditionParam1":1,"conditionParam2":3,"conditionType":1,"rating":5,"skillId":5},{"conditionParam1":1,"conditionParam2":3,"conditionType":1,"rating":5,"skillId":38},{"conditionParam1":0,"conditionParam2":0.7,"conditionType":2,"rating":5,"skillId":21},{"conditionParam1":1,"conditionParam2":3,"conditionType":1,"rating":5,"skillId":20},{"conditionParam1":0,"conditionParam2":0.5,"conditionType":2,"rating":5,"skillId":39},{"conditionParam1":1,"conditionParam2":3,"conditionType":1,"rating":5,"skillId":52}],"battlerHue":98,"battlerName":"Ghost","dropItems":[{"kind":1,"dataId":4,"denominator":1},{"dataId":1,"denominator":1,"kind":0},{"dataId":1,"denominator":1,"kind":0}],"exp":5000,"traits":[{"code":22,"dataId":0,"value":0.95},{"code":22,"dataId":1,"value":0.05},{"code":31,"dataId":1,"value":0},{"code":63,"dataId":1,"value":1},{"code":13,"dataId":4,"value":0.5}],"gold":2000,"name":"Ghost","note":"<Sideview Battler: ghost-death_4>\n<Scale Sprite: 300%>","params":[40000,7000,200,200,200,200,200,200]},
{"id":37,"actions":[{"conditionParam1":0,"conditionParam2":0,"conditionType":0,"rating":5,"skillId":1},{"conditionParam1":2,"conditionParam2":4,"conditionType":1,"rating":5,"skillId":19},{"conditionParam1":1,"conditionParam2":3,"conditionType":1,"rating":5,"skillId":20},{"conditionParam1":1,"conditionParam2":3,"conditionType":1,"rating":5,"skillId":38},{"conditionParam1":1,"conditionParam2":2,"conditionType":1,"rating":5,"skillId":39}],"battlerHue":0,"battlerName":"Fanatic","dropItems":[{"dataId":1,"denominator":1,"kind":0},{"dataId":1,"denominator":1,"kind":0},{"dataId":1,"denominator":1,"kind":0}],"exp":6000,"traits":[{"code":22,"dataId":0,"value":0.95},{"code":22,"dataId":1,"value":0.05},{"code":31,"dataId":1,"value":0},{"code":63,"dataId":1,"value":1},{"code":22,"dataId":5,"value":0.1},{"code":22,"dataId":6,"value":0.1}],"gold":4000,"name":"Mundo","note":"<Sideview Battler: Mundo>\n<Sideview Weapon: 11, thrust, 12>\n","params":[50000,9999,220,220,220,220,220,220]},
{"id":38,"actions":[{"conditionParam1":0,"conditionParam2":0,"conditionType":0,"rating":5,"skillId":1},{"conditionParam1":2,"conditionParam2":4,"conditionType":1,"rating":5,"skillId":19},{"conditionParam1":1,"conditionParam2":3,"conditionType":1,"rating":5,"skillId":20},{"conditionParam1":1,"conditionParam2":3,"conditionType":1,"rating":5,"skillId":38},{"conditionParam1":1,"conditionParam2":2,"conditionType":1,"rating":5,"skillId":39},{"conditionParam1":1,"conditionParam2":2,"conditionType":1,"rating":5,"skillId":24},{"conditionParam1":1,"conditionParam2":4,"conditionType":1,"rating":5,"skillId":25},{"conditionParam1":1,"conditionParam2":3,"conditionType":1,"rating":5,"skillId":26},{"conditionParam1":1,"conditionParam2":5,"conditionType":1,"rating":5,"skillId":42}],"battlerHue":0,"battlerName":"Fanatic","dropItems":[{"dataId":1,"denominator":1,"kind":0},{"dataId":1,"denominator":1,"kind":0},{"dataId":1,"denominator":1,"kind":0}],"exp":6000,"traits":[{"code":22,"dataId":0,"value":0.95},{"code":22,"dataId":1,"value":0.05},{"code":31,"dataId":1,"value":0},{"code":63,"dataId":1,"value":1},{"code":22,"dataId":5,"value":0.2},{"code":22,"dataId":6,"value":0.2}],"gold":4000,"name":"MundoSuperHuman","note":"<Sideview Battler: Mundo3>\n<Sideview Weapon: 2, swing, 57>\n","params":[60000,9999,240,240,240,240,240,240]},
{"id":39,"actions":[{"conditionParam1":0,"conditionParam2":0,"conditionType":0,"rating":5,"skillId":1},{"conditionParam1":2,"conditionParam2":4,"conditionType":1,"rating":5,"skillId":19},{"conditionParam1":1,"conditionParam2":3,"conditionType":1,"rating":5,"skillId":20},{"conditionParam1":1,"conditionParam2":3,"conditionType":1,"rating":5,"skillId":38},{"conditionParam1":1,"conditionParam2":2,"conditionType":1,"rating":5,"skillId":39},{"conditionParam1":1,"conditionParam2":3,"conditionType":1,"rating":5,"skillId":5},{"conditionParam1":1,"conditionParam2":3,"conditionType":1,"rating":5,"skillId":17},{"conditionParam1":1,"conditionParam2":3,"conditionType":1,"rating":5,"skillId":10},{"conditionParam1":1,"conditionParam2":3,"conditionType":1,"rating":5,"skillId":13}],"battlerHue":0,"battlerName":"Fanatic","dropItems":[{"dataId":1,"denominator":1,"kind":0},{"dataId":1,"denominator":1,"kind":0},{"dataId":1,"denominator":1,"kind":0}],"exp":6000,"traits":[{"code":22,"dataId":0,"value":0.95},{"code":22,"dataId":1,"value":0.05},{"code":31,"dataId":1,"value":0},{"code":63,"dataId":1,"value":1},{"code":22,"dataId":5,"value":0.3},{"code":22,"dataId":6,"value":0.3}],"gold":4000,"name":"MundoFinalForm","note":"<Sideview Battler: dark_lord__b_w_>\n<Scale Sprite: 200%>\n","params":[100000,9999,240,240,240,240,240,240]},
{"id":40,"actions":[{"conditionParam1":0,"conditionParam2":0,"conditionType":0,"rating":5,"skillId":1},{"conditionParam1":1,"conditionParam2":2,"conditionType":1,"rating":5,"skillId":33},{"conditionParam1":1,"conditionParam2":3,"conditionType":1,"rating":5,"skillId":52},{"conditionParam1":1,"conditionParam2":4,"conditionType":1,"rating":5,"skillId":48},{"conditionParam1":1,"conditionParam2":4,"conditionType":1,"rating":5,"skillId":10},{"conditionParam1":1,"conditionParam2":0,"conditionType":4,"rating":5,"skillId":36},{"conditionParam1":1,"conditionParam2":3,"conditionType":1,"rating":5,"skillId":43},{"conditionParam1":1,"conditionParam2":2,"conditionType":1,"rating":5,"skillId":37},{"conditionParam1":0,"conditionParam2":0.5,"conditionType":2,"rating":5,"skillId":35},{"conditionParam1":3,"conditionParam2":5,"conditionType":1,"rating":5,"skillId":56}],"battlerHue":0,"battlerName":"Actor1_7","dropItems":[{"kind":1,"dataId":4,"denominator":1},{"dataId":1,"denominator":1,"kind":0},{"dataId":1,"denominator":1,"kind":0}],"exp":3500,"traits":[{"code":22,"dataId":0,"value":0.95},{"code":22,"dataId":1,"value":0.05},{"code":31,"dataId":4,"value":0}],"gold":1000,"name":"Waldron","note":"<Sideview Battler: Waldron_Amored>\n<Sideview Weapon: 2, swing, 5>\n","params":[30000,5000,180,180,180,180,180,180]},
{"id":41,"actions":[{"conditionParam1":0,"conditionParam2":0,"conditionType":0,"rating":5,"skillId":1},{"conditionParam1":1,"conditionParam2":2,"conditionType":1,"rating":5,"skillId":11},{"conditionParam1":1,"conditionParam2":3,"conditionType":1,"rating":5,"skillId":15},{"conditionParam1":1,"conditionParam2":4,"conditionType":1,"rating":5,"skillId":16},{"conditionParam1":1,"conditionParam2":4,"conditionType":1,"rating":5,"skillId":17},{"conditionParam1":1,"conditionParam2":3,"conditionType":1,"rating":5,"skillId":23},{"conditionParam1":1,"conditionParam2":3,"conditionType":1,"rating":5,"skillId":31},{"conditionParam1":1,"conditionParam2":2,"conditionType":1,"rating":5,"skillId":41},{"conditionParam1":0,"conditionParam2":0.5,"conditionType":2,"rating":5,"skillId":47},{"conditionParam1":1,"conditionParam2":2,"conditionType":1,"rating":5,"skillId":50},{"conditionParam1":3,"conditionParam2":5,"conditionType":1,"rating":5,"skillId":58}],"battlerHue":0,"battlerName":"Actor3_6","dropItems":[{"kind":1,"dataId":4,"denominator":1},{"dataId":1,"denominator":1,"kind":0},{"dataId":1,"denominator":1,"kind":0}],"exp":3500,"traits":[{"code":22,"dataId":0,"value":0.95},{"code":22,"dataId":1,"value":0.05},{"code":31,"dataId":3,"value":0}],"gold":1000,"name":"Theri","note":"<Sideview Battler: Theri_Armored>\n<Sideview Weapon: 7, missile, 6>\n","params":[30000,5000,180,180,180,180,180,180]},
{"id":42,"actions":[{"conditionParam1":0,"conditionParam2":0,"conditionType":0,"rating":5,"skillId":9},{"conditionParam1":1,"conditionParam2":3,"conditionType":1,"rating":5,"skillId":13},{"conditionParam1":1,"conditionParam2":3,"conditionType":1,"rating":5,"skillId":14},{"conditionParam1":0,"conditionParam2":0.7,"conditionType":2,"rating":5,"skillId":8},{"conditionParam1":0,"conditionParam2":0.7,"conditionType":2,"rating":5,"skillId":21},{"conditionParam1":1,"conditionParam2":2,"conditionType":1,"rating":5,"skillId":30},{"conditionParam1":1,"conditionParam2":2,"conditionType":1,"rating":5,"skillId":45},{"conditionParam1":1,"conditionParam2":4,"conditionType":1,"rating":5,"skillId":46},{"conditionParam1":0,"conditionParam2":0.8,"conditionType":2,"rating":5,"skillId":53},{"conditionParam1":3,"conditionParam2":5,"conditionType":1,"rating":5,"skillId":57}],"battlerHue":0,"battlerName":"Actor3_1","dropItems":[{"kind":1,"dataId":4,"denominator":1},{"dataId":1,"denominator":1,"kind":0},{"dataId":1,"denominator":1,"kind":0}],"exp":3500,"traits":[{"code":22,"dataId":0,"value":0.95},{"code":22,"dataId":1,"value":0.05},{"code":31,"dataId":2,"value":0}],"gold":1000,"name":"Valha","note":"<Sideview Battler: ValhaPrince>\n<Sideview Weapon: 2, swing, 5>\n","params":[30000,5000,180,180,180,180,180,180]},
{"id":43,"actions":[{"conditionParam1":0,"conditionParam2":0,"conditionType":0,"rating":5,"skillId":1},{"conditionParam1":1,"conditionParam2":2,"conditionType":1,"rating":5,"skillId":24},{"conditionParam1":1,"conditionParam2":3,"conditionType":1,"rating":5,"skillId":25},{"conditionParam1":1,"conditionParam2":3,"conditionType":1,"rating":5,"skillId":26},{"conditionParam1":1,"conditionParam2":3,"conditionType":1,"rating":5,"skillId":42},{"conditionParam1":3,"conditionParam2":5,"conditionType":1,"rating":5,"skillId":59}],"battlerHue":0,"battlerName":"Angel","dropItems":[{"kind":1,"dataId":4,"denominator":1},{"dataId":1,"denominator":1,"kind":0},{"dataId":1,"denominator":1,"kind":0}],"exp":6500,"traits":[{"code":22,"dataId":0,"value":0.95},{"code":22,"dataId":1,"value":0.05},{"code":31,"dataId":1,"value":0}],"gold":4500,"name":"Elicia","note":"<Sideview Battler: actor3-4_2>\n<Sideview Weapon: 2, swing, 97>\n","params":[80000,9999,180,180,180,180,180,180]},
{"id":44,"actions":[{"conditionParam1":0,"conditionParam2":0,"conditionType":0,"rating":5,"skillId":1},{"conditionParam1":0,"conditionParam2":0.7,"conditionType":2,"rating":5,"skillId":8}],"battlerHue":0,"battlerName":"Angel","dropItems":[{"kind":1,"dataId":4,"denominator":1},{"dataId":1,"denominator":1,"kind":0},{"dataId":1,"denominator":1,"kind":0}],"exp":6500,"traits":[{"code":22,"dataId":0,"value":0.95},{"code":22,"dataId":1,"value":0.05},{"code":31,"dataId":1,"value":0},{"code":12,"dataId":3,"value":0.8},{"code":12,"dataId":5,"value":0.8},{"code":63,"dataId":1,"value":1},{"code":22,"dataId":6,"value":0.3},{"code":34,"dataId":0,"value":1},{"code":23,"dataId":2,"value":1}],"gold":4500,"name":"Elicia","note":"<Sideview Battler: IronGiant>\n","params":[80000,9999,180,180,180,180,180,180]}
]