{
"autoplayBgm":true,"autoplayBgs":false,"battleback1Name":"DemonCastle2","battleback2Name":"DemonCastle3","bgm":{"name":"Dungeon1","pan":0,"pitch":100,"volume":90},"bgs":{"name":"","pan":0,"pitch":100,"volume":90},"disableDashing":false,"displayName":"","encounterList":[],"encounterStep":30,"height":35,"note":"","parallaxLoopX":false,"parallaxLoopY":false,"parallaxName":"","parallaxShow":true,"parallaxSx":0,"parallaxSy":0,"scrollType":0,"specifyBattleback":true,"tilesetId":3,"width":39,
"data":[6224,6224,6224,6224,6224,6224,6224,6224,6224,6224,6224,6224,6224,6224,6224,6224,6224,6224,6224,6224,6224,6224,6224,6224,6224,6224,6224,6224,6224,6224,6224,6224,6224,6224,6224,6224,6224,6224,6224,6224,6224,6224,6224,6224,6224,6224,6224,6224,6224,6224,6224,6224,6224,6224,6224,6224,6224,6224,6224,6224,6224,6224,6224,6224,6224,6224,6224,6224,6224,6224,6224,6224,6224,6224,6224,6224,6224,6224,6224,6224,6224,6224,6224,6224,6224,6224,6224,6224,6224,6224,6224,6224,6224,6224,6224,6224,6224,6224,6224,6224,6224,6224,6224,6224,6224,6224,6224,6224,6224,6224,6224,6224,6224,6224,6224,6224,6224,6224,6224,6224,6224,6224,6224,6224,6224,6224,6224,6224,6224,6224,6224,6224,6224,6224,6224,6224,6224,6224,6224,6224,6224,6224,6224,6224,6224,6224,6224,6224,6224,6224,6224,6224,6224,6224,6224,6224,6224,6224,6224,6224,6224,6224,6224,6224,6224,6224,6224,6224,6224,6224,6224,6224,6224,6224,6224,6224,6224,6224,6224,6224,6224,6224,6224,6224,6224,6224,6224,6224,6224,6224,6224,6224,6224,6224,6224,6224,6224,6224,6224,6224,6224,6224,6224,6224,6224,6224,6224,6224,6224,6224,6224,6228,6252,6252,6252,6252,6252,6232,6224,6224,6224,6224,6224,6224,6224,6224,6224,6224,6224,6224,6224,6224,6224,6224,6224,6224,6224,6224,6224,6224,6224,6224,6224,6224,6224,6224,6224,6224,6228,6252,6262,6611,6610,6610,6610,6614,6264,6252,6232,6224,6224,6224,6224,6224,6224,6224,6224,6224,6224,6224,6224,6224,6224,6224,6224,6224,6224,6224,6224,6224,6224,6224,6224,6224,6224,6224,6228,6262,6611,6614,6617,6616,6616,6616,6620,6611,6614,6264,6232,6224,6224,6224,6224,6224,6224,6224,6224,6224,6224,6224,6224,6224,6224,6224,6224,6224,6224,6224,6224,6224,6224,6224,6224,6224,6224,6248,6615,6617,6620,4098,4084,4084,4084,4100,6617,6620,6615,6240,6224,6224,6224,6224,6224,6224,6224,6224,6224,6224,6224,6224,6224,6224,6224,6224,6224,6224,6224,6224,6224,6224,6224,6224,6224,6228,6262,6621,4098,4084,4065,4064,4064,4064,4066,4084,4100,6621,6264,6232,6224,6224,6224,6224,6224,6224,6224,6224,6224,6224,6224,6224,6224,6224,6224,6224,6224,6224,6224,6224,6224,6224,6224,6224,6248,6615,4098,4065,4064,4064,4064,4064,4064,4064,4064,4066,4100,6615,6240,6224,6224,6224,6224,6224,6224,6224,6224,6224,6224,6224,6224,6224,6224,6224,6224,6224,6224,6224,6224,6224,6224,6224,6224,6248,6621,4104,4092,4072,4064,4064,4064,4064,4064,4068,4092,4102,6621,6240,6224,6224,6224,6224,6224,6224,6224,6224,6224,6224,6224,6224,6224,6224,6224,6224,6224,6224,6224,6224,6224,6224,6224,6224,6248,3714,3701,3725,4104,4072,4064,4064,4064,4068,4102,3723,3702,3716,6240,6224,6224,6224,6224,6224,6224,6224,6224,6224,6224,6224,6224,6224,6224,6224,6224,6224,6224,6224,6224,6224,6224,6224,6224,6248,3720,3705,6942,3722,4104,4072,4064,4068,4102,3722,6942,3698,3718,6240,6224,6224,6224,6224,6224,6224,6224,6224,6224,6224,6224,6224,6224,6224,6224,6224,6224,6224,6224,6224,6224,6224,6224,6224,6226,6260,3712,7295,3697,3716,4080,4064,4088,3714,3706,7295,3712,6258,6225,6224,6224,6224,6224,6224,6224,6224,6224,6224,6224,6224,6224,6224,6224,6224,6224,6224,6224,6224,6224,6224,6224,6224,6224,6224,6248,3721,3702,3681,3704,4080,4064,4088,3696,3682,3701,3719,6240,6224,6224,6224,6224,6224,6224,6224,6224,6224,6224,6224,6224,6224,6224,6224,6224,6224,6224,6224,6224,6224,6224,6224,6224,6224,6224,6226,6260,3720,3708,3705,4080,4064,4088,3698,3708,3718,6258,6225,6224,6224,6224,6224,6224,6224,6224,6224,6224,6224,6224,6224,6224,6224,6224,6224,6224,6224,6224,6224,6224,6224,6224,6224,6224,6224,6224,6226,6244,6260,3724,4080,4064,4088,3724,6258,6244,6225,6224,6224,6224,6224,6224,6224,6224,6224,6224,6224,6224,6224,6224,6224,6224,6224,6224,6224,6224,6224,6224,6224,6224,6224,6224,6224,6224,6224,6224,6224,6226,6260,4104,4092,4102,6258,6225,6224,6224,6224,6224,6224,6224,6224,6224,6224,6224,6224,6224,6224,6224,6224,6224,6224,6224,6224,6224,6224,6224,6224,6224,6224,6224,6224,6224,6224,6224,6224,6224,6224,6248,1620,1621,1622,6240,6224,6224,6224,6224,6224,6224,6224,6224,6224,6224,6224,6224,6224,6224,6224,6224,6224,6224,6224,6224,6224,6224,6224,6224,6224,6224,6224,6224,6224,6224,6224,6224,6224,6224,6248,1620,1621,1622,6240,6224,6224,6224,6224,6224,6224,6224,6224,6224,6224,6224,6224,6224,6224,6224,6224,6224,6224,6224,6224,6224,6224,6224,6224,6224,6224,6224,6224,6224,6224,6224,6224,6224,6224,6248,1620,1621,1622,6240,6224,6224,6224,6224,6224,6224,6224,6224,6224,6224,6224,6224,6224,6224,6224,6224,6224,6224,6224,6224,6224,6224,6224,6224,6224,6224,6224,6224,6224,6224,6224,6224,6224,6224,6248,1620,1621,1622,6240,6224,6224,6224,6224,6224,6224,6224,6224,6224,6224,6224,6224,6224,6224,6224,6224,6224,6224,6224,6224,6224,6224,6224,6224,6224,6224,6224,6224,6224,6224,6224,6224,6224,6224,6248,3723,3713,3725,6240,6224,6224,6224,6224,6224,6224,6224,6224,6224,6224,6224,6224,6224,6224,6224,6224,6224,6224,6224,6224,6224,6224,6224,6224,6224,6224,6224,6224,6224,6224,6224,6224,6224,6224,6226,6244,6244,6244,6225,6224,6224,6224,6224,6224,6224,6224,6224,6224,6224,6224,6224,6224,6224,6224,6224,6224,6224,6224,6224,6224,6224,6224,6224,6224,6224,6224,6224,6224,6224,6224,6224,6224,6224,6224,6224,6224,6224,6224,6224,6224,6224,6224,6224,6224,6224,6224,6224,6224,6224,6224,6224,6224,6224,6224,6224,6224,6224,6224,6224,6224,6224,6224,6224,6224,6224,6224,6224,6224,6224,6224,6224,6224,6224,6224,6224,6224,6224,6224,6224,6224,6224,6224,6224,6224,6224,6224,6224,6224,6224,6224,6224,6224,6224,6224,6224,6224,6224,6224,6224,6224,6224,6224,6224,6224,6224,6224,6224,6224,6224,6224,6224,6224,6224,6224,6224,6224,6224,6224,6224,6224,6224,6224,6224,6224,6224,6224,6224,6224,6224,6224,6224,6224,6224,6224,6224,6224,6224,6224,6224,6224,6224,6224,6224,6224,6224,6224,6224,6224,6224,6224,6224,6224,6224,6224,6224,6224,6224,6224,6224,6224,6224,6224,6224,6224,6224,6224,6224,6224,6224,6224,6224,6224,6224,6224,6224,6224,6224,6224,6224,6224,6224,6224,6224,6224,6224,6224,6224,6224,6224,6224,6224,6224,6224,6224,6224,6224,6224,6224,6224,6224,6224,6224,6224,6224,6224,6224,6224,6224,6224,6224,6224,6224,6224,6224,6224,6224,6224,6224,6224,6224,6224,6224,6224,6224,6224,6224,6224,6224,6224,6224,6224,6224,6224,6224,6224,6224,6224,6224,6224,6224,6224,6224,6224,6224,6224,6224,6224,6224,6224,6224,6224,6224,6224,6224,6224,6224,6224,6224,6224,6224,6224,6224,6224,6224,6224,6224,6224,6224,6224,6224,6224,6224,6224,6224,6224,6224,6224,6224,6224,6224,6224,6224,6224,6224,6224,6224,6224,6224,6224,6224,6224,6224,6224,6224,6224,6224,6224,6224,6224,6224,6224,6224,6224,6224,6224,6224,6224,6224,6224,6224,6224,6224,6224,6224,6224,6224,6224,6224,6224,6224,6224,6224,6224,6224,6224,6224,6224,6224,6224,6224,6224,6224,6224,6224,6224,6224,6224,6224,6224,6224,6224,6224,6224,6224,6224,6224,6224,6224,6224,6224,6224,6224,6224,6224,6224,6224,6224,6224,6224,6224,6224,6224,6224,6224,6224,6224,6224,6224,6224,6224,6224,6224,6224,6224,6224,6224,6224,6224,6224,6224,6224,6224,6224,6224,6224,6224,6224,6224,6224,6224,6224,6224,6224,6224,6224,6224,6224,6224,6224,6224,6224,6224,6224,6224,6224,6224,0,0,0,0,0,0,0,0,0,0,0,0,0,0,0,0,0,0,0,0,0,0,0,0,0,0,0,0,0,0,0,0,0,0,0,0,0,0,0,0,0,0,0,0,0,0,0,0,0,0,0,0,0,0,0,0,0,0,0,0,0,0,0,0,0,0,0,0,0,0,0,0,0,0,0,0,0,0,0,0,0,0,0,0,0,0,0,0,0,0,0,0,0,0,0,0,0,0,0,0,0,0,0,0,0,0,0,0,0,0,0,0,0,0,0,0,0,0,0,0,0,0,0,0,0,0,0,0,0,0,0,0,0,0,0,0,0,0,0,0,0,0,0,0,0,0,0,0,0,0,0,0,0,0,0,0,0,0,0,0,0,0,0,0,0,0,0,0,0,0,0,0,0,0,0,0,0,0,0,0,0,0,0,0,0,0,0,0,0,0,0,0,0,0,0,0,0,0,0,0,0,0,0,0,0,0,0,0,0,0,0,0,0,0,0,0,0,0,0,0,0,0,0,0,0,0,0,0,0,0,0,0,0,0,0,0,0,0,0,0,0,0,0,0,0,0,0,0,0,0,0,0,0,0,0,0,0,0,0,0,0,0,0,0,0,0,0,0,0,0,0,0,0,0,0,0,0,0,0,0,0,0,0,0,0,0,0,0,0,0,0,0,0,0,0,0,0,0,0,0,0,0,0,0,0,0,0,0,0,0,0,0,0,0,0,0,0,0,0,0,0,0,0,0,0,0,0,0,0,4146,4132,4132,4132,4148,0,0,0,0,0,0,0,0,0,0,0,0,0,0,0,0,0,0,0,0,0,0,0,0,0,0,0,0,0,0,0,0,4146,4132,4113,4112,4112,4112,4114,4132,4148,0,0,0,0,0,0,0,0,0,0,0,0,0,0,0,0,0,0,0,0,0,0,0,0,0,0,0,0,0,4146,4113,4112,4112,4112,4112,4112,4112,4112,4114,4148,0,0,0,0,0,0,0,0,0,0,0,0,0,0,0,0,0,0,0,0,0,0,0,0,0,0,0,0,4152,4140,4120,4112,4112,4112,4112,4112,4116,4140,4150,0,0,0,0,0,0,0,0,0,0,0,0,0,0,0,0,0,0,0,0,0,0,0,0,0,0,0,3762,3749,3773,4152,4120,4112,4112,4112,4116,4150,3771,3750,3764,0,0,0,0,0,0,0,0,0,0,0,0,0,0,0,0,0,0,0,0,0,0,0,0,0,0,3768,3753,0,3770,4152,4120,4112,4116,4150,3770,0,3746,3766,0,0,0,0,0,0,0,0,0,0,0,0,0,0,0,0,0,0,0,0,0,0,0,0,0,0,0,3760,0,3745,3764,4128,4112,4136,3762,3754,0,3760,0,0,0,0,0,0,0,0,0,0,0,0,0,0,0,0,0,0,0,0,0,0,0,0,0,0,0,0,3769,3750,3729,3752,4128,4112,4136,3744,3730,3749,3767,0,0,0,0,0,0,0,0,0,0,0,0,0,0,0,0,0,0,0,0,0,0,0,0,0,0,0,0,0,3768,3756,3753,4128,4112,4136,3746,3756,3766,0,0,0,0,0,0,0,0,0,0,0,0,0,0,0,0,0,0,0,0,0,0,0,0,0,0,0,0,0,0,0,0,3772,4128,4112,4136,3772,0,0,0,0,0,0,0,0,0,0,0,0,0,0,0,0,0,0,0,0,0,0,0,0,0,0,0,0,0,0,0,0,0,0,0,4152,4140,4150,0,0,0,0,0,0,0,0,0,0,0,0,0,0,0,0,0,0,0,0,0,0,0,0,0,0,0,0,0,0,0,0,0,0,0,0,0,0,0,0,0,0,0,0,0,0,0,0,0,0,0,0,0,0,0,0,0,0,0,0,0,0,0,0,0,0,0,0,0,0,0,0,0,0,0,0,0,0,0,0,0,0,0,0,0,0,0,0,0,0,0,0,0,0,0,0,0,0,0,0,0,0,0,0,0,0,0,0,0,0,0,0,0,0,0,0,0,0,0,0,0,0,0,0,0,0,0,0,0,0,0,0,0,0,0,0,0,0,0,0,0,0,0,0,0,0,0,0,0,0,0,0,0,0,0,0,0,0,0,0,0,0,0,0,0,0,0,0,0,0,0,0,0,0,0,0,0,0,0,0,0,0,0,0,0,0,0,0,0,0,0,0,3771,3761,3773,0,0,0,0,0,0,0,0,0,0,0,0,0,0,0,0,0,0,0,0,0,0,0,0,0,0,0,0,0,0,0,0,0,0,0,0,0,0,0,0,0,0,0,0,0,0,0,0,0,0,0,0,0,0,0,0,0,0,0,0,0,0,0,0,0,0,0,0,0,0,0,0,0,0,0,0,0,0,0,0,0,0,0,0,0,0,0,0,0,0,0,0,0,0,0,0,0,0,0,0,0,0,0,0,0,0,0,0,0,0,0,0,0,0,0,0,0,0,0,0,0,0,0,0,0,0,0,0,0,0,0,0,0,0,0,0,0,0,0,0,0,0,0,0,0,0,0,0,0,0,0,0,0,0,0,0,0,0,0,0,0,0,0,0,0,0,0,0,0,0,0,0,0,0,0,0,0,0,0,0,0,0,0,0,0,0,0,0,0,0,0,0,0,0,0,0,0,0,0,0,0,0,0,0,0,0,0,0,0,0,0,0,0,0,0,0,0,0,0,0,0,0,0,0,0,0,0,0,0,0,0,0,0,0,0,0,0,0,0,0,0,0,0,0,0,0,0,0,0,0,0,0,0,0,0,0,0,0,0,0,0,0,0,0,0,0,0,0,0,0,0,0,0,0,0,0,0,0,0,0,0,0,0,0,0,0,0,0,0,0,0,0,0,0,0,0,0,0,0,0,0,0,0,0,0,0,0,0,0,0,0,0,0,0,0,0,0,0,0,0,0,0,0,0,0,0,0,0,0,0,0,0,0,0,0,0,0,0,0,0,0,0,0,0,0,0,0,0,0,0,0,0,0,0,0,0,0,0,0,0,0,0,0,0,0,0,0,0,0,0,0,0,0,0,0,0,0,0,0,0,0,0,0,0,0,0,0,0,0,0,0,0,0,0,0,0,0,0,0,0,0,0,0,0,0,0,0,0,0,0,0,0,0,0,0,0,0,0,0,0,0,0,0,0,0,0,0,0,0,0,0,0,0,0,0,0,0,0,0,0,0,0,0,0,0,0,0,0,0,0,0,0,0,0,0,0,0,0,0,0,0,0,0,0,0,0,0,0,0,0,0,0,0,0,0,0,0,0,0,0,0,0,0,0,0,0,0,0,0,0,0,0,0,0,0,0,0,0,0,0,0,0,0,0,0,0,0,0,0,0,0,0,0,0,0,0,0,0,0,0,0,0,0,0,0,0,0,0,0,0,0,0,0,0,0,0,0,0,0,0,0,0,0,0,0,0,0,0,0,0,0,0,0,0,0,0,0,0,0,0,0,0,0,0,0,0,0,0,0,0,0,0,0,0,0,0,0,0,0,0,0,0,0,0,0,0,0,0,0,0,0,0,0,0,0,0,0,0,0,0,0,0,0,0,0,0,0,0,0,0,0,0,0,0,0,0,0,0,0,0,0,0,0,0,0,0,0,0,0,0,0,0,0,0,0,0,0,0,0,0,0,0,0,0,0,0,0,0,0,0,0,0,0,0,0,0,0,0,0,0,0,0,0,0,0,0,0,0,0,0,0,0,0,0,0,0,0,0,0,0,0,0,0,0,0,0,0,0,0,0,0,0,0,0,0,0,0,0,0,0,0,0,0,0,0,0,0,0,0,0,0,0,0,0,0,0,0,0,0,0,0,0,0,0,0,0,0,0,0,0,0,0,0,0,0,0,0,0,0,0,0,0,0,0,0,0,0,0,0,0,0,0,0,0,0,0,0,0,0,0,0,0,0,0,0,0,0,0,0,0,0,0,0,0,0,0,0,0,0,0,0,0,0,0,0,0,0,0,0,0,0,0,0,0,0,0,0,0,0,0,0,0,0,0,0,0,0,0,0,0,0,0,0,0,0,0,0,0,0,0,0,0,0,0,0,0,0,0,0,0,0,0,0,0,0,0,0,0,0,0,0,0,0,0,0,0,0,0,0,0,0,0,0,0,0,0,0,0,0,0,0,0,0,0,0,0,0,0,0,0,0,0,0,0,0,0,0,0,0,0,0,0,0,0,0,0,0,0,0,0,0,0,0,0,0,0,0,0,0,0,0,0,0,0,0,0,0,0,0,0,0,0,0,0,0,0,0,0,0,0,0,0,0,0,0,0,0,0,0,0,0,0,0,0,0,0,0,0,0,0,0,0,0,0,0,0,0,0,0,0,0,0,0,0,0,0,0,0,0,0,0,0,0,0,0,0,0,0,0,0,0,0,0,0,0,0,0,0,0,0,0,0,0,0,0,0,0,0,0,0,0,0,0,0,0,0,0,0,0,0,0,0,0,0,0,0,0,0,0,0,0,0,0,0,0,0,0,0,0,0,0,0,0,0,0,0,0,0,0,0,0,0,0,0,0,0,0,0,0,0,0,0,0,0,0,0,0,0,0,0,0,0,0,0,0,0,0,0,0,0,0,0,0,0,0,0,0,0,0,0,0,0,0,0,0,0,0,0,0,0,0,0,0,0,0,0,0,0,0,0,0,0,0,0,0,0,0,0,0,0,0,0,0,0,0,0,0,0,0,0,0,0,0,0,0,0,0,0,0,0,0,0,0,0,0,0,0,0,0,0,0,0,0,0,0,0,0,0,0,0,0,0,0,0,0,0,0,0,0,0,0,0,0,0,0,0,0,0,0,0,0,0,0,0,0,0,0,0,0,0,0,0,0,0,0,0,0,0,0,0,0,0,0,0,0,0,0,0,0,0,0,0,0,0,0,0,0,0,0,0,0,0,0,0,0,0,0,0,0,0,0,0,0,0,0,0,0,0,0,0,0,0,0,0,0,0,0,0,0,0,0,0,0,0,0,0,0,0,0,0,0,0,0,0,0,0,0,0,0,0,0,0,0,0,0,0,0,0,0,0,0,0,0,0,0,0,0,0,0,0,0,0,0,0,0,0,0,0,0,0,0,0,0,0,0,0,0,0,0,0,0,0,0,0,0,0,0,0,0,0,0,0,0,0,0,0,0,0,0,0,0,0,0,0,0,0,0,0,0,0,0,0,0,0,0,0,0,0,0,0,0,0,0,0,0,0,0,0,0,0,0,0,0,0,0,0,0,0,0,0,0,0,0,0,0,0,0,0,0,0,0,0,0,0,0,0,0,0,0,0,0,0,0,0,0,0,0,0,0,0,0,0,0,0,0,0,0,0,0,0,0,0,0,0,0,0,0,0,0,0,0,0,0,0,0,0,0,0,0,0,0,0,0,0,0,0,0,0,0,0,0,0,0,0,0,0,0,0,0,0,0,0,0,0,0,0,0,0,0,0,0,0,0,0,0,0,0,0,0,0,0,0,0,0,0,0,0,0,0,0,0,0,0,0,0,0,0,0,0,0,0,0,0,0,0,0,0,0,0,0,0,0,0,0,0,0,0,0,0,0,0,0,0,0,0,0,0,0,0,0,0,0,0,0,0,0,0,0,0,0,0,0,0,0,0,0,0,0,0,0,0,0,0,0,0,0,0,0,0,0,0,0,0,0,0,0,0,0,0,0,0,0,0,0,0,0,0,0,0,0,0,0,0,0,0,0,0,0,0,0,0,0,0,0,0,0,0,0,0,0,0,0,0,0,0,0,0,0,0,0,0,0,0,0,0,0,0,0,0,0,0,0,0,0,0,0,0,0,0,0,0,0,0,0,0,0,0,0,0,0,0,0,0,0,0,0,0,0,0,0,0,0,0,0,0,0,0,0,0,0,0,0,0,0,0,0,0,0,0,0,0,0,0,0,0,0,0,0,0,0,0,0,0,0,0,0,0,0,0,0,0,0,0,0,0,0,0,0,0,0,0,0,0,0,0,0,0,0,0,0,0,0,0,0,0,0,0,0,0,0,0,0,0,0,0,0,0,0,0,0,0,0,0,0,0,0,0,0,0,0,0,0,0,0,0,0,0,0,0,0,0,0,0,0,0,0,0,0,0,0,0,0,0,0,0,0,0,0,0,0,0,0,0,0,0,0,0,0,0,0,0,0,0,0,0,0,0,0,0,0,0,0,0,0,0,0,0,0,0,0,0,0,0,0,0,0,0,0,0,0,0,0,0,0,0,0,0,0,0,0,0,0,0,0,0,0,0,0,0,0,0,0,0,0,0,0,0,0,0,0,0,0,0,0,0,0,0,0,0,0,0,0,0,0,0,0,0,0,0,0,0,0,0,0,0,0,0,0,0,0,0,0,0,0,0,0,0,0,0,0,0,0,0,0,0,0,0,0,0,0,0,0,0,0,0,0,0,0,0,0,0,0,0,0,0,0,0,0,0,0,0,0,0,0,0,0,0,0,0,0,0,0,0,0,0,0,0,0,0,0,0,0,0,0,0,0,0,0,0,0,0,0,0,0,0,0,0,0,0,0,0,0,0,0,0,0,0,0,0,0,0,0,0,0,0,0,0,0,0,0,0,0,0,0,0,0,0,0,0,0,0,0,0,0,0,0,0,0,0,0,0,0,0,0,0,0,0,0,0,0,0,0,0,0,0,0,0,0,0,0,0,0,0,0,0,0,0,0,0,0,0,0,0,0,0,0,0,0,0,0,0,0,0,0,0,0,0,0,0,0,0,0,0,0,0,0,0,0,0,0,0,0,0,0,0,0,0,0,0,0,0,0,0,0,0,0,0,0,0,0,0,0,0,0,0,0,0,0,0,0,0,0,0,0,0,0,0,0,0,0,0,0,0,445,0,20,0,445,0,0,0,0,0,0,0,0,0,0,0,0,0,0,0,0,0,0,0,0,0,0,0,0,0,0,0,0,0,0,0,0,0,0,453,0,28,0,453,0,0,0,0,0,0,0,0,0,0,0,0,0,0,0,0,0,0,0,0,0,0,0,0,0,0,0,0,0,0,0,20,0,0,461,0,0,0,461,0,0,20,0,0,0,0,0,0,0,0,0,0,0,0,0,0,0,0,0,0,0,0,0,0,0,0,0,0,0,0,28,0,0,0,181,182,183,0,0,0,28,0,0,0,0,0,0,0,0,0,0,0,0,0,0,0,0,0,0,0,0,0,0,0,0,0,0,0,445,0,0,0,0,189,190,191,0,0,0,0,445,0,0,0,0,0,0,0,0,0,0,0,0,0,0,0,0,0,0,0,0,0,0,0,0,0,0,453,0,0,0,0,0,0,0,0,0,0,0,453,0,0,0,0,0,0,0,0,0,0,0,0,0,0,0,0,0,0,0,0,0,0,0,0,0,0,461,0,466,0,0,0,0,0,0,0,466,0,461,0,0,0,0,0,0,0,0,0,0,0,0,0,0,0,0,0,0,0,0,0,0,0,0,0,0,0,0,474,0,0,0,0,0,0,0,474,0,0,0,0,0,0,0,0,0,0,0,0,0,0,0,0,0,0,0,0,0,0,0,0,0,0,0,0,0,0,0,0,0,0,0,0,0,0,0,0,0,0,0,0,0,0,0,0,0,0,0,0,0,0,0,0,0,0,0,0,0,0,0,0,0,0,0,0,0,0,0,466,0,0,0,466,0,0,0,0,0,0,0,0,0,0,0,0,0,0,0,0,0,0,0,0,0,0,0,0,0,0,0,0,0,0,0,0,0,0,474,0,0,0,474,0,0,0,0,0,0,0,0,0,0,0,0,0,0,0,0,0,0,0,0,0,0,0,0,0,0,0,0,0,0,0,0,0,0,0,0,0,0,0,0,0,0,0,0,0,0,0,0,0,0,0,0,0,0,0,0,0,0,0,0,0,0,0,0,0,0,0,0,0,0,0,0,0,0,0,0,0,0,0,0,0,0,0,0,0,0,0,0,0,0,0,0,0,0,0,0,0,0,0,0,0,0,0,0,0,0,0,0,0,0,0,0,0,0,0,0,0,0,0,0,0,0,0,0,0,0,0,0,0,0,0,0,0,0,0,0,0,0,0,0,0,0,0,0,0,0,0,0,0,0,0,0,0,0,0,0,0,0,0,0,0,0,0,0,0,0,0,0,0,0,0,0,0,0,0,0,0,0,0,0,0,0,0,0,0,0,0,0,0,0,0,0,0,0,0,0,0,0,0,0,0,0,0,0,0,0,0,0,0,0,0,0,0,0,0,0,0,0,0,0,0,0,0,0,0,0,0,0,0,0,0,0,0,0,0,0,0,0,0,0,0,0,0,0,0,0,0,0,0,0,0,0,0,0,0,0,0,0,0,0,0,0,0,0,0,0,0,0,0,0,0,0,0,0,0,0,0,0,0,0,0,0,0,0,0,0,0,0,0,0,0,0,0,0,0,0,0,0,0,0,0,0,0,0,0,0,0,0,0,0,0,0,0,0,0,0,0,0,0,0,0,0,0,0,0,0,0,0,0,0,0,0,0,0,0,0,0,0,0,0,0,0,0,0,0,0,0,0,0,0,0,0,0,0,0,0,0,0,0,0,0,0,0,0,0,0,0,0,0,0,0,0,0,0,0,0,0,0,0,0,0,0,0,0,0,0,0,0,0,0,0,0,0,0,0,0,0,0,0,0,0,0,0,0,0,0,0,0,0,0,0,0,0,0,0,0,0,0,0,0,0,0,0,0,0,0,0,0,0,0,0,0,0,0,0,0,0,0,0,0,0,0,0,0,0,0,0,0,0,0,0,0,0,0,0,0,0,0,0,0,0,0,0,0,0,0,0,0,0,0,0,0,0,0,0,0,0,0,0,0,0,0,0,0,0,0,0,0,0,0,0,0,0,0,0,0,0,0,0,0,0,0,0,0,0,0,0,0,0,0,0,0,0,0,0,0,0,0,0,0,0,0,0,0,0,0,0,0,0,0,0,0,0,0,0,0,0,0,0,0,0,0,0,0,0,0,0,0,0,0,0,0,0,0,0,0,0,0,0,0,0,0,0,0,0,0,0,0,0,0,0,0,0,0,0,0,0,0,0,0,0,0,0,0,0,0,0,0,0,0,0,0,0,0,0,0,0,0,0,0,0,0,0,0,0,0,0,0,0,0,0,0,0,0,0,0,0,0,0,0,0,0,0,0,0,0,0,0,0,0,0,0,0,0,0,0,0,0,0,0,0,0,0,0,0,0,0,0,0,0,0,0,0,0,0,0,0,0,0,0,0,0,0,0,0,0,0,0,0,0,0,0,0,0,0,0,0,0,0,0,0,0,0,0,0,0,0,0,0,0,0,0,0,0,0,0,0,0,0,0,0,0,0,0,0,0,0,0,0,0,0,0,0,0,0,0,0,0,0,0,0,0,0,0,0,0,0,0,0,0,0,0,0,0,0,0,0,0,0,0,0,0,0,0,0,0,0,0,0,0,0,0,0,0,0,0,0,0,0,0,0,0,0,0,0,0,0,0,0,0,0,0,0,0,0,0,0,0,0,0,0,0,0,0,0,0,0,0,0,0,0,0,0,0,0,0,0,0,0,0,0,0,0,0,0,0,0,0,0,0,0,0,0,0,0,0,0,0,0,0,0,0,0,0,0,0,0,0,0,0,0,0,0,0,0,0,0,0,0,0,0,0,0,0,0,0,0,0,0,0,0,0,0,0,0,0,0,0,0,0,0,0,0,0,0,0,0,0,0,0,0,0,0,0,0,0,0,0,0,0,0,0,0,0,0,0,0,0,0,0,0,0,0,0,0,0,0,0,0,0,0,0,0,0,0,0,0,0,0,0,0,0,0,0,0,0,0,0,0,0,0,0,0,0,0,0,0,0,0,0,0,0,0,0,0,0,0,0,0,0,0,0,0,0,0,0,0,0,0,0,0,0,0,0,0,0,0,0,0,0,0,0,0,0,0,0,0,0,0,0,0,0,0,0,0,0,0,0,0,0,0,0,0,0,0,0,0,0,0,0,0,0,0,0,0,0,0,0,0,0,0,0,0,0,0,0,0,0,0,0,0,0,0,0,0,0,0,0,0,0,0,0,0,0,0,0,0,0,0,0,0,0,0,0,0,0,0,0,0,0,0,0,0,0,0,0,0,0,5,0,0,0,0,0,0,0,0,0,0,0,0,0,0,0,0,0,0,0,0,0,0,0,0,0,0,0,0,0,0,0,0,0,0,0,0,5,0,0,0,0,0,0,0,0,0,0,0,0,0,0,0,0,0,0,0,0,0,0,0,0,0,0,0,0,0,0,0,0,0,0,0,0,0,5,0,0,0,0,0,0,0,0,0,0,0,0,0,0,0,0,0,0,0,0,0,0,0,0,0,0,0,0,0,0,0,0,0,0,0,0,0,0,5,0,0,0,0,0,0,0,0,0,0,0,0,0,0,0,0,0,0,0,0,0,0,0,0,0,0,0,0,0,0,0,0,0,0,0,0,0,5,0,0,0,0,0,0,0,0,0,0,0,0,0,0,0,0,0,0,0,0,0,0,0,0,0,0,0,0,0,0,0,0,0,0,0,0,0,0,5,0,0,0,0,0,0,0,0,0,0,0,0,0,0,0,0,0,0,0,0,0,0,0,0,0,0,0,0,0,0,0,0,0,0,0,0,0,0,0,0,0,5,0,0,0,0,0,0,0,5,0,0,0,0,0,0,0,0,0,0,0,0,0,0,0,0,0,0,0,0,0,0,0,0,0,0,0,0,5,0,0,0,0,0,0,0,0,0,0,0,0,0,0,0,0,0,0,0,0,0,0,0,0,0,0,0,0,0,0,0,0,0,0,0,0,0,0,0,0,0,0,0,0,0,0,0,0,0,0,0,0,0,0,0,0,0,0,0,0,0,0,0,0,0,0,0,0,0,0,0,0,0,0,0,0,0,0,0,0,0,0,0,0,0,0,0,0,0,0,0,0,0,0,0,0,0,0,0,0,0,0,0,0,0,0,0,0,0,0,0,0,0,0,0,0,0,0,0,0,0,0,0,0,0,0,0,0,0,0,0,0,0,0,0,0,0,0,0,0,0,0,0,0,0,0,0,0,0,0,0,0,0,0,0,0,0,0,0,5,0,0,0,0,0,0,0,0,0,0,0,0,0,0,0,0,0,0,0,0,0,0,0,0,0,0,0,0,0,0,0,0,0,0,0,0,0,0,5,0,0,0,0,0,0,0,0,0,0,0,0,0,0,0,0,0,0,0,0,0,0,0,0,0,0,0,0,0,0,0,0,0,0,0,0,0,0,5,0,0,0,0,0,0,0,0,0,0,0,0,0,0,0,0,0,0,0,0,0,0,0,0,0,0,0,0,0,0,0,0,0,0,0,0,0,0,5,0,0,0,0,0,0,0,0,0,0,0,0,0,0,0,0,0,0,0,0,0,0,0,0,0,0,0,0,0,0,0,0,0,0,0,0,0,0,5,0,0,0,0,0,0,0,0,0,0,0,0,0,0,0,0,0,0,0,0,0,0,0,0,0,0,0,0,0,0,0,0,0,0,0,0,0,0,0,0,0,0,0,0,0,0,0,0,0,0,0,0,0,0,0,0,0,0,0,0,0,0,0,0,0,0,0,0,0,0,0,0,0,0,0,0,0,0,0,0,0,0,0,0,0,0,0,0,0,0,0,0,0,0,0,0,0,0,0,0,0,0,0,0,0,0,0,0,0,0,0,0,0,0,0,0,0,0,0,0,0,0,0,0,0,0,0,0,0,0,0,0,0,0,0,0,0,0,0,0,0,0,0,0,0,0,0,0,0,0,0,0,0,0,0,0,0,0,0,0,0,0,0,0,0,0,0,0,0,0,0,0,0,0,0,0,0,0,0,0,0,0,0,0,0,0,0,0,0,0,0,0,0,0,0,0,0,0,0,0,0,0,0,0,0,0,0,0,0,0,0,0,0,0,0,0,0,0,0,0,0,0,0,0,0,0,0,0,0,0,0,0,0,0,0,0,0,0,0,0,0,0,0,0,0,0,0,0,0,0,0,0,0,0,0,0,0,0,0,0,0,0,0,0,0,0,0,0,0,0,0,0,0,0,0,0,0,0,0,0,0,0,0,0,0,0,0,0,0,0,0,0,0,0,0,0,0,0,0,0,0,0,0,0,0,0,0,0,0,0,0,0,0,0,0,0,0,0,0,0,0,0,0,0,0,0,0,0,0,0,0,0,0,0,0,0,0,0,0,0,0,0,0,0,0,0,0,0,0,0,0,0,0,0,0,0,0,0,0,0,0,0,0,0,0,0,0,0,0,0,0,0,0,0,0,0,0,0,0,0,0,0,0,0,0,0,0,0,0,0,0,0,0,0,0,0,0,0,0,0,0,0,0,0,0,0,0,0,0,0,0,0,0,0,0,0,0,0,0,0,0,0,0,0,0,0,0,0,0,0,0,0,0,0,0,0,0,0,0,0,0,0,0,0,0,0,0,0,0,0,0,0,0,0,0,0,0,0,0,0,0,0,0,0,0,0,0,0,0,0,0,0,0,0,0,0,0,0,0,0,0,0,0,0,0,0,0,0,0,0,0,0,0,0,0,0,0,0,0,0,0,0,0,0,0,0,0,0,0,0,0,0,0,0,0,0,0,0,0,0,0,0,0,0,0,0,0,0,0,0,0,0,0,0,0,0,0,0,0,0,0,0,0,0,0,0,0,0,0,0,0,0,0,0,0,0,0,0,0,0,0,0,0,0,0,0,0,0,0,0,0,0,0,0,0,0,0,0,0,0,0,0,0,0,0,0,0,0,0,0,0,0,0,0,0,0,0,0,0,0,0,0,0,0,0,0,0,0,0,0,0,0,0,0,0,0,0,0,0,0,0,0,0,0,0,0,0,0,0,0,0,0,0,0,0,0,0,0,0,0,0,0,0,0,0,0,0,0,0,0,0,0,0,0,0,0,0,0,0,0,0,0,0,0,0,0,0,0,0,0,0,0,0,0,0,0,0,0,0,0,0,0,0,0,0,0,0,0,0,0,0,0,0,0,0,0,0,0,0,0,0,0,0,0,0,0,0,0,0,0,0,0,0,0,0,0,0,0,0,0,0,0,0,0,0,0,0,0,0,0,0,0,0,0,0,0,0,0,0,0,0,0,0,0,0,0,0,0,0,0,0,0,0,0,0,0,0,0,0,0,0,0,0,0,0,0,0,0,0,0,0,0,0,0,0,0,0,0,0,0,0,0,0,0,0,0,0,0,0,0,0,0,0,0,0,0,0,0,0,0,0,0,0,0,0,0,0,0,0,0,0,0,0,0,0,0,0,0,0,0,0,0,0,0,0,0,0,0,0,0,0,0,0,0,0,0,0,0,0,0,0,0,0,0,0,0,0,0,0,0,0,0,0,0,0,0,0,0,0,0,0,0,0,0,0,0,0,0,0,0,0,0,0,0,0,0,0,0,0,0,0,0,0,0,0,0,0,0,0,0,0,0,0,0,0,0,0,0,0,0,0,0,0,0,0,0,0,0,0,0,0,0,0,0,0,0,0,0,0,0,0,0,0,0,0,0,0,0,0,0,0,0,0,0,0,0,0,0,0,0,0,0,0,0,0,0,0,0,0,0,0,0,0,0,0,0,0,0,0,0,0,0,0,0,0,0,0,0,0,0,0,0,0,0,0,0,0,0,0,0,0,0,0,0,0,0,0,0,0,0,0,0,0,0,0,0,0,0,0,0,0,0,0,0,0,0,0,0,0,0,0,0,0,0,0,0,0,0,0,0,0,0,0,0,0,0,0,0,0,0,0,0,0,0,0,0,0,0,0,0,0,0,0,0,0,0,0,0,0,0,0,0,0,0,0,0,0,0,0,0,0,0,0,0,0,0,0,0,0,0,0,0,0,0,0,0,0,0,0,0,0,0,0,0,0,0,0,0,0,0,0,0,0,0,0,0,0,0,0,0,0,0,0,0,0,0,0,0,0,0,0,0,0,0,0,0,0,0,0,0,0,0,0,0,0,0,0,0,0,0,0,0,0,0,0,0,0,0,0,0,0,0,0,0,0,0,0,0,0,0,0,0,0,0,0,0,0,0,0,0,0,0,0,0,0,0,0,0,0,0,0,0,0,0,0,0,0,0,0,0,0,0,0,0,0,0,0,0,0,0,0,0,0,0,0,0,0,0,0,0,0,0,0,0,0,0,0,0,0,0,0,0,0,0,0,0,0,0,0,0,0,0,0,0,0,0,0,0,0,0,0,0,0,0,0,0,0,0,0,0,0,0,0,0,0,0,0,0,0,0,0,0,0,0,0,0,0,0,0,0,0,0,0,0,0,0,0,0,0,0,0,0,0,0,0,0,0,0,0,0,0,0,0,0,0,0,0,0,0,0,0,0,0,0,0,0,0,0,0,0,0,0,0,0,0,0,0,0,0,0,0,0,0,0,0,0,0,0,0,0,0,0,0,0,0,0,0,0,0,0,0,0,0,0,0,0,0,0,0,0,0,0,0,0,0,0,0,0,0,0,0,0,0,0,0,0,0,0,0,0,0,0,0,0,0,0,0,0,0,0,0,0,0,0,0,0,0,0,0,0,0,0,0,0,0,0,0,0,0,0,0,0,0,0,0,0,0,0,0,0,0,0,0,0,0,0,0,0,0,0,0,0,0,0,0,0,0,0,0,0,0,0,0,0,0,0,0,0,0,0,0,0,0,0,0,0,0,0,0,0,0,0,0,0,0,0,0,0,0,0,0,0,0,0,0,0,0,0,0,0,0,0,0,0,0,0,0,0,0,0,0,0,0,0,0,0,0,0,0,0,0,0,0,0,0,0,0,0,0,0,0,0,0,0,0,0,0,0,0,0,0,0,0,0,0,0,0,0,0,0,0,0,0,0,0,0,0,0,0,0,0,0,0,0,0,0,0,0,0,0,0,0,0,0,0,0,0,0,0,0,0,0,0,0,0,0,0,0,0,0,0,0,0,0,0,0,0,0,0,0,0,0,0,0,0,0,0,0,0,0,0,0,0,0,0,0,0,0,0,0,0,0,0,0,0,0,0,0,0,0,0,0,0,0,0,0,0,0,0,0,0,0,0,0,0,0,0,0,0,0,0,0,0,0,0,0,0,0,0,0,0,0,0,0,0,0,0,0,0,0,0,0,0,0,0,0,0,0,0,0,0,0,0,0,0,0,0,0,0,0,0,0,0,0,0,0,0,0,0,0,0,0,0,0,0,0,0,0,0,0,0,0,0,0,0,0,0,0,0,0,0,0,0,0,0,0,0,0,0,0,0,0,0,0,0,0,0,0,0,0,0,0,0,0,0,0,0,0,0,0,0,0,0,0,0,0,0,0,0,0,0,0,0,0,0,0,0,0,0,0,0,0,0,0,0,0,0,0,0,0,0,0,0,0,0,0,0,0,0,0,0,0,0,0,0,0,0,0,0,0,0,0,0,0,0,0,0,0,0,0,0,0,0,0,0,0,0,0,0,0,0,0,0,0,0,0,0,0,0,0,0,0,0,0,0,0,0,0,0,0,0,0,0,0,0,0,0,0,0,0,0,0,0,0],
"events":[
null,
{"id":1,"name":"EV001","note":"","pages":[{"conditions":{"actorId":1,"actorValid":false,"itemId":1,"itemValid":false,"selfSwitchCh":"A","selfSwitchValid":false,"switch1Id":1,"switch1Valid":false,"switch2Id":1,"switch2Valid":false,"variableId":1,"variableValid":false,"variableValue":0},"directionFix":true,"image":{"tileId":0,"characterName":"!Other2","direction":6,"pattern":0,"characterIndex":7},"list":[{"code":0,"indent":0,"parameters":[]}],"moveFrequency":3,"moveRoute":{"list":[{"code":0,"parameters":[]}],"repeat":true,"skippable":false,"wait":false},"moveSpeed":3,"moveType":0,"priorityType":1,"stepAnime":true,"through":false,"trigger":0,"walkAnime":true}],"x":17,"y":11},
{"id":2,"name":"EV002","note":"","pages":[{"conditions":{"actorId":1,"actorValid":false,"itemId":1,"itemValid":false,"selfSwitchCh":"A","selfSwitchValid":false,"switch1Id":1,"switch1Valid":false,"switch2Id":1,"switch2Valid":false,"variableId":1,"variableValid":false,"variableValue":0},"directionFix":true,"image":{"tileId":0,"characterName":"!Other2","direction":6,"pattern":0,"characterIndex":7},"list":[{"code":0,"indent":0,"parameters":[]}],"moveFrequency":3,"moveRoute":{"list":[{"code":0,"parameters":[]}],"repeat":true,"skippable":false,"wait":false},"moveSpeed":3,"moveType":0,"priorityType":1,"stepAnime":true,"through":false,"trigger":0,"walkAnime":true}],"x":21,"y":11},
null,
null,
{"id":5,"name":"EV005","note":"","pages":[{"conditions":{"actorId":1,"actorValid":false,"itemId":1,"itemValid":false,"selfSwitchCh":"A","selfSwitchValid":false,"switch1Id":1,"switch1Valid":false,"switch2Id":1,"switch2Valid":false,"variableId":1,"variableValid":false,"variableValue":0},"directionFix":false,"image":{"tileId":0,"characterName":"Mundo","direction":2,"pattern":1,"characterIndex":0},"list":[{"code":0,"indent":0,"parameters":[]}],"moveFrequency":3,"moveRoute":{"list":[{"code":0,"parameters":[]}],"repeat":true,"skippable":false,"wait":false},"moveSpeed":3,"moveType":0,"priorityType":1,"stepAnime":false,"through":false,"trigger":0,"walkAnime":true}],"x":19,"y":10},
{"id":6,"name":"EV006","note":"","pages":[{"conditions":{"actorId":1,"actorValid":false,"itemId":1,"itemValid":false,"selfSwitchCh":"A","selfSwitchValid":false,"switch1Id":29,"switch1Valid":true,"switch2Id":1,"switch2Valid":false,"variableId":1,"variableValid":false,"variableValue":0},"directionFix":false,"image":{"characterIndex":0,"characterName":"","direction":2,"pattern":0,"tileId":0},"list":[{"code":123,"indent":0,"parameters":["A",0]},{"code":0,"indent":0,"parameters":[]}],"moveFrequency":3,"moveRoute":{"list":[{"code":0,"parameters":[]}],"repeat":true,"skippable":false,"wait":false},"moveSpeed":3,"moveType":0,"priorityType":0,"stepAnime":false,"through":false,"trigger":3,"walkAnime":true},{"conditions":{"actorId":1,"actorValid":false,"itemId":1,"itemValid":false,"selfSwitchCh":"A","selfSwitchValid":true,"switch1Id":1,"switch1Valid":false,"switch2Id":1,"switch2Valid":false,"variableId":1,"variableValid":false,"variableValue":0},"directionFix":false,"image":{"tileId":0,"characterName":"KingdomWarrior","direction":8,"pattern":1,"characterIndex":0},"list":[{"code":108,"indent":0,"parameters":["N start all shared"]},{"code":205,"indent":0,"parameters":[0,{"list":[{"code":4,"indent":null},{"code":4,"indent":null},{"code":4,"indent":null},{"code":0}],"repeat":false,"skippable":false,"wait":true}]},{"code":505,"indent":0,"parameters":[{"code":4,"indent":null}]},{"code":505,"indent":0,"parameters":[{"code":4,"indent":null}]},{"code":505,"indent":0,"parameters":[{"code":4,"indent":null}]},{"code":101,"indent":0,"parameters":["KingdomWarrior",0,0,2]},{"code":401,"indent":0,"parameters":["\\C[14]\\N[11]:\\C[0]"]},{"code":401,"indent":0,"parameters":["Ngài gọi tôi tới đây có chuyện gì vậy?"]},{"code":101,"indent":0,"parameters":["Mundo",0,0,2]},{"code":401,"indent":0,"parameters":["\\C[14]\\N[5]:\\C[0]"]},{"code":401,"indent":0,"parameters":["Gelena! 1 trong những cận vệ đáng tin cậy"]},{"code":401,"indent":0,"parameters":["của ta!"]},{"code":101,"indent":0,"parameters":["Mundo",0,0,2]},{"code":401,"indent":0,"parameters":["\\C[14]\\N[5]:\\C[0]"]},{"code":401,"indent":0,"parameters":["Gần đây có kẻ dám chống lại chúng ta!"]},{"code":101,"indent":0,"parameters":["KingdomWarrior",0,0,2]},{"code":401,"indent":0,"parameters":["\\C[14]\\N[11]:\\C[0]"]},{"code":401,"indent":0,"parameters":["Có kẻ sao? Chả nhẽ lũ chiến binh tinh nhuệ."]},{"code":101,"indent":0,"parameters":["Mundo",0,0,2]},{"code":401,"indent":0,"parameters":["\\C[14]\\N[5]:\\C[0]"]},{"code":401,"indent":0,"parameters":["Không ta nghĩ chúng không dám đâu. Ngươi"]},{"code":401,"indent":0,"parameters":["là người mạnh thứ 3 trong đám tinh nhuệ đó"]},{"code":401,"indent":0,"parameters":["và kẻ mạnh nhất cũng làm việc cho ta rồi."]},{"code":101,"indent":0,"parameters":["Mundo",0,0,2]},{"code":401,"indent":0,"parameters":["\\C[14]\\N[5]:\\C[0]"]},{"code":401,"indent":0,"parameters":["Mà cũng nhờ sức mạnh từ những viên pha lê"]},{"code":401,"indent":0,"parameters":["tích tụ được mà chúng ta có sức mạnh như"]},{"code":401,"indent":0,"parameters":["hôm nay nhỉ Gelena?"]},{"code":101,"indent":0,"parameters":["KingdomWarrior",0,0,2]},{"code":401,"indent":0,"parameters":["\\C[14]\\N[11]:\\C[0]"]},{"code":401,"indent":0,"parameters":["Đúng vậy thưa ngài."]},{"code":101,"indent":0,"parameters":["Mundo",0,0,2]},{"code":401,"indent":0,"parameters":["\\C[14]\\N[5]:\\C[0]"]},{"code":401,"indent":0,"parameters":["Dù sao cũng vào vấn đề chính luôn."]},{"code":101,"indent":0,"parameters":["Mundo",0,0,2]},{"code":401,"indent":0,"parameters":["\\C[14]\\N[5]:\\C[0]"]},{"code":401,"indent":0,"parameters":["Đây là 3 kẻ đang ngáng đường chúng ta."]},{"code":101,"indent":0,"parameters":["KingdomWarrior",0,0,2]},{"code":401,"indent":0,"parameters":["\\C[14]\\N[11]:\\C[0]"]},{"code":401,"indent":0,"parameters":["Tên \\N[2] đó à? Thật sao?"]},{"code":101,"indent":0,"parameters":["Mundo",0,0,2]},{"code":401,"indent":0,"parameters":["\\C[14]\\N[5]:\\C[0]"]},{"code":401,"indent":0,"parameters":["Đúng vậy! Hiện tại đối đầu trực diện với"]},{"code":401,"indent":0,"parameters":["chúng khá nguy hiểm. Ta cần người sử dụng"]},{"code":401,"indent":0,"parameters":["phép thuật dịch chuyển này."]},{"code":101,"indent":0,"parameters":["Mundo",0,0,2]},{"code":401,"indent":0,"parameters":["\\C[14]\\N[5]:\\C[0]"]},{"code":401,"indent":0,"parameters":["Để kéo tất cả bọn chúng ra 1 nơi nào đó"]},{"code":401,"indent":0,"parameters":["xa xôi để ta có thể có thời gian tích lũy"]},{"code":401,"indent":0,"parameters":["thêm năng lượng cho những viên pha lê."]},{"code":101,"indent":0,"parameters":["Mundo",0,0,2]},{"code":401,"indent":0,"parameters":["\\C[14]\\N[5]:\\C[0]"]},{"code":401,"indent":0,"parameters":["Với cả cố gắng đừng kéo tên \\N[2] vào pháp"]},{"code":401,"indent":0,"parameters":["thuật dịch chuyển nhé. Nếu hắn vào được đó"]},{"code":401,"indent":0,"parameters":["thì ta nghĩ là hắn cũng sẽ có thể sử dụng"]},{"code":101,"indent":0,"parameters":["Mundo",0,0,2]},{"code":401,"indent":0,"parameters":["\\C[14]\\N[5]:\\C[0]"]},{"code":401,"indent":0,"parameters":["pháp thuật để đưa tất cả bọn chúng quay lại"]},{"code":401,"indent":0,"parameters":["Chỉ là vấn đề về thời gian thôi. Nếu không"]},{"code":401,"indent":0,"parameters":["có tên \\N[2] đồng hành cùng chúng sẽ tốt"]},{"code":101,"indent":0,"parameters":["Mundo",0,0,2]},{"code":401,"indent":0,"parameters":["\\C[14]\\N[5]:\\C[0]"]},{"code":401,"indent":0,"parameters":["hơn. Và hãy để ta lo \\N[2]."]},{"code":101,"indent":0,"parameters":["KingdomWarrior",0,0,2]},{"code":401,"indent":0,"parameters":["\\C[14]\\N[11]:\\C[0]"]},{"code":401,"indent":0,"parameters":["Vâng thưa ngài!"]},{"code":129,"indent":0,"parameters":[2,1,false]},{"code":129,"indent":0,"parameters":[3,1,false]},{"code":129,"indent":0,"parameters":[10,1,false]},{"code":211,"indent":0,"parameters":[1]},{"code":201,"indent":0,"parameters":[0,60,5,4,6,0]},{"code":121,"indent":0,"parameters":[30,30,0]},{"code":356,"indent":0,"parameters":["Autosave"]},{"code":123,"indent":0,"parameters":["A",1]},{"code":123,"indent":0,"parameters":["B",0]},{"code":0,"indent":0,"parameters":[]}],"moveFrequency":3,"moveRoute":{"list":[{"code":0,"parameters":[]}],"repeat":true,"skippable":false,"wait":false},"moveSpeed":3,"moveType":0,"priorityType":1,"stepAnime":false,"through":false,"trigger":3,"walkAnime":true},{"conditions":{"actorId":1,"actorValid":false,"itemId":1,"itemValid":false,"selfSwitchCh":"B","selfSwitchValid":true,"switch1Id":1,"switch1Valid":false,"switch2Id":1,"switch2Valid":false,"variableId":1,"variableValid":false,"variableValue":0},"directionFix":false,"image":{"characterIndex":0,"characterName":"","direction":2,"pattern":0,"tileId":0},"list":[{"code":0,"indent":0,"parameters":[]}],"moveFrequency":3,"moveRoute":{"list":[{"code":0,"parameters":[]}],"repeat":true,"skippable":false,"wait":false},"moveSpeed":3,"moveType":0,"priorityType":0,"stepAnime":false,"through":false,"trigger":0,"walkAnime":true}],"x":19,"y":17}
]
}