{
"autoplayBgm":true,"autoplayBgs":false,"battleback1Name":"Castle2","battleback2Name":"Castle3","bgm":{"name":"Castle2","pan":0,"pitch":100,"volume":90},"bgs":{"name":"","pan":0,"pitch":100,"volume":90},"disableDashing":true,"displayName":"","encounterList":[],"encounterStep":30,"height":30,"note":"","parallaxLoopX":false,"parallaxLoopY":false,"parallaxName":"","parallaxShow":true,"parallaxSx":0,"parallaxSy":0,"scrollType":0,"specifyBattleback":true,"tilesetId":3,"width":41,
"data":[1536,1536,1536,1536,1536,1536,1536,1536,1536,1536,1536,1536,1536,1536,1536,1536,1536,1536,1536,1536,1536,1536,1536,1536,1536,1536,1536,1536,1536,1536,1536,1536,1536,1536,1536,1536,1536,1536,1536,1536,1536,1536,1536,1536,6883,6881,6881,6881,6881,6881,6881,6881,6881,6870,6868,6869,6881,6881,6881,6881,6881,6881,6881,6881,6881,6881,6881,6870,6868,6869,6881,6881,6881,6881,6881,6881,6881,6881,6885,1536,1536,1536,1536,1536,1536,6880,7235,7234,7234,7234,7234,7234,7234,7238,6888,6860,6886,7235,7234,7234,7234,7234,7234,7234,7234,7234,7234,7238,6888,6860,6886,7235,7234,7234,7234,7234,7234,7234,7238,6880,1536,1536,1536,1536,1536,1536,6880,7241,7240,7240,7240,7240,7240,7240,7244,7239,6880,7239,7241,7240,7240,7240,7240,7240,7240,7240,7240,7240,7244,7239,6880,7239,7241,7240,7240,7240,7240,7240,7240,7244,6880,1536,1536,1536,1536,1536,1536,6880,4098,4084,4084,4100,1575,1575,1575,1575,7245,6880,7245,4098,4084,4084,4084,4084,4084,4084,4084,4084,4084,4100,7245,6880,7245,1575,1575,1575,1575,1575,1575,1575,1575,6880,1536,1536,1536,1536,1536,1536,6880,4080,4064,4064,4088,1575,1575,1575,1575,1575,6880,4098,4065,4064,4064,4064,4064,4064,4064,4064,4064,4064,4066,4100,6880,1575,1575,1575,1575,1575,1575,1575,1575,1575,6880,1536,1536,1536,1536,1536,1536,6880,4080,4064,4064,4088,1575,1575,1575,1575,1575,6880,4080,4064,4064,4064,4064,4064,4064,4064,4064,4064,4064,4064,4088,6880,1575,3714,3700,3700,3700,3700,3700,3716,1575,6880,1536,1536,1536,1536,1536,1536,6880,4104,4092,4092,4102,1575,1575,1575,1575,1575,6880,4080,4064,4064,4064,4064,4064,4064,4064,4064,4064,4064,4064,4088,6880,1575,3696,3680,3680,3680,3680,3680,3704,1575,6880,1536,1536,1536,1536,1536,1536,6880,1575,1575,1575,1575,1575,1575,1575,1575,1575,6880,4104,4092,4092,4092,4092,4072,4064,4068,4092,4092,4092,4092,4102,6880,1575,3696,3680,3680,3680,3680,3680,3704,1575,6880,1536,1536,1536,1536,1536,1536,6867,6881,6881,6881,6881,6881,6881,6893,1575,1575,6880,1605,1605,1605,1605,1605,1616,1617,1618,1605,1605,1605,1605,1605,6880,1575,3696,3680,3680,3680,3680,3680,3704,1575,6880,1536,1536,1536,1536,1536,1536,6880,7235,7234,7234,7234,7234,7234,7238,1575,1575,6880,1574,1574,1574,1574,1574,4080,4064,4088,1574,1574,1574,1574,1574,6880,1575,3696,3680,3680,3680,3680,3680,3704,1575,6880,1536,1536,1536,1536,1536,1536,6880,7241,7240,7240,7240,7240,7240,7244,1575,1575,6880,1574,1574,1574,1574,1574,4080,4064,4088,1574,1574,1574,1574,1574,6880,1575,3696,3680,3680,3680,3680,3680,3704,1575,6880,1536,1536,1536,1536,1536,1536,6880,1575,1575,1575,1575,1575,1575,1575,1575,1575,6880,1574,1574,1574,1574,1574,4080,4064,4088,1574,1574,1574,1574,1574,6880,1575,3720,3708,3708,3708,3708,3708,3718,1575,6880,1536,1536,1536,1536,1536,1536,6880,1575,1575,1575,1575,1575,1575,1575,1575,1575,6880,1574,1574,1574,1574,1574,4080,4064,4088,1574,1574,1574,1574,1574,6880,1575,1575,1575,1575,1575,1575,1575,1575,1575,6880,1536,1536,1536,1536,1536,1536,6867,6881,6881,6881,6893,1575,6891,6881,6881,6881,6875,1574,1574,1574,1574,1574,4080,4064,4088,1574,1574,1574,1574,1574,6867,6881,6881,6881,6893,1575,6891,6881,6881,6881,6875,1536,1536,1536,1536,1536,1536,6880,7235,7234,7234,7238,1575,7235,7234,7234,7238,6880,1574,1574,1574,1574,1574,4080,4064,4088,1574,1574,1574,1574,1574,6880,7235,7234,7234,7238,1575,7235,7234,7234,7238,6880,1536,1536,1536,1536,1536,1536,6880,7241,7240,7240,7244,1575,7241,7240,7240,7244,6889,6881,6881,6881,6881,6893,4080,4064,4088,6891,6881,6881,6881,6881,6887,7241,7240,7240,7244,1575,7241,7240,7240,7244,6880,1536,1536,1536,1536,1536,1536,6880,1569,1569,1569,4098,4084,4100,1569,1569,1569,7235,7234,7234,7234,7234,7238,4080,4064,4088,7235,7234,7234,7234,7234,7238,1569,1569,1569,4098,4084,4100,1569,1569,1569,6880,1536,1536,1536,1536,1536,1536,6880,1569,1569,1569,4080,4064,4088,1569,1569,1569,7241,7240,7240,7240,7240,7244,4080,4064,4088,7241,7240,7240,7240,7240,7244,1569,1569,1569,4080,4064,4088,1569,1569,1569,6880,1536,1536,1536,1536,1536,1536,6880,1569,1569,1569,4080,4064,4066,4084,4084,4084,4084,4084,4084,4084,4084,4084,4065,4064,4066,4084,4084,4084,4084,4084,4084,4084,4084,4084,4065,4064,4088,1569,1569,1569,6880,1536,1536,1536,1536,1536,1536,6880,1569,1569,1569,4104,4092,4092,4092,4092,4092,4092,4092,4092,4092,4092,4092,4072,4064,4068,4092,4092,4092,4092,4092,4092,4092,4092,4092,4092,4092,4102,1569,1569,1569,6880,1536,1536,1536,1536,1536,1536,6867,6881,6881,6881,6893,1569,6891,6881,6881,6881,6881,6881,6881,6881,6885,1569,4080,4064,4088,1569,6883,6881,6881,6881,6881,6881,6871,6881,6893,1569,6891,6881,6881,6881,6875,1536,1536,1536,1536,1536,1536,6880,7235,7234,7234,7238,1569,7235,7234,7234,7234,7234,7234,7234,7238,6865,6884,1616,1617,1618,6882,6874,7235,7234,7234,7234,7238,6880,7235,7238,1569,7235,7234,7234,7238,6880,1536,1536,1536,1536,1536,1536,6880,7241,7240,7240,7244,1575,7241,7240,7240,7240,7240,7240,7240,7244,6864,6872,1616,1617,1618,6864,6872,7241,7240,7240,7240,7244,6892,7241,7244,1575,7241,7240,7240,7244,6880,1536,1536,1536,1536,1536,1536,6880,4098,4084,4084,4084,4084,4084,4084,4084,4084,4084,4084,4084,4100,6864,6850,6868,6868,6868,6849,6872,4098,4084,4084,4084,4100,7239,4098,4084,4084,4084,4084,4084,4100,6880,1536,1536,1536,1536,1536,1536,6880,4080,4064,4064,4064,4064,4064,4064,4064,4064,4064,4064,4064,4088,6866,6876,6876,6876,6876,6876,6873,4080,4064,4064,4064,4088,7245,4080,4064,4064,4064,4064,4064,4088,6880,1536,1536,1536,1536,1536,1536,6880,4080,4064,4064,4064,4064,4064,4064,4064,4064,4064,4064,4064,4088,6880,1536,1536,1536,1536,1536,6880,4080,4064,4064,4064,4066,4084,4065,4064,4064,4064,4064,4064,4088,6880,1536,1536,1536,1536,1536,1536,6880,4104,4092,4092,4092,4092,4092,4092,4092,4092,4092,4092,4092,4102,6880,1536,1536,1536,1536,1536,6880,4104,4092,4092,4092,4092,4092,4092,4092,4092,4092,4092,4092,4102,6880,1536,1536,1536,1536,1536,1536,6889,6881,6881,6881,6881,6881,6881,6881,6881,6881,6881,6881,6881,6881,6887,1536,1536,1536,1536,1536,6889,6881,6881,6881,6881,6881,6881,6881,6881,6881,6881,6881,6881,6881,6887,1536,1536,1536,1536,1536,1536,1536,1536,1536,1536,1536,1536,1536,1536,1536,1536,1536,1536,1536,1536,1536,1536,1536,1536,1536,1536,1536,1536,1536,1536,1536,1536,1536,1536,1536,1536,1536,1536,1536,1536,1536,1536,1536,1536,0,0,0,0,0,0,0,0,0,0,0,0,0,0,0,0,0,0,0,0,0,0,0,0,0,0,0,0,0,0,0,0,0,0,0,0,0,0,0,0,0,0,0,0,0,0,0,0,0,0,0,0,0,0,0,0,0,0,0,0,0,0,0,0,0,0,0,0,0,0,0,0,0,0,0,0,0,0,0,0,0,0,0,0,0,0,0,0,0,0,0,0,0,0,0,0,0,0,0,0,0,0,0,0,0,0,0,0,0,0,0,0,0,0,0,0,0,0,0,0,0,0,0,0,0,0,0,0,0,0,0,0,0,0,0,0,0,0,0,0,0,0,0,0,0,0,0,0,0,0,0,0,0,0,0,0,0,0,0,0,0,0,0,0,0,0,0,0,4146,4132,4132,4148,0,0,0,0,0,0,0,0,0,0,0,0,0,0,0,0,0,0,0,0,0,0,0,0,0,0,0,0,0,0,0,0,0,0,0,0,0,4128,4112,4112,4136,0,0,0,0,0,0,0,0,0,0,0,0,0,0,0,0,0,0,0,0,0,0,0,0,0,0,0,0,0,0,0,0,0,0,0,0,0,4128,4112,4112,4136,0,0,0,0,0,0,0,0,0,0,0,0,0,0,0,0,0,0,0,0,0,0,0,0,0,0,0,0,0,0,0,0,0,0,0,0,0,4152,4140,4140,4150,3579,3569,3581,0,0,0,0,0,0,0,0,0,0,0,0,0,0,0,0,0,0,0,3570,3556,3556,3556,3572,0,0,0,0,0,0,0,0,0,0,0,0,0,0,0,0,0,0,0,0,0,0,0,0,0,0,0,0,0,0,0,0,0,0,0,0,3552,3536,3536,3536,3560,0,0,0,0,0,0,0,0,0,0,0,0,0,0,0,0,0,0,0,0,0,0,0,0,0,0,0,0,0,0,0,0,0,0,0,0,3552,3536,3536,3536,3560,0,0,0,0,0,0,0,0,0,0,0,0,0,0,0,0,0,0,0,0,0,0,0,0,0,0,0,0,0,0,0,0,0,0,0,0,3552,3536,3536,3536,3560,0,0,0,0,0,0,0,0,0,0,0,0,0,0,0,0,0,0,0,0,0,0,0,0,0,0,0,0,0,0,0,0,0,0,0,0,3576,3564,3564,3564,3574,0,0,0,0,0,0,0,0,0,0,0,0,0,0,0,0,0,0,0,0,0,0,0,0,0,0,0,0,0,0,0,0,0,0,0,0,0,0,0,0,0,0,0,0,0,0,0,0,0,0,0,0,0,0,0,0,0,0,0,0,0,0,0,0,0,0,0,0,0,0,0,0,0,0,0,0,0,0,0,0,0,0,0,0,0,0,0,0,0,0,0,0,0,0,0,0,0,0,0,0,0,0,0,0,0,0,0,0,0,0,0,0,0,0,0,0,0,0,0,0,0,0,0,0,0,0,0,0,0,0,0,0,0,0,0,0,0,0,0,0,0,0,0,0,0,0,0,0,0,0,0,0,0,0,0,0,0,0,0,0,0,0,0,0,0,0,0,0,0,0,0,0,0,0,0,0,0,0,0,0,0,0,0,0,0,0,0,0,0,0,0,0,0,0,0,0,0,0,0,0,0,0,0,0,0,0,0,0,0,0,0,0,0,0,0,0,0,0,0,0,0,0,0,0,0,0,0,0,0,0,0,0,0,0,0,0,0,0,0,0,0,0,0,0,0,0,0,0,0,0,0,0,0,0,0,0,0,0,0,0,0,0,0,0,0,0,0,0,0,0,0,0,0,0,0,0,0,0,0,0,0,0,0,0,0,0,0,0,0,0,0,0,0,0,0,0,0,0,0,0,0,0,0,0,0,0,0,0,0,0,0,0,0,0,0,0,0,0,0,0,0,0,0,0,0,0,0,0,0,0,0,0,0,0,0,0,0,0,0,0,0,0,0,0,0,0,0,0,0,0,0,0,0,0,0,0,0,0,0,0,0,0,0,0,0,0,0,0,0,0,0,0,0,0,0,0,0,0,0,0,0,0,0,0,0,0,0,0,0,0,0,0,0,0,0,0,0,0,0,0,0,0,0,0,0,0,0,0,0,0,0,0,0,0,0,0,0,0,0,0,0,0,0,0,0,0,0,0,0,0,0,0,0,0,0,0,0,0,0,0,0,0,0,0,0,0,0,0,0,0,0,0,0,0,0,0,0,0,0,0,0,0,0,0,0,0,0,0,0,0,0,0,0,0,0,0,0,0,0,0,0,0,0,0,0,0,0,0,0,0,0,0,0,0,0,0,0,0,0,0,0,0,0,0,0,3582,0,0,0,0,0,3579,3569,3569,3581,0,0,0,0,0,0,0,0,0,0,0,0,0,0,0,0,0,0,0,0,0,0,0,0,0,0,0,0,0,0,0,0,0,0,0,0,0,0,0,0,0,0,0,0,0,0,0,0,0,0,0,0,0,0,0,0,0,0,0,0,0,0,0,0,0,0,0,0,0,0,0,0,0,0,0,0,0,0,0,0,0,0,0,0,0,0,0,0,0,0,0,0,0,0,0,0,0,0,0,0,0,0,0,0,0,0,0,0,0,0,0,0,0,0,0,0,0,0,0,0,0,0,0,0,0,0,0,0,0,0,0,0,0,0,0,0,0,0,0,0,0,0,0,0,0,0,0,0,0,0,0,0,0,0,0,0,0,0,0,0,0,0,0,0,0,0,0,0,0,0,0,0,0,0,0,0,0,0,0,0,0,0,0,0,0,0,0,0,0,0,0,0,0,0,0,0,0,0,0,0,0,0,0,0,0,0,0,0,0,0,0,0,0,0,0,0,0,0,0,0,0,0,0,0,0,0,0,0,0,0,0,0,0,0,0,0,0,0,0,0,0,0,0,0,0,0,0,0,0,0,0,0,0,0,0,0,0,0,0,0,0,0,0,0,0,0,0,0,0,0,0,0,0,0,0,0,0,0,0,0,0,0,0,0,0,0,0,0,0,0,0,0,0,0,0,0,0,0,0,0,0,0,0,0,0,0,0,0,0,0,0,0,0,0,0,0,0,0,0,0,0,0,0,0,0,0,0,32,0,0,0,0,0,0,0,32,147,0,0,0,0,0,0,0,0,0,0,0,0,0,0,0,0,0,0,0,0,0,0,0,0,0,0,0,0,0,0,0,40,0,0,0,0,0,0,0,40,155,0,0,0,0,0,0,0,0,0,0,0,0,0,0,0,0,0,0,0,0,0,0,0,0,0,0,0,0,0,452,0,0,0,0,0,0,0,0,0,0,0,452,0,0,0,0,0,0,0,0,0,0,0,0,0,0,0,0,0,0,0,0,0,0,0,0,0,0,0,0,0,0,0,0,0,0,0,0,0,0,0,0,0,0,0,0,0,0,0,0,0,0,0,0,0,0,0,0,0,0,0,0,0,0,0,0,0,0,0,0,0,0,0,0,0,0,0,0,0,0,0,0,0,0,0,0,0,0,0,0,0,0,0,0,0,0,0,0,0,0,0,0,0,0,0,0,0,0,0,0,0,0,0,0,0,0,0,0,0,0,0,0,0,0,0,0,0,0,0,0,0,0,0,0,0,0,0,0,0,0,0,0,0,0,0,0,0,0,0,0,0,0,0,0,0,0,0,0,0,0,0,0,0,0,0,0,0,0,0,0,0,0,0,0,0,0,0,0,0,0,0,0,0,0,0,0,0,0,0,0,0,0,0,0,0,0,0,0,0,0,0,0,0,0,0,0,0,0,0,0,0,0,0,0,0,0,0,0,0,0,0,0,0,0,0,0,0,0,0,0,0,0,0,0,0,0,0,0,0,0,0,0,0,0,0,0,0,0,0,0,0,0,0,0,0,0,0,0,0,0,0,0,0,0,0,0,0,0,0,0,0,0,0,0,0,0,0,0,0,0,0,0,0,0,0,0,0,0,0,0,0,0,0,0,0,0,0,0,0,0,0,0,0,0,0,0,0,0,0,0,0,0,0,0,0,0,0,0,0,0,0,0,0,0,0,0,0,0,0,0,0,0,0,0,0,0,0,0,0,0,0,0,0,0,0,0,0,0,0,0,0,0,0,0,0,0,0,0,0,0,0,0,0,0,0,0,0,0,0,0,0,0,0,0,0,0,0,0,0,0,0,0,0,0,0,0,0,0,0,0,0,0,0,0,0,0,0,0,0,0,0,0,0,0,0,0,0,0,0,0,0,0,0,0,0,0,0,0,0,0,0,0,0,0,0,0,0,0,0,0,0,0,0,0,0,0,0,0,0,0,0,0,0,0,0,0,0,0,0,0,0,0,0,0,0,0,0,0,0,0,0,0,0,0,0,0,0,0,0,0,0,0,0,0,0,0,0,0,0,0,0,0,0,0,0,0,0,0,0,0,0,0,0,0,0,0,0,0,0,0,0,0,0,0,0,0,0,0,0,0,0,0,0,0,0,0,0,0,0,0,0,0,0,0,0,0,0,0,0,0,0,0,0,0,0,0,0,0,0,0,0,0,0,0,0,0,0,0,0,0,0,0,0,0,0,0,0,0,0,0,0,0,0,0,0,0,0,0,0,0,0,0,0,0,0,0,0,0,0,0,0,0,0,0,0,0,0,0,0,0,0,0,0,0,0,0,0,0,0,0,0,0,0,0,0,0,0,0,0,0,0,0,0,0,0,0,0,0,0,0,0,0,0,0,0,0,0,0,0,0,0,0,0,0,0,0,0,0,0,0,0,0,0,0,0,0,0,0,0,0,0,0,0,0,0,0,0,0,0,0,0,0,0,0,0,0,0,0,0,0,0,0,0,0,0,0,0,0,0,0,0,0,0,0,0,0,0,0,0,0,0,0,0,0,0,0,0,0,0,0,0,0,0,0,0,0,0,0,0,0,0,0,0,0,0,0,0,0,0,0,0,0,0,0,0,0,0,0,0,0,0,0,0,0,0,0,0,0,0,0,0,0,0,0,0,0,0,0,0,0,0,0,0,0,0,0,0,0,0,0,0,0,0,0,0,0,0,0,0,0,0,0,0,0,0,0,0,0,0,0,0,0,0,0,0,0,0,0,0,0,0,0,0,0,0,0,0,0,0,0,0,0,0,0,0,0,0,0,0,0,0,0,0,0,0,0,0,0,0,0,0,0,0,0,0,0,0,0,0,0,0,0,0,0,0,0,0,0,0,0,0,0,0,0,0,0,0,0,0,0,0,0,0,0,0,0,0,0,0,0,0,0,0,0,0,0,0,0,0,0,0,0,0,0,0,0,0,0,0,0,0,0,0,0,0,0,0,0,0,0,0,0,0,0,0,0,0,0,0,0,0,0,0,0,0,0,0,0,0,0,0,0,0,0,0,0,0,0,0,0,0,0,0,0,0,0,0,0,0,0,0,0,0,0,0,0,0,0,0,0,0,0,0,0,0,0,0,0,0,0,0,0,0,0,0,0,0,0,0,0,0,0,0,0,0,0,0,0,0,0,0,0,0,0,0,0,0,0,0,0,0,0,0,0,0,0,0,0,0,0,0,0,0,0,0,0,0,0,0,0,0,0,0,0,0,0,0,0,0,0,0,0,0,0,0,0,0,0,0,0,0,0,0,0,0,0,0,0,0,0,0,0,0,0,0,0,0,0,0,0,0,0,0,0,0,0,0,0,0,0,0,0,0,0,0,0,0,0,0,0,0,0,0,0,0,0,0,0,0,0,0,0,0,0,0,0,0,0,0,0,0,0,0,0,0,0,0,0,0,0,0,0,0,0,0,0,0,0,0,0,0,0,0,0,0,0,0,0,0,0,0,0,0,0,0,0,0,0,0,0,0,0,0,0,0,0,0,0,33,33,128,129,130,172,0,0,0,0,145,146,0,32,0,32,0,32,0,147,145,0,0,0,33,0,0,33,0,0,33,0,0,0,0,0,0,0,0,0,0,41,41,136,137,138,70,71,444,0,444,153,154,0,40,0,40,0,40,0,155,153,444,0,444,41,431,0,41,0,431,41,428,0,0,0,0,0,0,0,0,116,0,0,0,0,0,78,79,452,0,386,0,0,0,0,0,0,0,0,0,0,0,386,0,452,0,439,0,0,0,439,0,436,0,0,0,0,0,0,0,0,105,81,82,0,0,176,0,0,460,0,460,0,0,178,179,180,0,178,179,180,0,0,460,0,460,0,0,0,177,0,0,0,0,0,0,0,0,0,0,0,0,0,89,90,0,0,184,0,0,0,0,0,0,0,186,187,188,0,186,187,188,0,0,0,0,0,0,0,0,185,0,0,0,0,0,0,0,0,0,0,0,0,0,0,0,0,341,313,0,0,0,0,0,0,0,0,0,0,0,0,0,0,0,0,0,0,0,0,0,0,333,0,0,0,0,0,0,0,0,0,0,0,0,0,0,0,0,0,0,0,0,0,0,0,0,0,0,0,0,0,0,0,0,0,0,0,0,0,105,0,0,0,0,0,105,0,0,0,0,0,0,0,0,0,0,0,0,0,0,0,0,0,0,0,0,0,0,0,0,0,0,0,0,0,0,0,0,0,0,105,0,0,342,0,0,105,0,0,0,0,0,0,0,0,0,0,166,167,161,174,0,0,0,0,0,0,0,0,0,0,0,0,0,0,0,0,0,0,0,0,105,0,0,0,0,0,105,0,0,0,0,0,0,0,0,0,0,0,0,169,0,0,0,0,0,0,0,0,204,0,0,0,0,0,0,0,204,0,0,0,0,0,0,0,0,0,0,0,0,0,0,0,0,0,0,0,0,0,0,0,0,0,0,0,0,0,0,0,0,212,0,0,0,0,0,0,0,212,0,0,0,0,0,0,105,105,105,0,0,0,0,0,0,0,0,0,0,0,0,0,0,0,0,0,0,0,0,0,0,0,0,0,0,0,0,0,0,0,0,0,0,0,0,0,0,0,0,0,0,0,0,0,0,0,0,0,0,0,0,0,0,0,0,0,0,0,0,0,0,0,0,204,0,0,0,0,0,0,0,204,0,0,0,0,0,0,0,0,0,0,0,0,0,0,0,0,0,0,0,0,444,0,444,0,0,0,444,0,444,0,0,0,212,0,0,0,0,0,0,0,212,0,0,0,444,0,444,134,0,134,444,0,444,0,0,0,0,0,0,0,0,452,0,452,0,0,0,452,0,452,0,0,0,0,0,0,0,0,0,0,0,0,0,0,0,452,0,452,142,0,142,452,0,452,0,0,0,0,0,0,0,0,460,0,460,0,0,0,460,0,460,444,0,0,0,0,444,0,0,0,444,0,0,0,0,444,460,0,460,0,0,0,460,0,460,0,0,0,0,0,0,0,0,0,0,0,0,0,0,0,0,0,452,0,0,0,0,452,0,0,0,452,0,0,0,0,452,0,0,0,0,0,0,0,0,0,0,0,0,0,0,0,0,0,0,0,0,0,0,0,0,0,0,460,0,0,0,0,460,0,0,0,460,0,0,0,0,460,0,0,0,0,0,0,0,0,0,0,0,0,0,0,0,0,0,0,0,0,0,0,0,0,0,0,0,0,0,0,0,424,0,0,0,424,0,0,0,0,0,0,0,0,0,0,0,0,0,0,0,0,0,0,0,0,0,0,0,0,0,0,0,0,0,0,0,0,0,0,0,0,432,0,0,0,432,0,0,0,0,0,0,0,0,0,0,0,0,0,0,0,0,0,0,0,0,0,0,0,0,0,0,0,0,0,0,0,0,161,174,160,0,0,0,0,0,0,0,0,0,0,0,0,0,160,0,0,0,0,0,0,0,0,0,0,0,0,0,0,69,69,0,0,0,0,50,51,0,0,169,0,168,0,0,0,0,0,0,0,0,122,0,123,0,0,168,0,0,0,69,66,67,0,0,0,0,0,0,0,0,77,77,116,340,0,0,58,59,108,382,328,375,339,0,0,0,0,0,0,0,80,0,80,0,80,174,116,0,0,0,77,74,75,0,0,0,0,0,0,0,0,0,0,105,0,0,0,0,0,0,0,0,80,0,0,0,0,0,0,0,0,88,0,88,0,88,0,105,0,0,0,0,0,0,0,0,0,0,0,0,0,0,0,0,416,0,0,0,0,0,0,0,0,88,0,0,0,0,0,0,0,0,0,0,0,0,0,0,0,0,0,105,98,105,0,0,0,0,0,0,0,0,0,0,0,0,0,0,0,0,0,0,0,0,0,0,0,0,0,0,0,0,0,209,209,224,0,0,0,0,0,0,0,0,0,0,0,0,0,0,0,0,0,0,0,0,0,0,0,0,0,0,0,0,0,0,0,0,0,0,0,0,0,0,0,0,0,0,0,0,0,0,0,0,0,0,0,0,0,0,0,0,0,0,0,0,0,0,0,0,0,0,0,0,0,0,0,0,0,0,0,0,0,0,0,0,0,0,0,0,0,0,0,0,0,0,0,0,0,0,0,0,0,0,0,0,0,0,0,0,0,0,0,0,0,0,0,0,0,0,0,0,0,0,0,0,0,0,0,0,0,0,0,0,0,0,0,0,0,0,0,0,0,0,0,0,0,0,0,0,0,0,0,0,0,0,0,0,0,0,0,0,0,0,0,0,0,0,0,0,0,0,0,0,0,0,0,0,0,0,0,0,0,0,0,0,0,0,0,0,0,0,0,0,0,0,0,0,0,0,0,0,0,0,0,0,0,0,0,0,0,0,0,0,0,0,0,0,0,0,0,0,5,0,0,0,0,0,0,0,0,0,0,0,0,0,0,0,0,0,0,0,0,0,0,0,0,0,0,0,0,0,0,0,0,0,0,0,0,0,0,0,0,5,0,0,0,0,0,0,5,0,0,0,0,0,0,0,0,0,0,5,0,0,0,0,0,0,0,0,0,0,0,0,0,5,0,0,0,0,0,0,0,0,5,0,0,0,0,0,0,5,0,0,0,0,0,0,0,0,0,5,0,0,0,0,0,0,0,0,0,0,0,0,0,5,0,0,0,0,0,0,0,0,0,5,0,0,0,0,0,0,5,0,0,0,0,0,0,0,0,0,5,0,0,0,0,0,0,0,0,0,0,0,0,0,5,0,0,0,0,0,0,0,0,0,5,0,0,0,0,0,0,5,0,0,0,0,0,0,0,0,0,5,0,0,0,0,0,0,0,0,0,0,0,0,0,5,0,0,0,0,0,0,0,0,0,5,0,0,0,0,0,0,5,0,0,0,0,0,0,0,0,0,5,0,0,0,0,0,0,0,0,0,0,0,0,0,5,0,0,0,0,0,0,0,0,0,5,0,0,0,0,0,0,0,0,0,0,0,0,0,0,0,0,5,0,0,0,0,0,0,0,0,0,0,0,0,0,5,0,0,0,0,0,0,0,0,0,5,0,0,0,0,0,0,0,0,0,0,0,0,0,5,0,0,5,0,0,0,0,0,0,0,0,0,0,0,0,0,5,0,0,0,0,0,0,0,0,0,5,0,0,0,0,0,0,0,0,0,0,0,0,0,5,0,0,5,0,0,0,0,0,0,0,0,0,0,0,0,0,5,0,0,0,0,0,0,0,0,0,5,0,0,0,0,0,0,5,0,0,0,0,0,0,0,0,0,5,0,0,0,0,0,0,0,0,0,0,0,0,0,5,0,0,0,0,0,0,0,0,0,5,0,0,0,0,0,0,5,0,0,0,0,0,0,0,0,0,5,0,0,0,0,0,0,0,0,0,0,0,0,0,5,0,0,0,0,0,0,0,0,0,5,0,0,0,0,0,0,0,0,0,0,0,0,0,0,0,0,5,0,0,0,0,0,0,0,0,0,0,0,0,0,0,0,0,0,0,0,0,0,0,0,5,0,0,0,0,0,0,0,0,0,0,5,0,0,0,0,0,5,0,0,0,0,0,0,0,0,0,0,0,0,0,0,0,0,0,5,0,0,0,0,0,5,0,0,0,0,0,0,0,0,0,0,5,0,0,0,0,0,0,0,0,0,0,0,0,0,0,0,0,0,0,0,0,0,0,0,5,0,0,0,0,0,5,0,0,0,0,0,0,5,0,0,0,0,0,0,0,0,0,0,0,0,0,0,5,0,0,0,0,0,0,0,0,5,0,0,0,0,0,0,0,0,0,5,0,0,0,0,0,0,5,0,0,0,0,0,0,0,0,0,0,0,0,0,0,5,0,0,0,0,0,0,0,0,5,0,0,0,0,0,0,0,0,0,5,0,0,0,0,0,0,5,0,0,0,0,0,0,0,0,0,0,0,0,0,0,0,0,0,0,0,0,0,0,0,0,0,0,0,0,0,0,0,0,0,5,0,0,0,0,0,0,5,0,0,0,0,0,0,0,0,0,0,0,0,0,0,0,0,0,0,0,0,0,0,0,0,0,0,0,0,0,0,0,0,0,5,0,0,0,0,0,0,0,0,0,0,0,0,0,0,0,0,0,0,0,0,0,4,0,0,0,0,0,0,0,0,0,0,0,0,0,0,0,0,0,0,5,0,0,0,0,0,0,0,0,0,0,5,0,0,0,0,0,0,0,0,0,0,0,0,0,0,0,0,0,0,0,0,0,0,0,5,0,0,0,0,0,5,0,0,0,0,0,0,0,0,0,0,5,0,0,0,0,0,0,0,0,0,0,15,15,15,0,0,0,0,0,0,0,0,0,0,5,0,0,0,0,0,5,0,0,0,0,0,0,5,0,0,0,0,0,0,0,0,0,0,0,0,0,0,0,0,0,0,0,5,0,0,0,0,0,5,0,0,0,0,0,0,0,5,0,0,0,0,0,0,5,0,0,0,0,0,0,0,0,0,0,0,0,0,0,0,0,0,0,0,5,0,0,0,0,0,5,0,0,0,0,0,0,0,5,0,0,0,0,0,0,5,0,0,0,0,0,0,0,0,0,0,0,0,0,5,0,0,0,0,0,5,0,0,0,0,0,0,0,0,0,0,0,0,0,5,0,0,0,0,0,0,5,0,0,0,0,0,0,0,0,0,0,0,0,0,5,0,0,0,0,0,5,0,0,0,0,0,0,0,0,0,0,0,0,0,5,0,0,0,0,0,0,0,0,0,0,0,0,0,0,0,0,0,0,0,0,5,0,0,0,0,0,0,0,0,0,0,0,0,0,0,0,0,0,0,0,5,0,0,0,0,0,0,0,0,0,0,0,0,0,0,0,0,0,0,0,0,0,0,0,0,0,0,0,0,0,0,0,0,0,0,0,0,0,0,0,0,0,0,0,0,0,0,0,0,0,0,0,0,0,0,0,0,0,0,0,0,0,0,0,0,0,0,0,0,0,0,0,0,0,0,0,0,0,0,0,0,0,0,0,0,0,0,0,0,0,0,0,0,0,0,0,0,0,0,0,0,0,0,0,0,0,0,0,0,0,0,0,0,0,0,0,0,0,0,0,0,0,0,0,0,0,0,0,0,0,0,0,0,0,0,0,0,0,0,0,0,0,0,0,0,0,0,0,0,0,0,0,0,0,0,0,0,0,0,0,0,0,0,0,0,0,0,0,0,0,0,0,0,0,0,0,0,0,0,0,0,0,0,0,0,0,0,0,0,0,0,0,0,0,0,0,0,0,0,0,0,0,0,0,0,0,0,0,0,0,0,0,0,0,0,0,0,0,0,0,0,0,0,0,0,0,0,0,0,0,0,0,0,0,0,0,0,0,0,0,0,0,0,0,0,0,0,0,0,0,0,0,0,0,0,0,0,0,0,0,0,0,0,0,0,0,0,0,0,0,0,0,0,0,0,0,0,0,0,0,0,0,0,0,0,0,0,0,0,0,0,0,0,0,0,0,0,0,0,0,0,0,0,0,0,0,0,0,0,0,0,0,0,0,0,0,0,0,0,0,0,0,0,0,0,0,0,0,0,0,0,0,0,0,0,0,0,0,0,0,0,0,0,0,0,0,0,0,0,0,0,0,0,0,0,0,0,0,0,0,0,0,0,0,0,0,0,0,0,0,0,0,0,0,0,0,0,0,0,0,0,0,0,0,0,0,0,0,0,0,0,0,0,0,0,0,0,0,0,0,0,0,0,0,0,0,0,0,0,0,0,0,0,0,0,0,0,0,0,0,0,0,0,0,0,0,0,0,0,0,0,0,0,0,0,0,0,0,0,0,0,0,0,0,0,0,0,0,0,0,0,0,0,0,0,0,0,0,0,0,0,0,0,0,0,0,0,0,0,0,0,0,0,0,0,0,0,0,0,0,0,0,0,0,0,0,0,0,0,0,0,0,0,0,0,0,0,0,0,0,0,0,0,0,0,0,0,0,0,0,0,0,0,0,0,0,0,0,0,0,0,0,0,0,0,0,0,0,0,0,0,0,0,0,0,0,0,0,0,0,0,0,0,0,0,0,0,0,0,0,0,0,0,0,0,0,0,0,0,0,0,0,0,0,0,0,0,0,0,0,0,0,0,0,0,0,0,0,0,0,0,0,0,0,0,0,0,0,0,0,0,0,0,0,0,0,0,0,0,0,0,0,0,0,0,0,0,0,0,0,0,0,0,0,0,0,0,0,0,0,0,0,0,0,0,0,0,0,0,0,0,0,0,0,0,0,0,0,0,0,0,0,0,0,0,0,0,0,0,0,0,0,0,0,0,0,0,0,0,0,0,0,0,0,0,0,0,0,0,0,0,0,0,0,0,0,0,0,0,0,0,0,0,0,0,0,0,0,0,0,0,0,0,0,0,0,0,0,0,0,0,0,0,0,0,0,0,0,0,0,0,0,0,0,0,0,0,0,0,0,0,0,0,0,0,0,0,0,0,0,0,0,0,0,0,0,0,0,0,0,0,0,0,0,0,0,0,0,0,0,0,0,0,0,0,0,0,0,0,0,0,0,0,0,0,0,0,0,0,0,0,0,0,0,0,0,0,0,0,0,0,0,0,0,0,0,0,0,0,0,0,0,0,0,0,0,0,0,0,0,0,0,0,0,0,0,0,0,0,0,0,0,0,0,0,0,0,0,0,0,0,0,0,0,0,0,0,0,0,0,0,0,0,0,0,0,0,0,0,0,0,0,0,0,0,0,0,0,0,0,0,0,0,0,0,0,0,0,0,0,0,0,0,0,0,0,0,0,0,0,0,0,0,0,0,0,0,0,0,0,0,0,0,0,0,0,0,0,0,0,0,0,0,0,0,0,0,0,0,0,0,0,0,0,0,0,0,0,0,0,0,0,0,0,0,0,0,0,0,0,0,0,0,0,0,0,0,0,0,0,0,0,0,0,0,0,0,0,0,0,0,0,0,0,0,0,0,0,0,0,0,0,0,0,0,0,0,0,0,0,0,0,0,0,0,0,0,0,0,0,0,0,0,0,0,0,0,0,0,0,0,0,0,0,0,0,0,0,0,0,0,0,0,0,0,0,0,0,0,0,0,0,0,0,0,0,0,0,0,0,0,0,0,0,0,0,0,0,0,0,0,0,0,0,0,0,0,0,0,0,0,0,0,0,0,0,0,0,0,0,0,0,0,0,0,0,0,0,0,0,0,0,0,0,0,0,0,0,0,0,0,0,0,0,0,0,0,0,0,0,0,0,0,0,0,0,0,0,0,0,0,0,0,0,0,0,0,0,0,0,0,0,0,0,0,0,0,0,0,0,0,0,0,0,0,0,0,0,0,0,0,0,0,0,0,0,0,0,0,0,0,0,0,0,0,0,0,0,0,0,0,0,0,0,0,0,0,0,0,0,0,0,0,0,0,0,0,0,0,0,0,0,0,0,0,0,0,0,0,0,0,0,0,0,0,0,0,0,0,0,0,0,0,0,0,0,0,0,0,0,0,0,0,0,0,0,0,0,0,0,0,0,0,0,0,0,0,0,0,0,0,0,0,0,0,0,0,0,0,0,0,0,0,0,0,0,0,0,0,0,0,0,0,0,0,0,0,0,0,0,0,0,0,0,0,0,0,0,0,0,0,0,0,0,0,0,0,0,0,0,0,0,0,0,0,0,0,0,0,0,0,0,0,0,0,0,0,0,0,0,0,0,0,0],
"events":[
null,
{"id":1,"name":"EV001","note":"","pages":[{"conditions":{"actorId":1,"actorValid":false,"itemId":1,"itemValid":false,"selfSwitchCh":"A","selfSwitchValid":false,"switch1Id":51,"switch1Valid":true,"switch2Id":1,"switch2Valid":false,"variableId":1,"variableValid":false,"variableValue":0},"directionFix":false,"image":{"tileId":0,"characterName":"","direction":2,"pattern":1,"characterIndex":7},"list":[{"code":123,"indent":0,"parameters":["A",0]},{"code":0,"indent":0,"parameters":[]}],"moveFrequency":3,"moveRoute":{"list":[{"code":0,"parameters":[]}],"repeat":true,"skippable":false,"wait":false},"moveSpeed":3,"moveType":0,"priorityType":0,"stepAnime":false,"through":false,"trigger":3,"walkAnime":true},{"conditions":{"actorId":1,"actorValid":false,"itemId":1,"itemValid":false,"selfSwitchCh":"A","selfSwitchValid":true,"switch1Id":1,"switch1Valid":false,"switch2Id":1,"switch2Valid":false,"variableId":1,"variableValid":false,"variableValue":0},"directionFix":false,"image":{"tileId":0,"characterName":"People3","direction":2,"pattern":1,"characterIndex":7},"list":[{"code":108,"indent":0,"parameters":["N start all shared"]},{"code":211,"indent":0,"parameters":[1]},{"code":101,"indent":0,"parameters":["Valha",2,0,2]},{"code":401,"indent":0,"parameters":["\\C[14]\\N[2]:\\C[0]"]},{"code":401,"indent":0,"parameters":["Ah đầu mình..."]},{"code":213,"indent":0,"parameters":[-1,2,true]},{"code":101,"indent":0,"parameters":["Valha",2,0,2]},{"code":401,"indent":0,"parameters":["\\C[14]\\N[2]:\\C[0]"]},{"code":401,"indent":0,"parameters":["Nơi này là đâu vậy?"]},{"code":101,"indent":0,"parameters":["Valha",2,0,2]},{"code":401,"indent":0,"parameters":["\\C[14]\\N[2]:\\C[0]"]},{"code":401,"indent":0,"parameters":["Quần áo của mình bị sao đây?"]},{"code":205,"indent":0,"parameters":[-1,{"list":[{"code":2,"indent":null},{"code":2,"indent":null},{"code":2,"indent":null},{"code":2,"indent":null},{"code":2,"indent":null},{"code":2,"indent":null},{"code":4,"indent":null},{"code":4,"indent":null},{"code":0}],"repeat":false,"skippable":false,"wait":true}]},{"code":505,"indent":0,"parameters":[{"code":2,"indent":null}]},{"code":505,"indent":0,"parameters":[{"code":2,"indent":null}]},{"code":505,"indent":0,"parameters":[{"code":2,"indent":null}]},{"code":505,"indent":0,"parameters":[{"code":2,"indent":null}]},{"code":505,"indent":0,"parameters":[{"code":2,"indent":null}]},{"code":505,"indent":0,"parameters":[{"code":2,"indent":null}]},{"code":505,"indent":0,"parameters":[{"code":4,"indent":null}]},{"code":505,"indent":0,"parameters":[{"code":4,"indent":null}]},{"code":213,"indent":0,"parameters":[-1,1,true]},{"code":205,"indent":0,"parameters":[-1,{"list":[{"code":13,"indent":null},{"code":13,"indent":null},{"code":0}],"repeat":false,"skippable":false,"wait":true}]},{"code":505,"indent":0,"parameters":[{"code":13,"indent":null}]},{"code":505,"indent":0,"parameters":[{"code":13,"indent":null}]},{"code":101,"indent":0,"parameters":["Valha",2,0,2]},{"code":401,"indent":0,"parameters":["\\C[14]\\N[2]:\\C[0]"]},{"code":401,"indent":0,"parameters":["Nơi này nhìn hoành tráng vậy?"]},{"code":205,"indent":0,"parameters":[0,{"list":[{"code":1,"indent":null},{"code":1,"indent":null},{"code":1,"indent":null},{"code":1,"indent":null},{"code":1,"indent":null},{"code":1,"indent":null},{"code":1,"indent":null},{"code":0}],"repeat":false,"skippable":false,"wait":true}]},{"code":505,"indent":0,"parameters":[{"code":1,"indent":null}]},{"code":505,"indent":0,"parameters":[{"code":1,"indent":null}]},{"code":505,"indent":0,"parameters":[{"code":1,"indent":null}]},{"code":505,"indent":0,"parameters":[{"code":1,"indent":null}]},{"code":505,"indent":0,"parameters":[{"code":1,"indent":null}]},{"code":505,"indent":0,"parameters":[{"code":1,"indent":null}]},{"code":505,"indent":0,"parameters":[{"code":1,"indent":null}]},{"code":101,"indent":0,"parameters":["People3",7,0,2]},{"code":401,"indent":0,"parameters":["\\C[14]Knight:\\C[0]"]},{"code":401,"indent":0,"parameters":["Ngài đã tỉnh lại \\N[2]!"]},{"code":213,"indent":0,"parameters":[-1,8,true]},{"code":101,"indent":0,"parameters":["Valha",2,0,2]},{"code":401,"indent":0,"parameters":["\\C[14]\\N[2]:\\C[0]"]},{"code":401,"indent":0,"parameters":["Chiến binh của vương quốc! Sao anh lại gọi"]},{"code":401,"indent":0,"parameters":["tôi là \"ngài\"?"]},{"code":213,"indent":0,"parameters":[0,8,true]},{"code":101,"indent":0,"parameters":["People3",7,0,2]},{"code":401,"indent":0,"parameters":["\\C[14]Knight:\\C[0]"]},{"code":401,"indent":0,"parameters":["Mời ngài đi theo tôi."]},{"code":213,"indent":0,"parameters":[-1,8,true]},{"code":205,"indent":0,"parameters":[0,{"list":[{"code":19,"indent":null},{"code":4,"indent":null},{"code":4,"indent":null},{"code":4,"indent":null},{"code":4,"indent":null},{"code":3,"indent":null},{"code":3,"indent":null},{"code":3,"indent":null},{"code":3,"indent":null},{"code":3,"indent":null},{"code":3,"indent":null},{"code":3,"indent":null},{"code":3,"indent":null},{"code":3,"indent":null},{"code":3,"indent":null},{"code":3,"indent":null},{"code":3,"indent":null},{"code":4,"indent":null},{"code":4,"indent":null},{"code":4,"indent":null},{"code":4,"indent":null},{"code":4,"indent":null},{"code":4,"indent":null},{"code":4,"indent":null},{"code":4,"indent":null},{"code":4,"indent":null},{"code":2,"indent":null},{"code":2,"indent":null},{"code":2,"indent":null},{"code":2,"indent":null},{"code":2,"indent":null},{"code":18,"indent":null},{"code":0}],"repeat":false,"skippable":false,"wait":false}]},{"code":505,"indent":0,"parameters":[{"code":19,"indent":null}]},{"code":505,"indent":0,"parameters":[{"code":4,"indent":null}]},{"code":505,"indent":0,"parameters":[{"code":4,"indent":null}]},{"code":505,"indent":0,"parameters":[{"code":4,"indent":null}]},{"code":505,"indent":0,"parameters":[{"code":4,"indent":null}]},{"code":505,"indent":0,"parameters":[{"code":3,"indent":null}]},{"code":505,"indent":0,"parameters":[{"code":3,"indent":null}]},{"code":505,"indent":0,"parameters":[{"code":3,"indent":null}]},{"code":505,"indent":0,"parameters":[{"code":3,"indent":null}]},{"code":505,"indent":0,"parameters":[{"code":3,"indent":null}]},{"code":505,"indent":0,"parameters":[{"code":3,"indent":null}]},{"code":505,"indent":0,"parameters":[{"code":3,"indent":null}]},{"code":505,"indent":0,"parameters":[{"code":3,"indent":null}]},{"code":505,"indent":0,"parameters":[{"code":3,"indent":null}]},{"code":505,"indent":0,"parameters":[{"code":3,"indent":null}]},{"code":505,"indent":0,"parameters":[{"code":3,"indent":null}]},{"code":505,"indent":0,"parameters":[{"code":3,"indent":null}]},{"code":505,"indent":0,"parameters":[{"code":4,"indent":null}]},{"code":505,"indent":0,"parameters":[{"code":4,"indent":null}]},{"code":505,"indent":0,"parameters":[{"code":4,"indent":null}]},{"code":505,"indent":0,"parameters":[{"code":4,"indent":null}]},{"code":505,"indent":0,"parameters":[{"code":4,"indent":null}]},{"code":505,"indent":0,"parameters":[{"code":4,"indent":null}]},{"code":505,"indent":0,"parameters":[{"code":4,"indent":null}]},{"code":505,"indent":0,"parameters":[{"code":4,"indent":null}]},{"code":505,"indent":0,"parameters":[{"code":4,"indent":null}]},{"code":505,"indent":0,"parameters":[{"code":2,"indent":null}]},{"code":505,"indent":0,"parameters":[{"code":2,"indent":null}]},{"code":505,"indent":0,"parameters":[{"code":2,"indent":null}]},{"code":505,"indent":0,"parameters":[{"code":2,"indent":null}]},{"code":505,"indent":0,"parameters":[{"code":2,"indent":null}]},{"code":505,"indent":0,"parameters":[{"code":18,"indent":null}]},{"code":205,"indent":0,"parameters":[-1,{"list":[{"code":29,"parameters":[3],"indent":null},{"code":4,"indent":null},{"code":4,"indent":null},{"code":4,"indent":null},{"code":4,"indent":null},{"code":4,"indent":null},{"code":4,"indent":null},{"code":4,"indent":null},{"code":3,"indent":null},{"code":3,"indent":null},{"code":3,"indent":null},{"code":3,"indent":null},{"code":3,"indent":null},{"code":3,"indent":null},{"code":3,"indent":null},{"code":3,"indent":null},{"code":3,"indent":null},{"code":3,"indent":null},{"code":3,"indent":null},{"code":3,"indent":null},{"code":4,"indent":null},{"code":4,"indent":null},{"code":4,"indent":null},{"code":4,"indent":null},{"code":4,"indent":null},{"code":4,"indent":null},{"code":4,"indent":null},{"code":4,"indent":null},{"code":0}],"repeat":false,"skippable":false,"wait":true}]},{"code":505,"indent":0,"parameters":[{"code":29,"parameters":[3],"indent":null}]},{"code":505,"indent":0,"parameters":[{"code":4,"indent":null}]},{"code":505,"indent":0,"parameters":[{"code":4,"indent":null}]},{"code":505,"indent":0,"parameters":[{"code":4,"indent":null}]},{"code":505,"indent":0,"parameters":[{"code":4,"indent":null}]},{"code":505,"indent":0,"parameters":[{"code":4,"indent":null}]},{"code":505,"indent":0,"parameters":[{"code":4,"indent":null}]},{"code":505,"indent":0,"parameters":[{"code":4,"indent":null}]},{"code":505,"indent":0,"parameters":[{"code":3,"indent":null}]},{"code":505,"indent":0,"parameters":[{"code":3,"indent":null}]},{"code":505,"indent":0,"parameters":[{"code":3,"indent":null}]},{"code":505,"indent":0,"parameters":[{"code":3,"indent":null}]},{"code":505,"indent":0,"parameters":[{"code":3,"indent":null}]},{"code":505,"indent":0,"parameters":[{"code":3,"indent":null}]},{"code":505,"indent":0,"parameters":[{"code":3,"indent":null}]},{"code":505,"indent":0,"parameters":[{"code":3,"indent":null}]},{"code":505,"indent":0,"parameters":[{"code":3,"indent":null}]},{"code":505,"indent":0,"parameters":[{"code":3,"indent":null}]},{"code":505,"indent":0,"parameters":[{"code":3,"indent":null}]},{"code":505,"indent":0,"parameters":[{"code":3,"indent":null}]},{"code":505,"indent":0,"parameters":[{"code":4,"indent":null}]},{"code":505,"indent":0,"parameters":[{"code":4,"indent":null}]},{"code":505,"indent":0,"parameters":[{"code":4,"indent":null}]},{"code":505,"indent":0,"parameters":[{"code":4,"indent":null}]},{"code":505,"indent":0,"parameters":[{"code":4,"indent":null}]},{"code":505,"indent":0,"parameters":[{"code":4,"indent":null}]},{"code":505,"indent":0,"parameters":[{"code":4,"indent":null}]},{"code":505,"indent":0,"parameters":[{"code":4,"indent":null}]},{"code":213,"indent":0,"parameters":[-1,1,true]},{"code":101,"indent":0,"parameters":["Valha",2,0,2]},{"code":401,"indent":0,"parameters":["\\C[14]\\N[2]:\\C[0]"]},{"code":401,"indent":0,"parameters":["Đức vua!"]},{"code":101,"indent":0,"parameters":["People3",0,0,2]},{"code":401,"indent":0,"parameters":["\\C[14]King:\\C[0]"]},{"code":401,"indent":0,"parameters":["\\N[2]..."]},{"code":205,"indent":0,"parameters":[3,{"list":[{"code":1,"indent":null},{"code":1,"indent":null},{"code":3,"indent":null},{"code":3,"indent":null},{"code":1,"indent":null},{"code":1,"indent":null},{"code":0}],"repeat":false,"skippable":false,"wait":true}]},{"code":505,"indent":0,"parameters":[{"code":1,"indent":null}]},{"code":505,"indent":0,"parameters":[{"code":1,"indent":null}]},{"code":505,"indent":0,"parameters":[{"code":3,"indent":null}]},{"code":505,"indent":0,"parameters":[{"code":3,"indent":null}]},{"code":505,"indent":0,"parameters":[{"code":1,"indent":null}]},{"code":505,"indent":0,"parameters":[{"code":1,"indent":null}]},{"code":101,"indent":0,"parameters":["Valha",2,0,2]},{"code":401,"indent":0,"parameters":["\\C[14]\\N[2]:\\C[0]"]},{"code":401,"indent":0,"parameters":["Thưa ngài!"]},{"code":213,"indent":0,"parameters":[0,1,false]},{"code":213,"indent":0,"parameters":[4,1,true]},{"code":205,"indent":0,"parameters":[0,{"list":[{"code":29,"parameters":[4],"indent":null},{"code":3,"indent":null},{"code":3,"indent":null},{"code":3,"indent":null},{"code":0}],"repeat":false,"skippable":false,"wait":false}]},{"code":505,"indent":0,"parameters":[{"code":29,"parameters":[4],"indent":null}]},{"code":505,"indent":0,"parameters":[{"code":3,"indent":null}]},{"code":505,"indent":0,"parameters":[{"code":3,"indent":null}]},{"code":505,"indent":0,"parameters":[{"code":3,"indent":null}]},{"code":205,"indent":0,"parameters":[4,{"list":[{"code":29,"parameters":[4],"indent":null},{"code":2,"indent":null},{"code":2,"indent":null},{"code":2,"indent":null},{"code":0}],"repeat":false,"skippable":false,"wait":true}]},{"code":505,"indent":0,"parameters":[{"code":29,"parameters":[4],"indent":null}]},{"code":505,"indent":0,"parameters":[{"code":2,"indent":null}]},{"code":505,"indent":0,"parameters":[{"code":2,"indent":null}]},{"code":505,"indent":0,"parameters":[{"code":2,"indent":null}]},{"code":101,"indent":0,"parameters":["People3",0,0,2]},{"code":401,"indent":0,"parameters":["\\C[14]King:\\C[0]"]},{"code":401,"indent":0,"parameters":["Ta xin lỗi... \\N[2]"]},{"code":101,"indent":0,"parameters":["Valha",2,0,2]},{"code":401,"indent":0,"parameters":["\\C[14]\\N[2]:\\C[0]"]},{"code":401,"indent":0,"parameters":["Thưa ngài! Có chuyện gì vậy ạ?"]},{"code":101,"indent":0,"parameters":["People3",0,0,2]},{"code":401,"indent":0,"parameters":["\\C[14]King:\\C[0]"]},{"code":401,"indent":0,"parameters":["Tất cả là tại ta... Mà mẹ con đã mất. Ta"]},{"code":401,"indent":0,"parameters":["xin lỗi con trai."]},{"code":101,"indent":0,"parameters":["KingdomWarrior",1,0,2]},{"code":401,"indent":0,"parameters":["\\C[14]\\N[12]:\\C[0]"]},{"code":401,"indent":0,"parameters":["Con trai?"]},{"code":101,"indent":0,"parameters":["Valha",2,0,2]},{"code":401,"indent":0,"parameters":["\\C[14]\\N[2]:\\C[0]"]},{"code":401,"indent":0,"parameters":["Thưa ngài! Tôi không hiểu."]},{"code":101,"indent":0,"parameters":["People3",0,0,2]},{"code":401,"indent":0,"parameters":["\\C[14]King:\\C[0]"]},{"code":401,"indent":0,"parameters":["\\N[2] à! Ta không muốn trốn tránh nữa. "]},{"code":401,"indent":0,"parameters":["Người thừa kế ngai vàng tiếp theo chính là"]},{"code":401,"indent":0,"parameters":["con \\N[2]!"]},{"code":101,"indent":0,"parameters":["People3",0,0,2]},{"code":401,"indent":0,"parameters":["\\C[14]King:\\C[0]"]},{"code":401,"indent":0,"parameters":["Ta hứa từ nay sẽ không ai làm con đau khổ"]},{"code":401,"indent":0,"parameters":["nữa."]},{"code":221,"indent":0,"parameters":[]},{"code":121,"indent":0,"parameters":[52,52,0]},{"code":222,"indent":0,"parameters":[]},{"code":0,"indent":0,"parameters":[]}],"moveFrequency":3,"moveRoute":{"list":[{"code":0,"parameters":[]}],"repeat":true,"skippable":false,"wait":false},"moveSpeed":3,"moveType":0,"priorityType":1,"stepAnime":false,"through":false,"trigger":3,"walkAnime":true},{"conditions":{"actorId":1,"actorValid":false,"itemId":1,"itemValid":false,"selfSwitchCh":"A","selfSwitchValid":false,"switch1Id":52,"switch1Valid":true,"switch2Id":1,"switch2Valid":false,"variableId":1,"variableValid":false,"variableValue":0},"directionFix":false,"image":{"characterIndex":0,"characterName":"","direction":2,"pattern":0,"tileId":0},"list":[{"code":123,"indent":0,"parameters":["A",1]},{"code":123,"indent":0,"parameters":["B",0]},{"code":0,"indent":0,"parameters":[]}],"moveFrequency":3,"moveRoute":{"list":[{"code":0,"parameters":[]}],"repeat":true,"skippable":false,"wait":false},"moveSpeed":3,"moveType":0,"priorityType":0,"stepAnime":false,"through":false,"trigger":4,"walkAnime":true},{"conditions":{"actorId":1,"actorValid":false,"itemId":1,"itemValid":false,"selfSwitchCh":"B","selfSwitchValid":true,"switch1Id":1,"switch1Valid":false,"switch2Id":1,"switch2Valid":false,"variableId":1,"variableValid":false,"variableValue":0},"directionFix":false,"image":{"characterIndex":0,"characterName":"","direction":2,"pattern":0,"tileId":0},"list":[{"code":0,"indent":0,"parameters":[]}],"moveFrequency":3,"moveRoute":{"list":[{"code":0,"parameters":[]}],"repeat":true,"skippable":false,"wait":false},"moveSpeed":3,"moveType":0,"priorityType":0,"stepAnime":false,"through":false,"trigger":0,"walkAnime":true}],"x":8,"y":16},
null,
{"id":3,"name":"EV003","note":"","pages":[{"conditions":{"actorId":1,"actorValid":false,"itemId":1,"itemValid":false,"selfSwitchCh":"A","selfSwitchValid":false,"switch1Id":1,"switch1Valid":false,"switch2Id":1,"switch2Valid":false,"variableId":1,"variableValid":false,"variableValue":0},"directionFix":false,"image":{"tileId":0,"characterName":"People3","direction":2,"pattern":1,"characterIndex":0},"list":[{"code":0,"indent":0,"parameters":[]}],"moveFrequency":3,"moveRoute":{"list":[{"code":0,"parameters":[]}],"repeat":true,"skippable":false,"wait":false},"moveSpeed":3,"moveType":0,"priorityType":1,"stepAnime":false,"through":false,"trigger":0,"walkAnime":true},{"conditions":{"actorId":1,"actorValid":false,"itemId":1,"itemValid":false,"selfSwitchCh":"A","selfSwitchValid":false,"switch1Id":52,"switch1Valid":true,"switch2Id":1,"switch2Valid":false,"variableId":1,"variableValid":false,"variableValue":0},"directionFix":false,"image":{"characterIndex":0,"characterName":"","direction":2,"pattern":0,"tileId":0},"list":[{"code":123,"indent":0,"parameters":["A",0]},{"code":0,"indent":0,"parameters":[]}],"moveFrequency":3,"moveRoute":{"list":[{"code":0,"parameters":[]}],"repeat":true,"skippable":false,"wait":false},"moveSpeed":3,"moveType":0,"priorityType":0,"stepAnime":false,"through":false,"trigger":4,"walkAnime":true},{"conditions":{"actorId":1,"actorValid":false,"itemId":1,"itemValid":false,"selfSwitchCh":"A","selfSwitchValid":true,"switch1Id":1,"switch1Valid":false,"switch2Id":1,"switch2Valid":false,"variableId":1,"variableValid":false,"variableValue":0},"directionFix":false,"image":{"characterIndex":0,"characterName":"","direction":2,"pattern":0,"tileId":0},"list":[{"code":0,"indent":0,"parameters":[]}],"moveFrequency":3,"moveRoute":{"list":[{"code":0,"parameters":[]}],"repeat":true,"skippable":false,"wait":false},"moveSpeed":3,"moveType":0,"priorityType":0,"stepAnime":false,"through":false,"trigger":0,"walkAnime":true}],"x":18,"y":6},
{"id":4,"name":"EV004","note":"","pages":[{"conditions":{"actorId":1,"actorValid":false,"itemId":1,"itemValid":false,"selfSwitchCh":"A","selfSwitchValid":false,"switch1Id":1,"switch1Valid":false,"switch2Id":1,"switch2Valid":false,"variableId":1,"variableValid":false,"variableValue":0},"directionFix":false,"image":{"tileId":0,"characterName":"KingdomWarrior","direction":4,"pattern":1,"characterIndex":1},"list":[{"code":0,"indent":0,"parameters":[]}],"moveFrequency":3,"moveRoute":{"list":[{"code":0,"parameters":[]}],"repeat":true,"skippable":false,"wait":false},"moveSpeed":3,"moveType":0,"priorityType":1,"stepAnime":false,"through":false,"trigger":0,"walkAnime":true},{"conditions":{"actorId":1,"actorValid":false,"itemId":1,"itemValid":false,"selfSwitchCh":"A","selfSwitchValid":false,"switch1Id":52,"switch1Valid":true,"switch2Id":1,"switch2Valid":false,"variableId":1,"variableValid":false,"variableValue":0},"directionFix":false,"image":{"characterIndex":0,"characterName":"","direction":2,"pattern":0,"tileId":0},"list":[{"code":123,"indent":0,"parameters":["A",0]},{"code":0,"indent":0,"parameters":[]}],"moveFrequency":3,"moveRoute":{"list":[{"code":0,"parameters":[]}],"repeat":true,"skippable":false,"wait":false},"moveSpeed":3,"moveType":0,"priorityType":0,"stepAnime":false,"through":false,"trigger":4,"walkAnime":true},{"conditions":{"actorId":1,"actorValid":false,"itemId":1,"itemValid":false,"selfSwitchCh":"A","selfSwitchValid":true,"switch1Id":1,"switch1Valid":false,"switch2Id":1,"switch2Valid":false,"variableId":1,"variableValid":false,"variableValue":0},"directionFix":false,"image":{"characterIndex":0,"characterName":"","direction":2,"pattern":0,"tileId":0},"list":[{"code":0,"indent":0,"parameters":[]}],"moveFrequency":3,"moveRoute":{"list":[{"code":0,"parameters":[]}],"repeat":true,"skippable":false,"wait":false},"moveSpeed":3,"moveType":0,"priorityType":0,"stepAnime":false,"through":false,"trigger":0,"walkAnime":true}],"x":25,"y":10},
{"id":5,"name":"EV005","note":"","pages":[{"conditions":{"actorId":1,"actorValid":false,"itemId":1,"itemValid":false,"selfSwitchCh":"A","selfSwitchValid":false,"switch1Id":52,"switch1Valid":true,"switch2Id":1,"switch2Valid":false,"variableId":1,"variableValid":false,"variableValue":0},"directionFix":false,"image":{"characterIndex":0,"characterName":"","direction":2,"pattern":0,"tileId":0},"list":[{"code":123,"indent":0,"parameters":["A",0]},{"code":0,"indent":0,"parameters":[]}],"moveFrequency":3,"moveRoute":{"list":[{"code":0,"parameters":[]}],"repeat":true,"skippable":false,"wait":false},"moveSpeed":3,"moveType":0,"priorityType":0,"stepAnime":false,"through":false,"trigger":3,"walkAnime":true},{"conditions":{"actorId":1,"actorValid":false,"itemId":1,"itemValid":false,"selfSwitchCh":"A","selfSwitchValid":true,"switch1Id":1,"switch1Valid":false,"switch2Id":1,"switch2Valid":false,"variableId":1,"variableValid":false,"variableValue":0},"directionFix":false,"image":{"tileId":0,"characterName":"People3","direction":2,"pattern":1,"characterIndex":0},"list":[{"code":108,"indent":0,"parameters":["N start all shared"]},{"code":101,"indent":0,"parameters":["Valha",2,0,2]},{"code":401,"indent":0,"parameters":["\\C[14]\\N[2]:\\C[0]"]},{"code":401,"indent":0,"parameters":["Thưa đức vua! Tôi không hiểu chuyện gì đang"]},{"code":401,"indent":0,"parameters":["xảy ra vậy? Và tại sao ngài lại gọi tôi là"]},{"code":401,"indent":0,"parameters":["\"con trai\"."]},{"code":101,"indent":0,"parameters":["People3",0,0,2]},{"code":401,"indent":0,"parameters":["\\C[14]King:\\C[0]"]},{"code":401,"indent":0,"parameters":["Ta là cha con \\N[2]. Con đã bao giờ thắc"]},{"code":401,"indent":0,"parameters":["mắc mình chưa bao giờ gặp người cha của "]},{"code":401,"indent":0,"parameters":["mình chưa?"]},{"code":101,"indent":0,"parameters":["Valha",2,0,2]},{"code":401,"indent":0,"parameters":["\\C[14]\\N[2]:\\C[0]"]},{"code":401,"indent":0,"parameters":["Thưa ngài! Làm ơn đừng nói vậy. Mẹ tôi đã"]},{"code":401,"indent":0,"parameters":["nói cho tôi là cha tôi đã hy sinh trong 1 "]},{"code":401,"indent":0,"parameters":["nhiệm vụ của vương quốc rồi."]},{"code":101,"indent":0,"parameters":["People3",0,0,2]},{"code":401,"indent":0,"parameters":["\\C[14]King:\\C[0]"]},{"code":401,"indent":0,"parameters":["Nàng thực sự... Không muốn liên lụy đến ta"]},{"code":401,"indent":0,"parameters":["sao."]},{"code":101,"indent":0,"parameters":["People3",0,0,2]},{"code":401,"indent":0,"parameters":["\\C[14]King:\\C[0]"]},{"code":401,"indent":0,"parameters":["Này \\N[2] dù ta đã già rồi nhưng ta vẫn là "]},{"code":401,"indent":0,"parameters":["1 vị vua của 1 vương quốc. Con nghĩ rằng ta "]},{"code":401,"indent":0,"parameters":["nói những điều vừa nãy là không phải sự"]},{"code":101,"indent":0,"parameters":["People3",0,0,2]},{"code":401,"indent":0,"parameters":["\\C[14]King:\\C[0]"]},{"code":401,"indent":0,"parameters":["thật sao?"]},{"code":101,"indent":0,"parameters":["Valha",2,0,2]},{"code":401,"indent":0,"parameters":["\\C[14]\\N[2]:\\C[0]"]},{"code":401,"indent":0,"parameters":["Không phải thưa ngài... Chỉ là mọi thứ đến"]},{"code":401,"indent":0,"parameters":["quá bất ngờ tôi không hiểu chuyện gì đang"]},{"code":401,"indent":0,"parameters":["xảy ra."]},{"code":101,"indent":0,"parameters":["People3",0,0,2]},{"code":401,"indent":0,"parameters":["\\C[14]King:\\C[0]"]},{"code":401,"indent":0,"parameters":["\\N[2] này. Mẹ con là 1 người khá giả, ngày"]},{"code":401,"indent":0,"parameters":["mà ta yêu nàng ấy là khi chúng ta có những"]},{"code":401,"indent":0,"parameters":["khoảng khắc tuyệt đẹp bên nhau."]},{"code":101,"indent":0,"parameters":["People3",0,0,2]},{"code":401,"indent":0,"parameters":["\\C[14]King:\\C[0]"]},{"code":401,"indent":0,"parameters":["Cho đến ngày nàng ấy nhận ra ta là hoàng"]},{"code":401,"indent":0,"parameters":["tử của vương quốc. Nàng kiên quyết khước"]},{"code":401,"indent":0,"parameters":["từ lời cầu hôn của ta và trốn đi mang theo"]},{"code":101,"indent":0,"parameters":["People3",0,0,2]},{"code":401,"indent":0,"parameters":["\\C[14]King:\\C[0]"]},{"code":401,"indent":0,"parameters":["con \\N[2]. Ta biết việc ta yêu nàng là trái"]},{"code":401,"indent":0,"parameters":["với luật của vương quốc. Nhưng ta vẫn kiên"]},{"code":401,"indent":0,"parameters":["quyết theo đuổi nàng. Vì nàng không muốn"]},{"code":101,"indent":0,"parameters":["People3",0,0,2]},{"code":401,"indent":0,"parameters":["\\C[14]King:\\C[0]"]},{"code":401,"indent":0,"parameters":["làm ảnh hưởng tới vương quốc nên nàng đã bỏ"]},{"code":401,"indent":0,"parameters":["trốn. Khi lên làm vua ta vẫn luôn tìm kiếm"]},{"code":401,"indent":0,"parameters":["nàng rất nhiều năm qua và kiên quyết không"]},{"code":101,"indent":0,"parameters":["People3",0,0,2]},{"code":401,"indent":0,"parameters":["\\C[14]King:\\C[0]"]},{"code":401,"indent":0,"parameters":["yêu 1 ai khác ngoài nàng. Ta đã mong rằng"]},{"code":401,"indent":0,"parameters":["khi ta lên làm vua ta sẽ bỏ được luật bắt"]},{"code":401,"indent":0,"parameters":["buộc hoàng tử phải cưới công chúa của vương"]},{"code":101,"indent":0,"parameters":["People3",0,0,2]},{"code":401,"indent":0,"parameters":["\\C[14]King:\\C[0]"]},{"code":401,"indent":0,"parameters":["quốc khác. Và có thể cùng nàng sống trọn"]},{"code":401,"indent":0,"parameters":["cuộc đời này."]},{"code":101,"indent":0,"parameters":["People3",0,0,2]},{"code":401,"indent":0,"parameters":["\\C[14]King:\\C[0]"]},{"code":401,"indent":0,"parameters":["Nhưng thật trớ trêu thay. Ngày mà ta có"]},{"code":401,"indent":0,"parameters":["được thông tin về nàng lại là ngày mà ta"]},{"code":401,"indent":0,"parameters":["nhận được tin có người bị sát hại."]},{"code":101,"indent":0,"parameters":["People3",0,0,2]},{"code":401,"indent":0,"parameters":["\\C[14]King:\\C[0]"]},{"code":401,"indent":0,"parameters":["Nàng đã bị sát hại. Tất cả là tại ta. Ta"]},{"code":401,"indent":0,"parameters":["cuối cùng cũng đã hiểu tại sao nàng chạy"]},{"code":401,"indent":0,"parameters":["trốn."]},{"code":101,"indent":0,"parameters":["People3",0,0,2]},{"code":401,"indent":0,"parameters":["\\C[14]King:\\C[0]"]},{"code":401,"indent":0,"parameters":["Đó cũng là ngày ta biết. Con trai của nàng"]},{"code":401,"indent":0,"parameters":["và cũng là con trai của ta \\N[2]. Đã là"]},{"code":401,"indent":0,"parameters":["hiệp sĩ của vương quốc này."]},{"code":101,"indent":0,"parameters":["People3",0,0,2]},{"code":401,"indent":0,"parameters":["\\C[14]King:\\C[0]"]},{"code":401,"indent":0,"parameters":["Đó cũng là ngày ta cuối cùng cũng tìm thấy"]},{"code":401,"indent":0,"parameters":["con \\n[2] ta hứa rằng sẽ không để ai làm"]},{"code":401,"indent":0,"parameters":["hại con \\N[2]."]},{"code":101,"indent":0,"parameters":["People3",0,0,2]},{"code":401,"indent":0,"parameters":["\\C[14]King:\\C[0]"]},{"code":401,"indent":0,"parameters":["Ta đã không thể bảo vệ được nàng."]},{"code":101,"indent":0,"parameters":["Valha",2,0,2]},{"code":401,"indent":0,"parameters":["\\C[14]\\N[2]:\\C[0]"]},{"code":401,"indent":0,"parameters":["Không thể nào! Thưa ngài! Làm ơn mẹ tôi"]},{"code":401,"indent":0,"parameters":["không thể bị sát hại được."]},{"code":101,"indent":0,"parameters":["Valha",2,0,2]},{"code":401,"indent":0,"parameters":["\\C[14]\\N[2]:\\C[0]"]},{"code":401,"indent":0,"parameters":["Mẹ tôi. Vẫn đang sống 1 cuộc sống đơn giản"]},{"code":401,"indent":0,"parameters":["ờ làng. Làm gì có chuyện mẹ tôi có thể"]},{"code":401,"indent":0,"parameters":["bị sát hại được."]},{"code":213,"indent":0,"parameters":[0,8,true]},{"code":205,"indent":0,"parameters":[0,{"list":[{"code":1,"indent":null},{"code":0}],"repeat":false,"skippable":true,"wait":true}]},{"code":505,"indent":0,"parameters":[{"code":1,"indent":null}]},{"code":205,"indent":0,"parameters":[-1,{"list":[{"code":4,"indent":null},{"code":15,"parameters":[60],"indent":null},{"code":0}],"repeat":false,"skippable":true,"wait":true}]},{"code":505,"indent":0,"parameters":[{"code":4,"indent":null}]},{"code":505,"indent":0,"parameters":[{"code":15,"parameters":[60],"indent":null}]},{"code":213,"indent":0,"parameters":[-1,1,true]},{"code":101,"indent":0,"parameters":["Valha",2,0,2]},{"code":401,"indent":0,"parameters":["\\C[14]\\N[2]:\\C[0]"]},{"code":401,"indent":0,"parameters":["Sao ngài lại có ảnh của mẹ tôi hồi trẻ?"]},{"code":101,"indent":0,"parameters":["People3",0,0,2]},{"code":401,"indent":0,"parameters":["\\C[14]King:\\C[0]"]},{"code":401,"indent":0,"parameters":["Vì ta muốn cho con thấy sự thật \\N[2]. Con"]},{"code":401,"indent":0,"parameters":["thực sự là con trai ta \\N[2]."]},{"code":101,"indent":0,"parameters":["People3",0,0,2]},{"code":401,"indent":0,"parameters":["\\C[14]King:\\C[0]"]},{"code":401,"indent":0,"parameters":["Con đã chịu nhiều áp lực hôm nay rồi..."]},{"code":401,"indent":0,"parameters":["\\N[12] làm ơn hãy đưa con trai ta về phòng."]},{"code":121,"indent":0,"parameters":[53,53,0]},{"code":123,"indent":0,"parameters":["A",1]},{"code":123,"indent":0,"parameters":["B",0]},{"code":0,"indent":0,"parameters":[]}],"moveFrequency":3,"moveRoute":{"list":[{"code":0,"parameters":[]}],"repeat":true,"skippable":false,"wait":false},"moveSpeed":3,"moveType":0,"priorityType":1,"stepAnime":false,"through":false,"trigger":3,"walkAnime":true},{"conditions":{"actorId":1,"actorValid":false,"itemId":1,"itemValid":false,"selfSwitchCh":"B","selfSwitchValid":true,"switch1Id":1,"switch1Valid":false,"switch2Id":1,"switch2Valid":false,"variableId":1,"variableValid":false,"variableValue":0},"directionFix":false,"image":{"tileId":0,"characterName":"People3","direction":2,"pattern":1,"characterIndex":0},"list":[{"code":0,"indent":0,"parameters":[]}],"moveFrequency":3,"moveRoute":{"list":[{"code":0,"parameters":[]}],"repeat":true,"skippable":false,"wait":false},"moveSpeed":3,"moveType":0,"priorityType":1,"stepAnime":false,"through":false,"trigger":0,"walkAnime":true},{"conditions":{"actorId":1,"actorValid":false,"itemId":1,"itemValid":false,"selfSwitchCh":"A","selfSwitchValid":false,"switch1Id":54,"switch1Valid":true,"switch2Id":1,"switch2Valid":false,"variableId":1,"variableValid":false,"variableValue":0},"directionFix":false,"image":{"characterIndex":0,"characterName":"","direction":2,"pattern":0,"tileId":0},"list":[{"code":123,"indent":0,"parameters":["B",1]},{"code":123,"indent":0,"parameters":["C",0]},{"code":0,"indent":0,"parameters":[]}],"moveFrequency":3,"moveRoute":{"list":[{"code":0,"parameters":[]}],"repeat":true,"skippable":false,"wait":false},"moveSpeed":3,"moveType":0,"priorityType":0,"stepAnime":false,"through":false,"trigger":4,"walkAnime":true},{"conditions":{"actorId":1,"actorValid":false,"itemId":1,"itemValid":false,"selfSwitchCh":"C","selfSwitchValid":true,"switch1Id":1,"switch1Valid":false,"switch2Id":1,"switch2Valid":false,"variableId":1,"variableValid":false,"variableValue":0},"directionFix":false,"image":{"characterIndex":0,"characterName":"","direction":2,"pattern":0,"tileId":0},"list":[{"code":0,"indent":0,"parameters":[]}],"moveFrequency":3,"moveRoute":{"list":[{"code":0,"parameters":[]}],"repeat":true,"skippable":false,"wait":false},"moveSpeed":3,"moveType":0,"priorityType":0,"stepAnime":false,"through":false,"trigger":0,"walkAnime":true}],"x":20,"y":8},
{"id":6,"name":"EV006","note":"","pages":[{"conditions":{"actorId":1,"actorValid":false,"itemId":1,"itemValid":false,"selfSwitchCh":"A","selfSwitchValid":false,"switch1Id":53,"switch1Valid":true,"switch2Id":1,"switch2Valid":false,"variableId":1,"variableValid":false,"variableValue":0},"directionFix":false,"image":{"tileId":0,"characterName":"","direction":8,"pattern":1,"characterIndex":1},"list":[{"code":123,"indent":0,"parameters":["A",0]},{"code":0,"indent":0,"parameters":[]}],"moveFrequency":3,"moveRoute":{"list":[{"code":0,"parameters":[]}],"repeat":true,"skippable":false,"wait":false},"moveSpeed":3,"moveType":0,"priorityType":0,"stepAnime":false,"through":false,"trigger":3,"walkAnime":true},{"conditions":{"actorId":1,"actorValid":false,"itemId":1,"itemValid":false,"selfSwitchCh":"A","selfSwitchValid":true,"switch1Id":1,"switch1Valid":false,"switch2Id":1,"switch2Valid":false,"variableId":1,"variableValid":false,"variableValue":0},"directionFix":false,"image":{"tileId":0,"characterName":"KingdomWarrior","direction":8,"pattern":1,"characterIndex":1},"list":[{"code":108,"indent":0,"parameters":["N start all shared"]},{"code":205,"indent":0,"parameters":[0,{"list":[{"code":4,"indent":null},{"code":4,"indent":null},{"code":4,"indent":null},{"code":4,"indent":null},{"code":4,"indent":null},{"code":4,"indent":null},{"code":4,"indent":null},{"code":0}],"repeat":false,"skippable":false,"wait":true}]},{"code":505,"indent":0,"parameters":[{"code":4,"indent":null}]},{"code":505,"indent":0,"parameters":[{"code":4,"indent":null}]},{"code":505,"indent":0,"parameters":[{"code":4,"indent":null}]},{"code":505,"indent":0,"parameters":[{"code":4,"indent":null}]},{"code":505,"indent":0,"parameters":[{"code":4,"indent":null}]},{"code":505,"indent":0,"parameters":[{"code":4,"indent":null}]},{"code":505,"indent":0,"parameters":[{"code":4,"indent":null}]},{"code":101,"indent":0,"parameters":["KingdomWarrior",1,0,2]},{"code":401,"indent":0,"parameters":["\\C[14]\\N[12]:\\C[0]"]},{"code":401,"indent":0,"parameters":["Vâng thưa đức vua!"]},{"code":101,"indent":0,"parameters":["KingdomWarrior",1,0,2]},{"code":401,"indent":0,"parameters":["\\C[14]\\N[12]:\\C[0]"]},{"code":401,"indent":0,"parameters":["Đi thôi \\N[2]."]},{"code":221,"indent":0,"parameters":[]},{"code":121,"indent":0,"parameters":[54,54,0]},{"code":201,"indent":0,"parameters":[0,74,14,26,4,0]},{"code":203,"indent":0,"parameters":[0,0,12,26,0]},{"code":123,"indent":0,"parameters":["A",1]},{"code":123,"indent":0,"parameters":["B",0]},{"code":222,"indent":0,"parameters":[]},{"code":0,"indent":0,"parameters":[]}],"moveFrequency":3,"moveRoute":{"list":[{"code":0,"parameters":[]}],"repeat":true,"skippable":false,"wait":false},"moveSpeed":3,"moveType":0,"priorityType":1,"stepAnime":false,"through":false,"trigger":3,"walkAnime":true},{"conditions":{"actorId":1,"actorValid":false,"itemId":1,"itemValid":false,"selfSwitchCh":"B","selfSwitchValid":true,"switch1Id":1,"switch1Valid":false,"switch2Id":1,"switch2Valid":false,"variableId":1,"variableValid":false,"variableValue":0},"directionFix":false,"image":{"tileId":0,"characterName":"KingdomWarrior","direction":6,"pattern":1,"characterIndex":1},"list":[{"code":108,"indent":0,"parameters":["N start all shared"]},{"code":101,"indent":0,"parameters":["KingdomWarrior",1,0,2]},{"code":401,"indent":0,"parameters":["\\C[14]\\N[12]:\\C[0]"]},{"code":401,"indent":0,"parameters":["Tôi không ngờ luôn đấy chàng trai trẻ!"]},{"code":401,"indent":0,"parameters":["Ai ngờ anh là hoàng tử của vương quốc luôn"]},{"code":213,"indent":0,"parameters":[-1,6,true]},{"code":101,"indent":0,"parameters":["Valha",2,0,2]},{"code":401,"indent":0,"parameters":["\\C[14]\\N[2]:\\C[0]"]},{"code":401,"indent":0,"parameters":["Đến bản thân tôi cũng bối rối luôn."]},{"code":101,"indent":0,"parameters":["KingdomWarrior",1,0,2]},{"code":401,"indent":0,"parameters":["\\C[14]\\N[12]:\\C[0]"]},{"code":401,"indent":0,"parameters":["Sướng nhất anh luôn nha. Đang làm hiệp sĩ"]},{"code":401,"indent":0,"parameters":["cấp thấp tự nhiên nhảy 1 phát lên làm vua"]},{"code":401,"indent":0,"parameters":["luôn."]},{"code":101,"indent":0,"parameters":["KingdomWarrior",1,0,2]},{"code":401,"indent":0,"parameters":["\\C[14]\\N[12]:\\C[0]"]},{"code":401,"indent":0,"parameters":["Dù sao thì cho tôi xin lỗi vì đánh anh nhé."]},{"code":401,"indent":0,"parameters":["Vì nhiệm vụ cả mà mong anh thông cảm."]},{"code":101,"indent":0,"parameters":["Valha",2,0,2]},{"code":401,"indent":0,"parameters":["\\C[14]\\N[2]:\\C[0]"]},{"code":401,"indent":0,"parameters":["Không sao đâu \\N[12]! Được vinh dự chiến"]},{"code":401,"indent":0,"parameters":["đấu với 1 trong 5 chiến binh tinh nhuệ là"]},{"code":401,"indent":0,"parameters":["tôi thấy vui lắm rồi."]},{"code":213,"indent":0,"parameters":[0,3,true]},{"code":101,"indent":0,"parameters":["KingdomWarrior",1,0,2]},{"code":401,"indent":0,"parameters":["\\C[14]\\N[12]:\\C[0]"]},{"code":401,"indent":0,"parameters":["Tôi mà là người nên thấy vui á! Được chiến"]},{"code":401,"indent":0,"parameters":["đấu với hẳn hoàng tử của vương quốc luôn."]},{"code":213,"indent":0,"parameters":[0,4,true]},{"code":101,"indent":0,"parameters":["KingdomWarrior",1,0,2]},{"code":401,"indent":0,"parameters":["\\C[14]\\N[12]:\\C[0]"]},{"code":401,"indent":0,"parameters":["Dù sao thì cũng tạm biệt nha. Hẹn gặp lại"]},{"code":401,"indent":0,"parameters":["hoàng tử."]},{"code":101,"indent":0,"parameters":["KingdomWarrior",1,0,2]},{"code":401,"indent":0,"parameters":["\\C[14]\\N[12]:\\C[0]"]},{"code":401,"indent":0,"parameters":["Phải công nhận anh đẹp trai hẳn khi mặc bộ"]},{"code":401,"indent":0,"parameters":["đồ đó đó \\N[2]."]},{"code":101,"indent":0,"parameters":["Valha",2,0,2]},{"code":401,"indent":0,"parameters":["\\C[14]\\N[2]:\\C[0]"]},{"code":401,"indent":0,"parameters":["Cảm ơn cô \\N[12]!"]},{"code":205,"indent":0,"parameters":[-1,{"list":[{"code":29,"parameters":[4],"indent":null},{"code":0}],"repeat":false,"skippable":false,"wait":true}]},{"code":505,"indent":0,"parameters":[{"code":29,"parameters":[4],"indent":null}]},{"code":201,"indent":0,"parameters":[0,75,14,26,0,0]},{"code":356,"indent":0,"parameters":["Autosave"]},{"code":123,"indent":0,"parameters":["B",1]},{"code":123,"indent":0,"parameters":["C",0]},{"code":0,"indent":0,"parameters":[]}],"moveFrequency":3,"moveRoute":{"list":[{"code":0,"parameters":[]}],"repeat":true,"skippable":false,"wait":false},"moveSpeed":3,"moveType":0,"priorityType":1,"stepAnime":false,"through":false,"trigger":3,"walkAnime":true},{"conditions":{"actorId":1,"actorValid":false,"itemId":1,"itemValid":false,"selfSwitchCh":"C","selfSwitchValid":true,"switch1Id":1,"switch1Valid":false,"switch2Id":1,"switch2Valid":false,"variableId":1,"variableValid":false,"variableValue":0},"directionFix":false,"image":{"characterIndex":0,"characterName":"","direction":2,"pattern":0,"tileId":0},"list":[{"code":0,"indent":0,"parameters":[]}],"moveFrequency":3,"moveRoute":{"list":[{"code":0,"parameters":[]}],"repeat":true,"skippable":false,"wait":false},"moveSpeed":3,"moveType":0,"priorityType":0,"stepAnime":false,"through":false,"trigger":0,"walkAnime":true}],"x":20,"y":19}
]
}