{
"autoplayBgm":true,"autoplayBgs":false,"battleback1Name":"Translucent","battleback2Name":"","bgm":{"name":"Battle3","pan":0,"pitch":100,"volume":90},"bgs":{"name":"","pan":0,"pitch":100,"volume":90},"disableDashing":false,"displayName":"","encounterList":[],"encounterStep":30,"height":13,"note":"","parallaxLoopX":false,"parallaxLoopY":false,"parallaxName":"","parallaxShow":true,"parallaxSx":0,"parallaxSy":0,"scrollType":0,"specifyBattleback":true,"tilesetId":4,"width":17,
"data":[1536,1536,1536,1536,1536,1536,1536,1536,1536,1536,1536,1536,1536,1536,1536,1536,1536,1536,1536,1536,1536,1536,1536,1536,1536,1536,1536,1536,1536,1536,1536,1536,1536,1536,1536,1536,1536,1536,1537,1537,1537,1537,1537,1537,1537,1537,1537,1536,1536,1536,1536,1536,1536,1536,1536,1537,1537,1537,1537,1537,1537,1537,1537,1537,1536,1536,1536,1536,1536,1536,1536,1536,1537,1537,1537,1537,1537,1537,1537,1537,1537,1536,1536,1536,1536,1536,1536,1536,1536,1537,1537,1537,1537,1537,1537,1537,1537,1537,1536,1536,1536,1536,1536,1536,1536,1536,1537,1537,1537,1537,1537,1537,1537,1537,1537,1536,1536,1536,1536,1536,1536,1536,1536,1537,1537,1537,1537,1537,1537,1537,1537,1537,1536,1536,1536,1536,1536,1536,1536,1536,1537,1537,1537,1537,1537,1537,1537,1537,1537,1536,1536,1536,1536,1536,1536,1536,1536,1537,1537,1537,1537,1537,1537,1537,1537,1537,1536,1536,1536,1536,1536,1536,1536,1536,1536,1536,1536,1536,1536,1536,1536,1536,1536,1536,1536,1536,1536,1536,1536,1536,1536,1536,1536,1536,1536,1536,1536,1536,1536,1536,1536,1536,1536,1536,1536,1536,1536,1536,1536,1536,1536,1536,1536,1536,1536,1536,1536,1536,1536,1536,1536,0,0,0,0,0,0,0,0,0,0,0,0,0,0,0,0,0,0,0,0,0,0,0,0,0,0,0,0,0,0,0,0,0,0,0,0,0,0,0,0,0,0,0,0,0,0,0,0,0,0,0,0,0,0,0,0,0,0,0,0,0,0,0,0,0,0,0,0,0,0,0,0,0,0,0,0,0,0,0,0,0,0,0,0,0,0,0,0,0,0,0,0,0,0,0,0,0,0,0,0,0,0,0,0,0,0,0,0,0,0,0,0,0,0,0,0,0,0,0,0,0,0,0,0,0,0,0,0,0,0,0,0,0,0,0,0,0,0,0,0,0,0,0,0,0,0,0,0,0,0,0,0,0,0,0,0,0,0,0,0,0,0,0,0,0,0,0,0,0,0,0,0,0,0,0,0,0,0,0,0,0,0,0,0,0,0,0,0,0,0,0,0,0,0,0,0,0,0,0,0,0,0,0,0,0,0,0,0,0,0,0,0,0,0,0,0,0,0,0,0,0,0,0,0,0,0,0,0,0,0,0,0,0,0,0,0,0,0,0,0,0,0,0,0,0,0,0,0,0,0,0,0,0,0,0,0,0,0,0,0,0,0,0,0,0,0,0,0,0,0,0,0,0,0,0,0,0,0,0,0,0,0,0,0,0,0,0,0,0,0,0,0,0,0,0,0,0,0,0,0,0,0,0,0,0,0,0,0,0,0,0,0,0,0,0,0,0,0,0,0,0,0,0,0,0,0,0,0,0,0,0,0,0,0,0,0,0,0,0,0,0,0,0,0,0,0,0,0,0,0,0,0,0,0,0,0,0,0,0,0,0,0,0,0,0,0,0,0,0,0,0,0,0,0,0,0,0,0,0,0,0,0,0,0,0,0,0,0,0,0,0,0,0,0,0,0,0,0,0,0,0,0,0,0,0,0,0,0,0,0,0,0,0,0,0,0,0,0,0,0,0,0,0,0,0,0,0,0,0,0,0,0,0,0,0,0,0,0,0,0,0,0,0,0,0,0,0,0,0,0,0,0,0,0,0,0,0,0,0,0,0,0,0,0,0,0,0,0,0,0,0,0,0,0,0,0,0,0,0,0,0,0,0,0,0,0,0,0,0,0,0,0,0,0,0,0,0,0,0,0,0,0,0,0,0,0,0,0,0,0,0,0,0,0,0,0,0,0,0,0,0,0,0,0,0,0,0,0,0,0,0,0,0,0,0,0,0,0,0,0,0,0,0,0,0,0,0,0,0,0,0,0,0,0,0,0,0,0,0,0,0,0,0,0,0,0,0,0,0,0,0,0,0,0,0,0,0,0,0,0,0,0,0,0,0,0,0,0,0,0,0,0,0,0,0,0,0,0,0,0,0,0,0,0,0,0,0,0,0,0,0,0,0,0,0,0,0,0,0,0,0,0,0,0,0,0,0,0,0,0,0,0,0,0,0,0,0,0,0,0,0,0,0,0,0,0,0,0,0,0,0,0,0,0,0,0,0,0,0,0,0,0,0,0,0,0,0,0,0,0,0,0,0,0,0,0,0,0,0,0,0,0,0,0,0,0,0,0,0,0,0,0,0,0,0,0,0,0,0,0,0,0,0,0,0,0,0,0,0,0,0,0,0,0,0,0,0,0,0,0,0,0,0,0,0,0,0,0,0,0,0,0,0,0,0,0,0,0,0,0,0,0,0,0,0,0,0,0,0,0,0,0,0,0,0,0,0,0,0,0,0,0,0,0,0,0,0,0,0,0,0,0,0,0,0,0,0,0,0,0,0,0,0,0,0,0,0,0,0,0,0,0,0,0,0,0,0,0,0,0,0,0,0,0,0,0,0,0,0,0,0,0,0,0,0,0,0,0,0,0,0,0,0,0,0,0,0,0,0,0,0,0,0,0,0,0,0,0,0,0,0,0,0,0,0,0,0,0,0,0,0,0,0,0,0,0,0,0,0,0,0,0,0,0,0,0,0,0,0,0,0,0,0,0,0,0,0,0,0,0,0,0,0,0,0,0,0,0,0,0,0,0,0,0,0,0,0,0,0,0,0,0,0,0,0,0,0,0,0,0,0,0,0,0,0,0,0,0,0,0,0,0,0,0,0,0,0,0,0,0,0,0,0,0,0,0,0,0,0,0,0,0,0,0,0,0,0,0,0,0,0,0,0,0,0,0,0,0,0,0,0,0,0,0,0,0,0,0,0,0,0,0,0,0,0,0,0,0,0,0,0,0,0,0,0,0,0,0,0,0,0,0,0,0,0,0,0,0,0,0,0,0,0,0,0,0,0,0,0,0,0,0,0,0,0,0,0,0,0,0,0,0,0,0,0,0,0,0,0,0,0,0,0,0,0,0,0,0,0,0,0,0,0,0,0,0,0,0,0,0,0,0,0,0,0,0,0,0,0,0,0,0,0,0,0,0,0,0,0,0,0,0,0,0,0,0,0,0,0,0,0,0,0,0,0,0,0,0,0,0,0,0,0,0,0,0,0,0,0,0,0,0,0,0,0],
"events":[
null,
{"id":1,"name":"EV001","note":"","pages":[{"conditions":{"actorId":1,"actorValid":false,"itemId":1,"itemValid":false,"selfSwitchCh":"A","selfSwitchValid":false,"switch1Id":73,"switch1Valid":true,"switch2Id":1,"switch2Valid":false,"variableId":1,"variableValid":false,"variableValue":0},"directionFix":false,"image":{"tileId":0,"characterName":"Actor3","direction":2,"pattern":1,"characterIndex":3},"list":[{"code":108,"indent":0,"parameters":["N start all shared"]},{"code":213,"indent":0,"parameters":[-1,2,true]},{"code":205,"indent":0,"parameters":[-1,{"list":[{"code":17,"indent":null},{"code":16,"indent":null},{"code":18,"indent":null},{"code":0}],"repeat":false,"skippable":false,"wait":true}]},{"code":505,"indent":0,"parameters":[{"code":17,"indent":null}]},{"code":505,"indent":0,"parameters":[{"code":16,"indent":null}]},{"code":505,"indent":0,"parameters":[{"code":18,"indent":null}]},{"code":101,"indent":0,"parameters":["Kora",0,0,2]},{"code":401,"indent":0,"parameters":["\\C[14]\\N[1]:\\C[0]"]},{"code":401,"indent":0,"parameters":["Đây là đâu ta?"]},{"code":101,"indent":0,"parameters":["Actor3",3,0,2]},{"code":401,"indent":0,"parameters":["\\C[14]???:\\C[0]"]},{"code":401,"indent":0,"parameters":["Ngươi là ai?"]},{"code":101,"indent":0,"parameters":["Kora",0,0,2]},{"code":401,"indent":0,"parameters":["\\C[14]\\N[1]:\\C[0]"]},{"code":401,"indent":0,"parameters":["Ai biết? Ngươi là ai?"]},{"code":101,"indent":0,"parameters":["Actor3",3,0,2]},{"code":401,"indent":0,"parameters":["\\C[14]???:\\C[0]"]},{"code":401,"indent":0,"parameters":["1 con người mà dám nói vậy với thần thánh"]},{"code":401,"indent":0,"parameters":["sao?"]},{"code":101,"indent":0,"parameters":["Kora",0,0,2]},{"code":401,"indent":0,"parameters":["\\C[14]\\N[1]:\\C[0]"]},{"code":401,"indent":0,"parameters":["Ha chắc ta tin ngươi là thần thánh ý chỉ"]},{"code":401,"indent":0,"parameters":["vì ngươi có mấy cái bộ giáp trông ngầu "]},{"code":401,"indent":0,"parameters":["không có nghĩa là ngươi là thần đâu."]},{"code":101,"indent":0,"parameters":["Actor3",3,0,2]},{"code":401,"indent":0,"parameters":["\\C[14]???:\\C[0]"]},{"code":401,"indent":0,"parameters":["Thôi được rồi dù ngươi không phải trả lời"]},{"code":401,"indent":0,"parameters":["câu hỏi của ta cũng được! Ta là \\N[37]"]},{"code":401,"indent":0,"parameters":["thánh kỹ sĩ."]},{"code":101,"indent":0,"parameters":["Kora",0,0,2]},{"code":401,"indent":0,"parameters":["\\C[14]\\N[1]:\\C[0]"]},{"code":401,"indent":0,"parameters":["Thánh kỹ sĩ?"]},{"code":101,"indent":0,"parameters":["Actor3",3,0,2]},{"code":401,"indent":0,"parameters":["\\C[14]\\N[37]:\\C[0]"]},{"code":401,"indent":0,"parameters":["Ngươi đã nghe danh ta rồi đấy giờ thì. Ta"]},{"code":401,"indent":0,"parameters":["có 1 câu hỏi trước khi trừ khử ngươi."]},{"code":101,"indent":0,"parameters":["Kora",0,0,2]},{"code":401,"indent":0,"parameters":["\\C[14]\\N[1]:\\C[0]"]},{"code":401,"indent":0,"parameters":["Chưa bao giờ nghe danh."]},{"code":101,"indent":0,"parameters":["Actor3",3,0,2]},{"code":401,"indent":0,"parameters":["\\C[14]\\N[37]:\\C[0]"]},{"code":401,"indent":0,"parameters":["Thật sao?"]},{"code":101,"indent":0,"parameters":["Kora",0,0,2]},{"code":401,"indent":0,"parameters":["\\C[14]\\N[1]:\\C[0]"]},{"code":401,"indent":0,"parameters":["ừ."]},{"code":101,"indent":0,"parameters":["Actor3",3,0,2]},{"code":401,"indent":0,"parameters":["\\C[14]\\N[37]:\\C[0]"]},{"code":401,"indent":0,"parameters":["Sao cũng được. Dù sao thì câu hỏi của ta là"]},{"code":401,"indent":0,"parameters":["sao ngươi có thể tới đây?"]},{"code":101,"indent":0,"parameters":["Kora",0,0,2]},{"code":401,"indent":0,"parameters":["\\C[14]\\N[1]:\\C[0]"]},{"code":401,"indent":0,"parameters":["Ai mà biết được? Đây không phải mục đích"]},{"code":401,"indent":0,"parameters":["của ta."]},{"code":101,"indent":0,"parameters":["Actor3",3,0,2]},{"code":401,"indent":0,"parameters":["\\C[14]\\N[37]:\\C[0]"]},{"code":401,"indent":0,"parameters":["Dù sao ta cũng phải trừ khử ngươi hoặc"]},{"code":401,"indent":0,"parameters":["ngươi tự biết thân phận của mình và rời"]},{"code":401,"indent":0,"parameters":["khỏi đây đi."]},{"code":101,"indent":0,"parameters":["Kora",0,0,2]},{"code":401,"indent":0,"parameters":["\\C[14]\\N[1]:\\C[0]"]},{"code":401,"indent":0,"parameters":["Nói như ngươi thì dễ chứ ta cũng không biết"]},{"code":401,"indent":0,"parameters":["về kiểu gì và cho đến khi ta có thể sử dụng"]},{"code":401,"indent":0,"parameters":["được sức mạnh hắc ám đó để khôi phục lại"]},{"code":101,"indent":0,"parameters":["Kora",0,0,2]},{"code":401,"indent":0,"parameters":["\\C[14]\\N[1]:\\C[0]"]},{"code":401,"indent":0,"parameters":["thế giới thì ta không đi đâu hết!"]},{"code":101,"indent":0,"parameters":["Actor3",3,0,2]},{"code":401,"indent":0,"parameters":["\\C[14]\\N[37]:\\C[0]"]},{"code":401,"indent":0,"parameters":["Sức mạnh hắc ám? Khôi phục thế giới? Ý "]},{"code":401,"indent":0,"parameters":["ngươi là sao?"]},{"code":101,"indent":0,"parameters":["Kora",0,0,2]},{"code":401,"indent":0,"parameters":["\\C[14]\\N[1]:\\C[0]"]},{"code":401,"indent":0,"parameters":["Ta sẽ tái tạo lại thế giới nơi mà mọi sinh"]},{"code":401,"indent":0,"parameters":["vật sẽ chưa từng xuất hiện để rồi chúng "]},{"code":401,"indent":0,"parameters":["được hình thành lại như ban đầu."]},{"code":101,"indent":0,"parameters":["Actor3",3,0,2]},{"code":401,"indent":0,"parameters":["\\C[14]\\N[37]:\\C[0]"]},{"code":401,"indent":0,"parameters":["Ngươi làm thế thì có ích gì?"]},{"code":101,"indent":0,"parameters":["Kora",0,0,2]},{"code":401,"indent":0,"parameters":["\\C[14]\\N[1]:\\C[0]"]},{"code":401,"indent":0,"parameters":["Ta sẽ lập lại 1 trật tự mới! Khi mà thế"]},{"code":401,"indent":0,"parameters":["giới được phát triển mà không còn thứ"]},{"code":401,"indent":0,"parameters":["sức mạnh hắc ám và pháp thuật nữa!"]},{"code":101,"indent":0,"parameters":["Actor3",3,0,2]},{"code":401,"indent":0,"parameters":["\\C[14]\\N[37]:\\C[0]"]},{"code":401,"indent":0,"parameters":["Tại sao ngươi nghĩ đó là 1 trật tự tốt hơn?"]},{"code":101,"indent":0,"parameters":["Kora",0,0,2]},{"code":401,"indent":0,"parameters":["\\C[14]\\N[1]:\\C[0]"]},{"code":401,"indent":0,"parameters":["Nơi không có những thứ này chính là 1 thế"]},{"code":401,"indent":0,"parameters":["giới không còn nhưng mối đe dọa, không còn"]},{"code":401,"indent":0,"parameters":["những con người vì không có sức mạnh phải"]},{"code":101,"indent":0,"parameters":["Kora",0,0,2]},{"code":401,"indent":0,"parameters":["\\C[14]\\N[1]:\\C[0]"]},{"code":401,"indent":0,"parameters":["chịu khổ, bị ghẻ lạnh nữa."]},{"code":101,"indent":0,"parameters":["Actor3",3,0,2]},{"code":401,"indent":0,"parameters":["\\C[14]\\N[37]:\\C[0]"]},{"code":401,"indent":0,"parameters":["Dù ngươi nói vậy. Nhưng ta cũng không thể"]},{"code":401,"indent":0,"parameters":["cho phép ngươi thay đổi 1 thực tại hiện"]},{"code":401,"indent":0,"parameters":["hữu được. Ngươi có dám chắc rằng tạo ra 1"]},{"code":101,"indent":0,"parameters":["Actor3",3,0,2]},{"code":401,"indent":0,"parameters":["\\C[14]\\N[37]:\\C[0]"]},{"code":401,"indent":0,"parameters":["thế giới mới sẽ giúp cho nó tốt hơn?"]},{"code":101,"indent":0,"parameters":["Kora",0,0,2]},{"code":401,"indent":0,"parameters":["\\C[14]\\N[1]:\\C[0]"]},{"code":401,"indent":0,"parameters":["Ta đã có quyết tâm của mình rồi. Ta sẽ"]},{"code":401,"indent":0,"parameters":["không quay đầu lại đâu."]},{"code":205,"indent":0,"parameters":[0,{"list":[{"code":1,"indent":null},{"code":1,"indent":null},{"code":0}],"repeat":false,"skippable":false,"wait":false}]},{"code":505,"indent":0,"parameters":[{"code":1,"indent":null}]},{"code":505,"indent":0,"parameters":[{"code":1,"indent":null}]},{"code":101,"indent":0,"parameters":["Actor3",3,0,2]},{"code":401,"indent":0,"parameters":["\\C[14]\\N[37]:\\C[0]"]},{"code":401,"indent":0,"parameters":["Vậy thì chuẩn bị tinh thần đi loài người!"]},{"code":401,"indent":0,"parameters":["Ta không để ngươi tọa nguyện đâu!"]},{"code":314,"indent":0,"parameters":[0,0]},{"code":301,"indent":0,"parameters":[0,58,false,false]},{"code":101,"indent":0,"parameters":["Actor3",3,0,2]},{"code":401,"indent":0,"parameters":["\\C[14]\\N[37]:\\C[0]"]},{"code":401,"indent":0,"parameters":["Sao con người có thể thắng được ta chứ!"]},{"code":101,"indent":0,"parameters":["Actor3",3,0,2]},{"code":401,"indent":0,"parameters":["\\C[14]\\N[37]:\\C[0]"]},{"code":401,"indent":0,"parameters":["Đừng vội mừng con người kia! Ta vẫn chưa"]},{"code":401,"indent":0,"parameters":["xong đâu!"]},{"code":301,"indent":0,"parameters":[0,59,false,false]},{"code":356,"indent":0,"parameters":["Autosave"]},{"code":121,"indent":0,"parameters":[74,74,0]},{"code":123,"indent":0,"parameters":["A",0]},{"code":0,"indent":0,"parameters":[]}],"moveFrequency":3,"moveRoute":{"list":[{"code":0,"parameters":[]}],"repeat":true,"skippable":false,"wait":false},"moveSpeed":3,"moveType":0,"priorityType":1,"stepAnime":false,"through":false,"trigger":3,"walkAnime":true},{"conditions":{"actorId":1,"actorValid":false,"itemId":1,"itemValid":false,"selfSwitchCh":"A","selfSwitchValid":true,"switch1Id":1,"switch1Valid":false,"switch2Id":1,"switch2Valid":false,"variableId":1,"variableValid":false,"variableValue":0},"directionFix":false,"image":{"tileId":0,"characterName":"!SF_Door2","direction":4,"pattern":1,"characterIndex":6},"list":[{"code":221,"indent":0,"parameters":[]},{"code":224,"indent":0,"parameters":[[255,255,255,170],60,true]},{"code":225,"indent":0,"parameters":[5,5,60,true]},{"code":123,"indent":0,"parameters":["A",1]},{"code":123,"indent":0,"parameters":["B",0]},{"code":201,"indent":0,"parameters":[0,91,16,12,0,0]},{"code":222,"indent":0,"parameters":[]},{"code":0,"indent":0,"parameters":[]}],"moveFrequency":3,"moveRoute":{"list":[{"code":0,"parameters":[]}],"repeat":true,"skippable":false,"wait":false},"moveSpeed":3,"moveType":0,"priorityType":1,"stepAnime":false,"through":false,"trigger":0,"walkAnime":true},{"conditions":{"actorId":1,"actorValid":false,"itemId":1,"itemValid":false,"selfSwitchCh":"B","selfSwitchValid":true,"switch1Id":1,"switch1Valid":false,"switch2Id":1,"switch2Valid":false,"variableId":1,"variableValid":false,"variableValue":0},"directionFix":false,"image":{"characterIndex":0,"characterName":"","direction":2,"pattern":0,"tileId":0},"list":[{"code":0,"indent":0,"parameters":[]}],"moveFrequency":3,"moveRoute":{"list":[{"code":0,"parameters":[]}],"repeat":true,"skippable":false,"wait":false},"moveSpeed":3,"moveType":0,"priorityType":0,"stepAnime":false,"through":false,"trigger":0,"walkAnime":true}],"x":8,"y":3}
]
}