{
"autoplayBgm":true,"autoplayBgs":false,"battleback1Name":"Ruins2","battleback2Name":"Town1","bgm":{"name":"Town2","pan":0,"pitch":100,"volume":90},"bgs":{"name":"","pan":0,"pitch":100,"volume":90},"disableDashing":false,"displayName":"","encounterList":[],"encounterStep":30,"height":25,"note":"","parallaxLoopX":false,"parallaxLoopY":false,"parallaxName":"","parallaxShow":true,"parallaxSx":0,"parallaxSy":0,"scrollType":0,"specifyBattleback":true,"tilesetId":2,"width":25,
"data":[2816,2816,2816,2816,2816,2816,2816,2820,2844,2844,2844,2844,2854,1644,1641,1641,1642,7704,7692,7672,7664,7664,7664,7664,7664,2816,2816,2816,2816,2816,2816,2820,2854,1644,1641,1641,1641,1641,1642,1649,1649,1650,8051,8050,7704,7692,7672,7664,7664,7664,2816,2816,2820,2844,2844,2844,2854,1644,1642,1649,1649,1649,1649,1650,1657,1657,1658,8057,8060,8051,8050,7704,7692,7672,7664,2820,2844,2854,1644,1641,1641,1641,1642,1650,1657,1657,1657,1657,1658,2850,2836,2836,2836,2852,8057,8060,8051,8050,7704,7692,2854,1644,1641,1642,1649,1649,1649,1650,1658,2850,2836,2836,2836,2836,2817,2816,2816,2816,2818,2836,2852,8057,8060,8051,8054,1644,1642,1649,1650,1657,1657,1657,1658,2850,2817,2816,2816,2816,2816,2816,2816,2816,2816,2816,2816,2818,2836,2852,8057,8060,1634,1650,1657,1658,2859,2849,2849,2838,2817,2816,2816,2816,2816,2816,2816,2816,2816,2816,2816,2816,2816,2816,2818,2836,2836,1634,1658,2850,2852,4939,4938,4942,2834,2844,2844,2844,2824,2820,2844,2844,2844,2844,2844,2844,2824,2816,2816,2816,2816,2816,1634,2850,2821,2846,2849,2849,2849,2855,4098,4084,4100,2832,2840,4098,4084,4084,4084,4084,4100,2832,2816,2816,2816,2816,2816,1634,2832,2840,4931,4930,4930,4930,4934,4080,4064,4088,2832,2840,4080,4064,4064,4064,4064,4088,2832,2816,2816,2816,2816,2816,1634,2832,2840,4937,4936,4936,4936,4940,4080,4064,4088,2832,2840,4080,4064,4064,4064,4064,4088,2832,2816,2816,2816,2816,2816,1634,2832,2818,2837,2849,2849,2849,2861,4104,4092,4102,2856,2854,4104,4092,4092,4092,4092,4102,2856,2844,2844,2844,2844,2844,1634,2832,2816,2840,2946,2932,2932,2932,2932,2932,2932,2932,2932,2932,2932,2932,2932,2932,2932,2932,2932,2932,2932,2932,2932,1634,2856,2824,2840,2952,2940,2940,2940,2940,2940,2940,2920,2916,2940,2940,2940,2940,2940,2940,2940,2940,2940,2940,2940,2940,1636,1626,2834,2846,2849,2849,2839,2849,2849,2849,2853,2928,2936,4098,4084,4084,4084,4084,4100,2850,2836,2836,2836,2836,2836,2852,1634,2848,5219,5218,5222,2848,5219,5218,5222,2848,2928,2936,4080,4064,4064,4064,4064,4088,2832,2816,2816,2816,2816,2816,2840,1634,2848,5225,5224,5228,2848,5225,5224,5228,2848,2928,2936,4080,4064,4064,4064,4064,4088,2832,2816,2816,2816,2816,2816,2840,1634,2848,5611,5610,5614,2848,5611,5610,5614,2848,2928,2936,4104,4092,4092,4092,4092,4102,2832,2816,2816,2816,2816,2816,2840,1634,2833,2836,2836,2836,2819,2836,2836,2836,2842,2928,2936,2850,2836,2836,2836,2836,2836,2817,2816,2816,2816,2820,2844,2840,1634,2832,2816,2816,2816,2816,2816,2816,2816,2840,2928,2936,2832,2816,2816,2816,2816,2816,2816,2816,2816,2820,2854,7698,2840,1634,2832,2816,2816,2816,2816,2816,2816,2816,2840,2928,2936,2832,2816,2816,2816,2816,2816,2816,2816,2816,2840,7698,7665,2840,1634,2856,2844,2824,2816,2816,2816,2816,2816,2840,2928,2936,2832,2816,2816,2816,2816,2816,2820,2844,2844,2854,7680,7664,2840,1636,1625,1626,2856,2844,2844,2824,2816,2816,2840,2928,2936,2832,2816,2816,2820,2844,2844,2854,7698,7684,7684,7665,7664,2818,2836,2852,1636,1625,1625,1626,2832,2816,2816,2840,2928,2936,2832,2816,2820,2854,7698,7684,7684,7665,7664,7664,7664,7664,2816,2816,2818,2836,2836,2852,1634,2832,2816,2816,2840,2928,2936,2832,2816,2840,7698,7665,7664,7664,7664,7664,7664,7664,7664,0,0,0,0,0,0,0,0,0,0,0,0,0,0,0,0,0,0,0,0,0,0,0,0,0,0,0,0,0,0,0,0,0,0,0,0,0,0,0,0,0,0,0,0,0,0,0,0,0,0,0,0,0,0,0,0,0,0,0,0,0,0,0,0,0,0,0,0,0,0,0,0,0,0,0,0,0,0,0,0,0,0,0,0,0,0,0,0,0,3051,3041,3030,3028,3044,0,0,0,0,0,0,0,0,0,0,0,0,0,0,0,0,0,0,0,0,0,0,3048,3016,3010,3028,3044,0,0,0,0,0,0,0,0,0,0,0,0,0,0,0,0,0,0,0,0,0,3048,3036,3036,3038,3053,3146,0,0,0,0,0,0,0,0,0,0,0,0,0,0,0,0,0,0,0,0,0,0,0,0,3136,0,0,0,0,3042,3044,0,0,0,0,0,0,0,0,2907,2897,2897,2897,2909,0,0,0,0,0,3136,0,0,0,3042,3013,3038,3053,0,0,0,4146,4132,4148,0,0,4146,4132,4132,4132,4132,4148,0,0,0,3136,0,0,0,3024,3032,0,0,0,0,0,4128,4112,4136,0,0,4128,4112,4112,4112,4112,4136,0,0,0,3136,0,0,0,3024,3032,0,0,0,0,0,4128,4112,4136,0,0,4128,4112,4112,4112,4112,4136,0,0,0,3145,3137,3137,0,3048,3046,0,0,0,0,0,4152,4140,4150,0,0,4152,4140,4140,4140,4140,4150,0,0,0,0,0,0,0,0,0,0,2994,2980,2980,2980,2980,2980,2980,2980,2980,2980,2980,2980,2980,2980,2980,2980,2980,2980,2980,2980,2980,0,0,0,0,3000,2988,2988,2988,2988,2988,2988,2968,2964,2988,2988,2988,2988,2988,2988,2988,2988,2988,2988,2988,2988,0,0,0,0,2907,2897,2887,2909,0,0,0,2976,2984,4146,4132,4132,4132,4132,4148,0,3050,0,0,0,0,0,0,0,0,0,0,2896,0,0,0,0,2976,2984,4128,4112,4112,4112,4112,4136,0,3025,3044,3139,3137,3137,0,0,0,0,0,0,2896,0,0,0,0,2976,2984,4128,4112,4112,4112,4112,4136,3042,3009,3032,3136,0,0,0,0,0,0,0,0,2908,0,0,0,0,2976,2984,4152,4140,4140,4140,4140,4150,3024,3008,3032,3136,0,0,0,0,3042,3044,0,0,0,0,0,0,0,2976,2984,0,0,0,0,0,0,3024,3008,3032,3136,0,0,0,0,3024,3032,0,0,0,0,0,0,0,2976,2984,0,0,0,0,0,3042,3009,3008,3032,3136,0,0,0,0,3024,3010,3044,0,0,0,0,0,0,2976,2984,0,0,0,0,3042,3009,3008,3008,3032,3136,0,0,3044,0,3048,3036,3018,3044,0,0,0,0,0,2976,2984,0,0,0,3051,3017,3008,3012,3036,3046,3148,0,0,3032,0,0,0,3048,3046,0,0,0,0,0,2976,2984,0,0,0,0,3048,3036,3046,0,0,0,0,0,3010,3044,0,0,0,0,0,3147,3137,3137,3149,2976,2984,3147,3137,3137,3149,0,0,0,0,0,0,0,0,3008,3010,3044,0,0,0,0,0,0,0,0,2976,2984,0,0,0,0,0,0,0,0,0,0,0,0,0,0,0,0,0,0,0,0,0,0,0,0,0,0,0,0,0,0,0,0,0,0,0,0,0,0,121,0,0,120,121,120,0,0,0,0,0,0,0,0,0,0,0,0,0,0,0,0,0,0,0,120,0,0,0,0,0,0,0,0,0,0,0,0,0,0,0,0,0,0,0,0,0,0,0,0,0,0,0,0,0,0,0,0,0,0,0,0,0,124,0,0,0,0,0,0,0,0,0,0,0,0,0,0,0,192,0,0,0,0,0,0,0,0,0,0,0,0,0,0,90,0,0,0,0,0,0,0,0,0,200,0,0,0,0,0,0,0,0,0,0,0,0,0,0,0,101,0,0,0,0,0,0,0,0,425,0,0,0,0,0,0,0,0,0,0,0,0,0,0,0,0,0,0,0,0,0,0,0,0,0,0,0,0,0,0,0,0,0,0,0,0,0,0,0,0,0,0,0,0,0,0,90,0,0,425,0,0,0,0,0,0,0,0,0,0,0,0,0,0,0,0,0,120,0,0,0,0,0,0,0,0,0,0,117,0,0,0,0,0,0,0,0,124,0,0,0,0,0,0,0,0,0,300,56,0,0,0,0,0,0,0,0,0,0,0,0,0,0,0,0,0,0,0,0,0,0,0,0,0,0,0,0,0,0,0,0,0,0,0,0,0,0,0,0,0,0,0,0,0,0,0,0,0,0,0,0,0,0,0,0,0,0,0,0,0,0,0,0,0,0,0,0,0,0,0,0,0,0,0,0,0,0,0,0,0,0,0,0,0,0,0,0,0,0,0,0,0,0,0,0,0,0,0,0,0,0,0,0,0,0,0,0,0,0,0,109,0,0,0,0,0,0,0,0,0,0,0,0,0,0,0,0,0,0,0,0,0,0,0,0,0,0,0,0,0,0,0,0,0,0,0,0,0,0,0,0,0,0,0,0,0,0,0,0,0,0,0,0,0,0,0,0,0,0,0,0,0,0,0,0,0,0,0,0,0,0,0,0,0,0,0,0,0,0,0,0,0,120,121,0,0,0,0,0,0,0,0,0,0,0,0,0,0,0,0,0,0,0,0,0,0,0,0,0,0,0,0,0,0,0,0,0,0,0,0,0,0,0,0,0,0,0,0,0,0,0,0,0,0,0,0,0,121,0,0,0,0,0,0,0,0,0,0,0,0,0,0,0,0,0,0,0,0,0,0,0,0,0,0,0,0,121,0,0,0,0,0,0,0,0,0,0,0,0,0,0,0,0,0,0,0,0,0,0,0,0,0,0,0,0,0,0,0,0,0,0,0,0,0,0,0,0,0,0,0,0,0,0,0,0,0,0,0,0,0,0,0,0,0,0,0,0,0,0,0,0,0,0,0,0,0,0,0,0,0,0,0,0,0,0,0,0,0,0,0,0,0,0,0,0,0,0,0,0,112,113,0,0,112,113,112,113,0,90,112,113,0,90,0,0,0,0,0,0,0,0,0,0,0,120,112,113,112,113,112,113,121,0,0,120,121,0,0,0,0,0,0,0,0,0,0,0,0,0,112,113,121,120,121,120,121,0,0,0,192,0,0,0,116,116,116,0,0,0,0,0,0,0,0,120,121,0,0,0,0,0,0,0,0,200,0,208,209,210,124,124,0,90,0,93,0,0,0,0,0,0,0,0,408,409,410,0,0,106,0,92,216,217,218,0,208,209,210,0,101,93,0,0,0,0,0,194,0,416,417,418,0,106,0,179,0,224,225,226,0,216,217,218,0,89,93,0,112,113,0,0,202,408,424,442,426,410,208,209,210,0,0,0,0,0,224,225,226,77,77,101,0,120,121,0,0,77,416,0,0,0,418,216,217,218,0,0,0,0,0,0,0,0,0,0,90,0,112,113,0,0,77,424,425,442,425,426,224,225,226,91,0,119,119,77,77,80,116,0,0,0,0,93,121,0,91,0,292,48,0,48,292,117,118,126,0,0,86,110,0,0,0,116,90,0,0,0,101,0,0,0,89,93,93,68,56,300,0,0,0,0,91,0,0,0,0,0,124,0,73,85,0,0,0,0,0,0,101,101,76,0,0,0,0,0,0,0,0,0,0,0,0,0,0,0,0,0,0,0,0,91,0,0,0,0,0,0,0,0,0,0,0,0,0,0,0,0,0,0,0,0,0,0,0,0,0,0,0,0,0,0,0,0,0,0,0,0,0,0,0,0,0,0,0,0,0,0,0,0,0,0,0,0,0,0,0,0,91,0,0,0,0,0,0,0,127,81,81,0,0,0,90,0,0,0,0,0,0,0,0,0,0,0,0,0,0,0,0,0,0,0,0,126,0,0,0,0,0,0,90,0,0,0,0,0,0,0,0,0,0,0,0,86,0,0,0,0,106,0,93,89,0,112,113,0,0,0,0,32,0,0,0,32,0,0,0,0,118,118,119,117,80,80,91,101,0,0,93,112,0,0,0,0,0,0,91,0,0,0,0,0,0,0,0,0,0,0,0,0,0,0,0,101,120,0,0,112,113,0,89,0,0,112,113,0,0,0,0,90,0,208,209,210,0,89,91,0,0,0,0,0,120,112,113,0,112,113,120,121,0,0,0,0,0,0,216,217,218,0,0,0,0,0,0,0,0,0,120,121,0,120,112,113,0,0,0,0,112,113,0,224,225,226,0,0,0,0,0,0,0,0,0,0,0,91,0,120,121,90,0,0,0,120,121,0,0,0,0,0,0,0,0,0,0,91,0,0,0,0,0,0,0,0,0,0,0,0,0,0,0,0,0,0,0,0,0,0,0,0,0,91,0,0,0,0,0,0,0,0,0,0,0,0,0,0,0,0,0,0,0,0,0,0,0,0,0,0,0,0,0,0,0,0,0,0,0,0,0,0,0,0,0,0,0,0,0,0,0,0,0,0,0,0,0,0,0,0,0,0,0,0,0,0,0,0,0,0,0,0,0,0,0,0,0,0,0,0,0,0,0,0,0,0,0,0,0,0,0,0,0,0,0,0,0,0,0,0,0,0,0,0,0,0,0,0,0,0,0,0,0,0,0,0,0,0,0,5,0,0,0,0,0,0,0,0,0,0,0,0,0,0,0,0,5,0,0,0,0,0,0,0,0,0,0,0,0,0,0,0,0,0,0,0,0,0,0,0,5,0,0,0,0,0,0,0,0,0,0,0,0,0,0,0,0,0,0,0,0,0,0,0,0,0,0,0,0,0,0,0,0,0,0,0,0,0,0,0,0,0,0,0,5,0,0,0,0,0,0,0,0,0,0,0,0,0,0,0,0,0,0,0,0,0,0,0,5,0,0,0,0,0,0,0,0,0,0,0,0,0,0,0,0,0,0,0,0,0,0,0,0,5,0,0,0,0,0,0,0,0,0,0,0,0,0,0,0,0,0,5,0,0,0,0,0,0,5,0,0,0,0,0,0,5,0,0,0,0,0,0,0,0,0,0,5,0,0,0,0,0,0,5,0,0,0,0,0,0,0,0,0,0,0,0,0,0,0,0,0,0,0,0,0,0,0,0,5,0,0,0,0,0,0,0,0,0,0,0,0,0,0,0,0,0,0,0,0,0,0,0,0,5,0,0,0,0,0,0,0,0,0,0,0,0,0,0,0,0,0,0,0,0,0,0,0,0,0,0,0,0,0,0,0,0,0,0,0,0,0,0,0,0,0,0,0,0,0,0,0,0,0,0,5,0,0,0,0,0,0,0,0,0,0,0,0,0,0,0,0,0,0,0,0,0,0,0,0,5,0,0,0,5,0,0,0,5,0,0,0,0,0,0,0,0,0,0,0,0,0,0,0,0,5,0,0,0,5,0,0,0,5,0,0,0,0,0,0,0,0,0,0,0,0,0,0,0,0,5,0,0,0,0,0,0,0,0,0,0,0,0,0,0,0,0,0,0,0,0,0,0,0,0,5,0,0,0,0,0,0,0,0,0,0,0,0,0,0,0,0,0,0,0,0,0,0,0,0,5,0,0,0,0,0,0,0,0,0,0,0,0,0,0,0,0,0,0,0,0,0,0,0,0,5,0,0,0,0,0,0,0,0,0,0,0,0,0,0,0,0,0,0,0,0,0,0,0,0,0,0,0,0,0,0,0,0,0,0,0,0,0,0,0,0,0,0,0,0,0,0,0,0,0,0,0,0,0,0,0,0,0,0,0,0,0,0,0,0,0,0,0,0,0,0,0,0,0,0,0,0,0,0,0,5,0,0,0,0,0,0,0,0,0,0,0,0,0,0,0,0,0,0,0,0,0,0,0,0,0,0,0,0,0,0,0,0,0,0,0,0,0,0,0,0,0,0,0,0,0,0,0,0,0,0,0,0,0,0,0,0,0,0,0,0,0,0,0,0,0,0,0,0,0,0,0,0,0,0,0,0,0,0,0,0,0,0,0,0,0,0,0,0,0,0,0,0,0,0,0,0,0,0,0,0,0,0,0,0,0,0,0,0,0,0,0,0,0,0,0,0,0,0,0,0,0,0,0,0,0,0,0,0,0,0,0,0,0,0,0,0,0,0,0,0,0,0,0,0,0,0,0,0,0,0,0,0,0,0,0,0,0,0,0,0,0,0,0,0,0,0,0,0,0,0,0,0,0,0,0,0,0,0,0,0,0,0,0,0,0,0,0,0,0,0,0,0,0,0,0,0,0,0,0,0,0,0,0,0,0,0,0,0,0,0,0,0,0,0,0,0,0,0,0,0,0,0,0,0,0,0,0,0,0,0,0,0,0,0,0,0,0,0,0,0,0,0,0,0,0,0,0,0,0,0,0,0,0,0,0,0,0,0,0,0,0,0,0,0,0,0,0,0,0,0,0,0,0,0,0,0,0,0,0,0,0,0,0,0,0,0,0,0,0,0,0,0,0,0,0,0,0,0,0,0,0,0,0,0,0,0,0,0,0,0,0,0,0,0,0,0,0,0,0,0,0,0,0,0,0,0,0,0,0,0,0,0,0,0,0,0,0,0,0,0,0,0,0,0,0,0,0,0,0,0,0,0,0,0,0,0,0,0,0,0,0,0,0,0,0,0,0,0,0,0,0,0,0,0,0,0,0,0,0,0,0,0,0,0,0,0,0,0,0,0,0,0,0,0,0,0,0,0,0,0,0,0,0,0,0,0,0,0,0,0,0,0,0,0,0,0,0,0,0,0,0,0,0,0,0,0,0,0,0,0,0,0,0,0,0,0,0,0,0,0,0,0,0,0,0,0,0,0,0,0,0,0,0,0,0,0,0,0,0,0,0,0,0,0,0,0,0,0,0,0,0,0,0,0,0,0,0,0,0,0,0,0,0,0,0,0,0,0,0,0,0,0,0,0,0,0,0,0,0,0,0,0,0,0,0,0,0,0,0,0,0,0,0,0,0,0,0,0,0,0,0,0,0,0,0,0,0,0,0,0,0,0,0,0,0,0,0,0,0,0,0,0,0,0,0,0,0,0,0,0,0,0,0,0,0,0,0,0,0,0,0,0,0,0,0,0,0,0,0,0,0,0,0,0,0,0,0,0,0,0,0,0,0,0,0,0,0,0,0,0,0,0,0,0,0,0,0,0,0,0,0,0,0,0,0,0,0,0,0,0,0,0,0,0,0,0,0,0,0,0,0,0,0,0,0,0,0,0,0,0,0,0,0,0,0,0,0,0,0,0,0,0],
"events":[
null,
{"id":1,"name":"EV001","note":"","pages":[{"conditions":{"actorId":1,"actorValid":false,"itemId":1,"itemValid":false,"selfSwitchCh":"A","selfSwitchValid":false,"switch1Id":1,"switch1Valid":false,"switch2Id":1,"switch2Valid":false,"variableId":1,"variableValid":false,"variableValue":0},"directionFix":false,"image":{"tileId":0,"characterName":"Actor1","direction":2,"pattern":1,"characterIndex":3},"list":[{"code":101,"indent":0,"parameters":["Actor1",3,0,2]},{"code":401,"indent":0,"parameters":["\\C[14]ItemShop:\\C[0]"]},{"code":401,"indent":0,"parameters":["Chào mừng tới shop vật phẩm."]},{"code":302,"indent":0,"parameters":[0,1,0,0,false]},{"code":605,"indent":0,"parameters":[0,2,0,0]},{"code":605,"indent":0,"parameters":[0,3,0,0]},{"code":605,"indent":0,"parameters":[0,4,0,0]},{"code":605,"indent":0,"parameters":[0,8,0,0]},{"code":605,"indent":0,"parameters":[0,9,0,0]},{"code":605,"indent":0,"parameters":[0,10,0,0]},{"code":101,"indent":0,"parameters":["Actor1",3,0,2]},{"code":401,"indent":0,"parameters":["\\C[14]ItemShop:\\C[0]"]},{"code":401,"indent":0,"parameters":["Bất kỳ khi nào rảnh quay lại nhé cục cưng."]},{"code":0,"indent":0,"parameters":[]}],"moveFrequency":3,"moveRoute":{"list":[{"code":0,"parameters":[]}],"repeat":true,"skippable":false,"wait":false},"moveSpeed":3,"moveType":0,"priorityType":1,"stepAnime":false,"through":false,"trigger":0,"walkAnime":true}],"x":15,"y":9},
{"id":2,"name":"EV002","note":"","pages":[{"conditions":{"actorId":1,"actorValid":false,"itemId":1,"itemValid":false,"selfSwitchCh":"A","selfSwitchValid":false,"switch1Id":1,"switch1Valid":false,"switch2Id":1,"switch2Valid":false,"variableId":1,"variableValid":false,"variableValue":0},"directionFix":false,"image":{"tileId":0,"characterName":"Actor3","direction":2,"pattern":1,"characterIndex":4},"list":[{"code":101,"indent":0,"parameters":["Actor3",4,0,2]},{"code":401,"indent":0,"parameters":["\\C[14]Assasin:\\C[0]"]},{"code":401,"indent":0,"parameters":["Xin chào."]},{"code":0,"indent":0,"parameters":[]}],"moveFrequency":3,"moveRoute":{"list":[{"code":0,"parameters":[]}],"repeat":true,"skippable":false,"wait":false},"moveSpeed":3,"moveType":1,"priorityType":1,"stepAnime":false,"through":false,"trigger":0,"walkAnime":true}],"x":10,"y":12},
{"id":3,"name":"EV003","note":"","pages":[{"conditions":{"actorId":1,"actorValid":false,"itemId":1,"itemValid":false,"selfSwitchCh":"A","selfSwitchValid":false,"switch1Id":1,"switch1Valid":false,"switch2Id":1,"switch2Valid":false,"variableId":1,"variableValid":false,"variableValue":0},"directionFix":false,"image":{"characterIndex":0,"characterName":"!Door1","direction":2,"pattern":1,"tileId":0},"list":[{"code":111,"indent":0,"parameters":[0,16,0]},{"code":101,"indent":1,"parameters":["",0,0,2]},{"code":401,"indent":1,"parameters":["\\C[14]\\N[1]:\\C[0]"]},{"code":401,"indent":1,"parameters":["Mình không thể quay lại đây được nữa."]},{"code":205,"indent":1,"parameters":[-1,{"list":[{"code":35,"indent":null},{"code":13,"indent":null},{"code":36,"indent":null},{"code":0}],"repeat":false,"skippable":false,"wait":true}]},{"code":505,"indent":1,"parameters":[{"code":35,"indent":null}]},{"code":505,"indent":1,"parameters":[{"code":13,"indent":null}]},{"code":505,"indent":1,"parameters":[{"code":36,"indent":null}]},{"code":0,"indent":1,"parameters":[]},{"code":411,"indent":0,"parameters":[]},{"code":250,"indent":1,"parameters":[{"name":"Open1","pan":0,"pitch":100,"volume":90}]},{"code":205,"indent":1,"parameters":[0,{"list":[{"code":17},{"code":15,"parameters":[3]},{"code":18},{"code":15,"parameters":[3]},{"code":19},{"code":37},{"code":0}],"repeat":false,"skippable":false,"wait":true}]},{"code":505,"indent":1,"parameters":[{"code":17}]},{"code":505,"indent":1,"parameters":[{"code":15,"parameters":[3]}]},{"code":505,"indent":1,"parameters":[{"code":18}]},{"code":505,"indent":1,"parameters":[{"code":15,"parameters":[3]}]},{"code":505,"indent":1,"parameters":[{"code":19}]},{"code":505,"indent":1,"parameters":[{"code":37}]},{"code":205,"indent":1,"parameters":[-1,{"list":[{"code":12},{"code":0}],"repeat":false,"skippable":true,"wait":true}]},{"code":505,"indent":1,"parameters":[{"code":12}]},{"code":250,"indent":1,"parameters":[{"name":"Move1","pan":0,"pitch":100,"volume":90}]},{"code":201,"indent":1,"parameters":[0,28,10,18,0,0]},{"code":0,"indent":1,"parameters":[]},{"code":412,"indent":0,"parameters":[]},{"code":0,"indent":0,"parameters":[]}],"moveFrequency":3,"moveRoute":{"list":[{"code":0,"parameters":[]}],"repeat":true,"skippable":false,"wait":false},"moveSpeed":3,"moveType":0,"priorityType":1,"stepAnime":false,"through":false,"trigger":1,"walkAnime":false}],"x":5,"y":10},
{"id":4,"name":"EV004","note":"","pages":[{"conditions":{"actorId":1,"actorValid":false,"itemId":1,"itemValid":false,"selfSwitchCh":"A","selfSwitchValid":false,"switch1Id":1,"switch1Valid":false,"switch2Id":1,"switch2Valid":false,"variableId":1,"variableValid":false,"variableValue":0},"directionFix":false,"image":{"tileId":0,"characterName":"Actor1","direction":4,"pattern":1,"characterIndex":2},"list":[{"code":101,"indent":0,"parameters":["Actor1",2,0,2]},{"code":401,"indent":0,"parameters":["\\C[14]ArmorShop:\\C[0]"]},{"code":401,"indent":0,"parameters":["Chào mừng tới shop giáp."]},{"code":302,"indent":0,"parameters":[2,1,0,0,false]},{"code":605,"indent":0,"parameters":[2,2,0,0]},{"code":605,"indent":0,"parameters":[2,3,0,0]},{"code":605,"indent":0,"parameters":[2,4,0,0]},{"code":605,"indent":0,"parameters":[2,5,0,0]},{"code":605,"indent":0,"parameters":[2,6,0,0]},{"code":605,"indent":0,"parameters":[2,7,0,0]},{"code":605,"indent":0,"parameters":[2,8,0,0]},{"code":605,"indent":0,"parameters":[2,9,0,0]},{"code":605,"indent":0,"parameters":[2,10,0,0]},{"code":605,"indent":0,"parameters":[2,11,0,0]},{"code":605,"indent":0,"parameters":[2,12,0,0]},{"code":101,"indent":0,"parameters":["Actor1",2,0,2]},{"code":401,"indent":0,"parameters":["\\C[14]ArmorShop:\\C[0]"]},{"code":401,"indent":0,"parameters":["Khi nào rảnh thì quay lại."]},{"code":0,"indent":0,"parameters":[]}],"moveFrequency":3,"moveRoute":{"list":[{"code":0,"parameters":[]}],"repeat":true,"skippable":false,"wait":false},"moveSpeed":3,"moveType":0,"priorityType":1,"stepAnime":false,"through":false,"trigger":0,"walkAnime":true}],"x":17,"y":16},
{"id":5,"name":"","note":"","pages":[{"conditions":{"actorId":1,"actorValid":false,"itemId":1,"itemValid":false,"selfSwitchCh":"A","selfSwitchValid":false,"switch1Id":1,"switch1Valid":false,"switch2Id":1,"switch2Valid":false,"variableId":1,"variableValid":false,"variableValue":0},"directionFix":false,"image":{"tileId":0,"characterName":"Actor3","direction":2,"pattern":1,"characterIndex":6},"list":[{"code":101,"indent":0,"parameters":["Actor3",6,0,2]},{"code":401,"indent":0,"parameters":["\\C[14]ShopWeapon:\\C[0]"]},{"code":401,"indent":0,"parameters":["Chào mừng đến shop vũ khí!"]},{"code":302,"indent":0,"parameters":[1,1,0,0,false]},{"code":605,"indent":0,"parameters":[1,2,0,0]},{"code":605,"indent":0,"parameters":[1,3,0,0]},{"code":605,"indent":0,"parameters":[1,4,0,0]},{"code":605,"indent":0,"parameters":[1,5,0,0]},{"code":605,"indent":0,"parameters":[1,6,0,0]},{"code":605,"indent":0,"parameters":[1,7,0,0]},{"code":605,"indent":0,"parameters":[1,8,0,0]},{"code":605,"indent":0,"parameters":[1,9,0,0]},{"code":605,"indent":0,"parameters":[1,10,0,0]},{"code":101,"indent":0,"parameters":["Actor3",6,0,2]},{"code":401,"indent":0,"parameters":["\\C[14]ShopWeapon:\\C[0]"]},{"code":401,"indent":0,"parameters":["Khi nào rảnh thì quay lại."]},{"code":0,"indent":0,"parameters":[]}],"moveFrequency":3,"moveRoute":{"list":[{"code":0,"parameters":[]}],"repeat":true,"skippable":false,"wait":false},"moveSpeed":3,"moveType":0,"priorityType":1,"stepAnime":false,"through":false,"trigger":0,"walkAnime":true}],"x":13,"y":6},
{"id":6,"name":"EV006","note":"","pages":[{"conditions":{"actorId":1,"actorValid":false,"itemId":1,"itemValid":false,"selfSwitchCh":"A","selfSwitchValid":false,"switch1Id":1,"switch1Valid":false,"switch2Id":1,"switch2Valid":false,"variableId":1,"variableValid":false,"variableValue":0},"directionFix":false,"image":{"characterIndex":0,"characterName":"","direction":2,"pattern":0,"tileId":0},"list":[{"code":250,"indent":0,"parameters":[{"name":"Move1","pan":0,"pitch":100,"volume":90}]},{"code":201,"indent":0,"parameters":[0,2,14,40,0,0]},{"code":0,"indent":0,"parameters":[]}],"moveFrequency":3,"moveRoute":{"list":[{"code":0,"parameters":[]}],"repeat":true,"skippable":false,"wait":false},"moveSpeed":3,"moveType":0,"priorityType":0,"stepAnime":false,"through":false,"trigger":1,"walkAnime":true}],"x":24,"y":12},
{"id":7,"name":"EV007","note":"","pages":[{"conditions":{"actorId":1,"actorValid":false,"itemId":1,"itemValid":false,"selfSwitchCh":"A","selfSwitchValid":false,"switch1Id":1,"switch1Valid":false,"switch2Id":1,"switch2Valid":false,"variableId":1,"variableValid":false,"variableValue":0},"directionFix":false,"image":{"characterIndex":0,"characterName":"","direction":2,"pattern":0,"tileId":0},"list":[{"code":250,"indent":0,"parameters":[{"name":"Move1","pan":0,"pitch":100,"volume":90}]},{"code":201,"indent":0,"parameters":[0,2,14,40,0,0]},{"code":0,"indent":0,"parameters":[]}],"moveFrequency":3,"moveRoute":{"list":[{"code":0,"parameters":[]}],"repeat":true,"skippable":false,"wait":false},"moveSpeed":3,"moveType":0,"priorityType":0,"stepAnime":false,"through":false,"trigger":1,"walkAnime":true}],"x":24,"y":13},
{"id":8,"name":"EV008","note":"","pages":[{"conditions":{"actorId":1,"actorValid":false,"itemId":1,"itemValid":false,"selfSwitchCh":"A","selfSwitchValid":false,"switch1Id":1,"switch1Valid":false,"switch2Id":1,"switch2Valid":false,"variableId":1,"variableValid":false,"variableValue":0},"directionFix":false,"image":{"characterIndex":0,"characterName":"","direction":2,"pattern":0,"tileId":0},"list":[{"code":250,"indent":0,"parameters":[{"name":"Move1","pan":0,"pitch":100,"volume":90}]},{"code":201,"indent":0,"parameters":[0,2,14,40,0,0]},{"code":0,"indent":0,"parameters":[]}],"moveFrequency":3,"moveRoute":{"list":[{"code":0,"parameters":[]}],"repeat":true,"skippable":false,"wait":false},"moveSpeed":3,"moveType":0,"priorityType":0,"stepAnime":false,"through":false,"trigger":1,"walkAnime":true}],"x":12,"y":24},
{"id":9,"name":"EV009","note":"","pages":[{"conditions":{"actorId":1,"actorValid":false,"itemId":1,"itemValid":false,"selfSwitchCh":"A","selfSwitchValid":false,"switch1Id":1,"switch1Valid":false,"switch2Id":1,"switch2Valid":false,"variableId":1,"variableValid":false,"variableValue":0},"directionFix":false,"image":{"characterIndex":0,"characterName":"","direction":2,"pattern":0,"tileId":0},"list":[{"code":250,"indent":0,"parameters":[{"name":"Move1","pan":0,"pitch":100,"volume":90}]},{"code":201,"indent":0,"parameters":[0,2,14,40,0,0]},{"code":0,"indent":0,"parameters":[]}],"moveFrequency":3,"moveRoute":{"list":[{"code":0,"parameters":[]}],"repeat":true,"skippable":false,"wait":false},"moveSpeed":3,"moveType":0,"priorityType":0,"stepAnime":false,"through":false,"trigger":1,"walkAnime":true}],"x":11,"y":24},
{"id":10,"name":"EV010","note":"","pages":[{"conditions":{"actorId":1,"actorValid":false,"itemId":1,"itemValid":false,"selfSwitchCh":"A","selfSwitchValid":false,"switch1Id":11,"switch1Valid":true,"switch2Id":1,"switch2Valid":false,"variableId":1,"variableValid":false,"variableValue":0},"directionFix":false,"image":{"characterIndex":0,"characterName":"","direction":2,"pattern":0,"tileId":0},"list":[{"code":108,"indent":0,"parameters":["N start all shared"]},{"code":101,"indent":0,"parameters":["Kora",0,0,2]},{"code":401,"indent":0,"parameters":["\\C[14]\\N[1]:\\C[0]"]},{"code":401,"indent":0,"parameters":["Không thể nào! Nơi này.."]},{"code":101,"indent":0,"parameters":["Valha",0,0,2]},{"code":401,"indent":0,"parameters":["\\C[14]\\N[2]:\\C[0]"]},{"code":401,"indent":0,"parameters":["Cô biết nơi này sao \\N[1]?"]},{"code":101,"indent":0,"parameters":["Kora",0,0,2]},{"code":401,"indent":0,"parameters":["\\C[14]\\N[1]:\\C[0]"]},{"code":401,"indent":0,"parameters":["Nghe này \\N[2] nơi này là chợ đen. Nơi mà"]},{"code":401,"indent":0,"parameters":["những kẻ buôn bán bất hợp pháp. Tôi muốn"]},{"code":401,"indent":0,"parameters":["anh giữ im lặng và đi theo tôi."]},{"code":101,"indent":0,"parameters":["Kora",0,0,2]},{"code":401,"indent":0,"parameters":["\\C[14]\\N[1]:\\C[0]"]},{"code":401,"indent":0,"parameters":["Bất kỳ hành động ngu ngốc nào cũng có thể"]},{"code":401,"indent":0,"parameters":["dẫn đến nguy hiểm cho 2 chúng ta. Vậy nên"]},{"code":401,"indent":0,"parameters":["tốt nhất anh để tôi nói chuyện cho."]},{"code":101,"indent":0,"parameters":["Valha",0,0,2]},{"code":401,"indent":0,"parameters":["\\C[14]\\N[2]:\\C[0]"]},{"code":401,"indent":0,"parameters":["...ok? Mà khoan sao cô biết về nơi này?"]},{"code":101,"indent":0,"parameters":["Kora",0,0,2]},{"code":401,"indent":0,"parameters":["\\C[14]\\N[1]:\\C[0]"]},{"code":401,"indent":0,"parameters":["Tôi là 1 sát thủ mà đồ ngốc? Mấy thứ bất"]},{"code":401,"indent":0,"parameters":["hợp pháp vậy tôi biết hết."]},{"code":123,"indent":0,"parameters":["A",0]},{"code":0,"indent":0,"parameters":[]}],"moveFrequency":3,"moveRoute":{"list":[{"code":0,"parameters":[]}],"repeat":true,"skippable":false,"wait":false},"moveSpeed":3,"moveType":0,"priorityType":0,"stepAnime":false,"through":false,"trigger":3,"walkAnime":true},{"conditions":{"actorId":1,"actorValid":false,"itemId":1,"itemValid":false,"selfSwitchCh":"A","selfSwitchValid":true,"switch1Id":1,"switch1Valid":false,"switch2Id":1,"switch2Valid":false,"variableId":1,"variableValid":false,"variableValue":0},"directionFix":false,"image":{"characterIndex":0,"characterName":"","direction":2,"pattern":0,"tileId":0},"list":[{"code":0,"indent":0,"parameters":[]}],"moveFrequency":3,"moveRoute":{"list":[{"code":0,"parameters":[]}],"repeat":true,"skippable":false,"wait":false},"moveSpeed":3,"moveType":0,"priorityType":0,"stepAnime":false,"through":false,"trigger":0,"walkAnime":true},{"conditions":{"actorId":1,"actorValid":false,"itemId":1,"itemValid":false,"selfSwitchCh":"A","selfSwitchValid":false,"switch1Id":14,"switch1Valid":true,"switch2Id":1,"switch2Valid":false,"variableId":1,"variableValid":false,"variableValue":0},"directionFix":false,"image":{"characterIndex":0,"characterName":"","direction":2,"pattern":0,"tileId":0},"list":[{"code":123,"indent":0,"parameters":["A",1]},{"code":221,"indent":0,"parameters":[]},{"code":201,"indent":0,"parameters":[0,27,21,13,4,0]},{"code":222,"indent":0,"parameters":[]},{"code":123,"indent":0,"parameters":["B",0]},{"code":0,"indent":0,"parameters":[]}],"moveFrequency":3,"moveRoute":{"list":[{"code":0,"parameters":[]}],"repeat":true,"skippable":false,"wait":false},"moveSpeed":3,"moveType":0,"priorityType":0,"stepAnime":false,"through":false,"trigger":3,"walkAnime":true},{"conditions":{"actorId":1,"actorValid":false,"itemId":1,"itemValid":false,"selfSwitchCh":"B","selfSwitchValid":true,"switch1Id":1,"switch1Valid":false,"switch2Id":1,"switch2Valid":false,"variableId":1,"variableValid":false,"variableValue":0},"directionFix":false,"image":{"characterIndex":0,"characterName":"","direction":2,"pattern":0,"tileId":0},"list":[{"code":108,"indent":0,"parameters":["N start all shared"]},{"code":101,"indent":0,"parameters":["Kora",0,0,2]},{"code":401,"indent":0,"parameters":["\\C[14]\\N[1]:\\C[0]"]},{"code":401,"indent":0,"parameters":["Được rồi. Trước khi phi vào đó 1 cách ngu"]},{"code":401,"indent":0,"parameters":["ngốc thì chúng ta phải bàn kế hoạch đã."]},{"code":101,"indent":0,"parameters":["Valha",0,0,2]},{"code":401,"indent":0,"parameters":["\\C[14]\\N[2]:\\C[0]"]},{"code":401,"indent":0,"parameters":["Nghe có vẻ hay đấy! Vậy kế hoạch là gì?"]},{"code":101,"indent":0,"parameters":["Kora",0,0,2]},{"code":401,"indent":0,"parameters":["\\C[14]\\N[1]:\\C[0]"]},{"code":401,"indent":0,"parameters":["Tôi có 1 kế hoạch sẵn rồi nhưng có chuyện"]},{"code":401,"indent":0,"parameters":["làm tôi hơi lo."]},{"code":101,"indent":0,"parameters":["Valha",0,0,2]},{"code":401,"indent":0,"parameters":["\\C[14]\\N[2]:\\C[0]"]},{"code":401,"indent":0,"parameters":["Chuyện gì vậy?"]},{"code":101,"indent":0,"parameters":["Kora",0,0,2]},{"code":401,"indent":0,"parameters":["\\C[14]\\N[1]:\\C[0]"]},{"code":401,"indent":0,"parameters":["Là anh đó. Kế hoạch chúng ta như sau."]},{"code":101,"indent":0,"parameters":["Kora",0,0,2]},{"code":401,"indent":0,"parameters":["\\C[14]\\N[1]:\\C[0]"]},{"code":401,"indent":0,"parameters":["Chúng ta sẽ cải trang và vào. Khi chúng"]},{"code":401,"indent":0,"parameters":["ta vào, anh sẽ đánh lạc hướng tên bán"]},{"code":401,"indent":0,"parameters":["nô lệ đó."]},{"code":101,"indent":0,"parameters":["Kora",0,0,2]},{"code":401,"indent":0,"parameters":["\\C[14]\\N[1]:\\C[0]"]},{"code":401,"indent":0,"parameters":["Còn tôi sẽ phát tán thuốc gây mê. Đã rõ kế"]},{"code":401,"indent":0,"parameters":["hoạch chưa?"]},{"code":101,"indent":0,"parameters":["Valha",0,0,2]},{"code":401,"indent":0,"parameters":["\\C[14]\\N[2]:\\C[0]"]},{"code":401,"indent":0,"parameters":["Khoan đã! Làm sao tôi đánh lạc hướng hắn"]},{"code":401,"indent":0,"parameters":["được? Tôi có biết gì về chợ đen đâu."]},{"code":101,"indent":0,"parameters":["Kora",0,0,2]},{"code":401,"indent":0,"parameters":["\\C[14]\\N[1]:\\C[0]"]},{"code":401,"indent":0,"parameters":["Đó là thứ tôi lo lắng đó. Anh hãy có tỏ ra"]},{"code":401,"indent":0,"parameters":["vẻ lạnh lùng và nói chuyện về \\G và hứng "]},{"code":401,"indent":0,"parameters":["thú với việc mua nô lệ bla bla vào."]},{"code":101,"indent":0,"parameters":["Valha",0,0,2]},{"code":401,"indent":0,"parameters":["\\C[14]\\N[2]:\\C[0]"]},{"code":401,"indent":0,"parameters":["Được rồi... Tôi sẽ cố."]},{"code":101,"indent":0,"parameters":["Kora",0,0,2]},{"code":401,"indent":0,"parameters":["\\C[14]\\N[1]:\\C[0]"]},{"code":401,"indent":0,"parameters":["Được rồi. Theo kế hoạch nhé! Giờ chúng ta"]},{"code":401,"indent":0,"parameters":["phải cải trang 1 chút."]},{"code":221,"indent":0,"parameters":[]},{"code":322,"indent":0,"parameters":[1,"Kora",1,"Kora",1,"Kora2"]},{"code":322,"indent":0,"parameters":[2,"Valha",1,"Valha",1,"Valha"]},{"code":222,"indent":0,"parameters":[]},{"code":101,"indent":0,"parameters":["Kora",1,0,2]},{"code":401,"indent":0,"parameters":["\\C[14]\\N[1]:\\C[0]"]},{"code":401,"indent":0,"parameters":["Hoàn hảo. Đi thôi."]},{"code":101,"indent":0,"parameters":["Valha",1,0,2]},{"code":401,"indent":0,"parameters":["\\C[14]\\N[2]:\\C[0]"]},{"code":401,"indent":0,"parameters":["À mà \\N[1] cô còn bộ khác không?"]},{"code":101,"indent":0,"parameters":["Kora",1,0,2]},{"code":401,"indent":0,"parameters":["\\C[14]\\N[1]:\\C[0]"]},{"code":401,"indent":0,"parameters":["Trời gì nữa?"]},{"code":101,"indent":0,"parameters":["Valha",1,0,2]},{"code":401,"indent":0,"parameters":["\\C[14]\\N[2]:\\C[0]"]},{"code":401,"indent":0,"parameters":["Tôi không có ý gì đâu nhưng... Tôi mặc bộ"]},{"code":401,"indent":0,"parameters":["này nhìn như con gái ý..."]},{"code":101,"indent":0,"parameters":["Kora",1,0,2]},{"code":401,"indent":0,"parameters":["\\C[14]\\N[1]:\\C[0]"]},{"code":401,"indent":0,"parameters":["Uk thì nó là của con gái mà. Đây là bộ hợp"]},{"code":401,"indent":0,"parameters":["nhất với anh rồi đấy."]},{"code":101,"indent":0,"parameters":["Valha",1,0,2]},{"code":401,"indent":0,"parameters":["\\C[14]\\N[2]:\\C[0]"]},{"code":401,"indent":0,"parameters":["Mà chúng ta đeo cái thứ này trên mặt có"]},{"code":401,"indent":0,"parameters":["bị nghi ngờ không nhỉ?"]},{"code":101,"indent":0,"parameters":["Kora",1,0,2]},{"code":401,"indent":0,"parameters":["\\C[14]\\N[1]:\\C[0]"]},{"code":401,"indent":0,"parameters":["Đừng lo về chuyện đó. Bộ mà chúng ta đang"]},{"code":401,"indent":0,"parameters":["mặc là của tầng lớp thượng lưu. Việc những"]},{"code":401,"indent":0,"parameters":["kẻ thượng lưu vào chợ đen luôn đeo thứ này"]},{"code":101,"indent":0,"parameters":["Kora",1,0,2]},{"code":401,"indent":0,"parameters":["\\C[14]\\N[1]:\\C[0]"]},{"code":401,"indent":0,"parameters":["để ẩn mình. Không muốn bị lộ danh tính."]},{"code":101,"indent":0,"parameters":["Kora",1,0,2]},{"code":401,"indent":0,"parameters":["\\C[14]\\N[1]:\\C[0]"]},{"code":401,"indent":0,"parameters":["Nào nhét thứ này vào mũi."]},{"code":101,"indent":0,"parameters":["Valha",1,0,2]},{"code":401,"indent":0,"parameters":["\\C[14]\\N[2]:\\C[0]"]},{"code":401,"indent":0,"parameters":["Nó để làm gì vậy?"]},{"code":101,"indent":0,"parameters":["Kora",1,0,2]},{"code":401,"indent":0,"parameters":["\\C[14]\\N[1]:\\C[0]"]},{"code":401,"indent":0,"parameters":["Thứ này sẽ kháng lại thuốc gây mê để"]},{"code":401,"indent":0,"parameters":["chúng ta có thời gian trốn thoát."]},{"code":101,"indent":0,"parameters":["Valha",1,0,2]},{"code":401,"indent":0,"parameters":["\\C[14]\\N[2]:\\C[0]"]},{"code":401,"indent":0,"parameters":["Tuyệt. Mà sao cô có bộ đồ này vậy? Mấy bộ"]},{"code":401,"indent":0,"parameters":["đồ của tầng lớp thượng lưu đắt lắm mà."]},{"code":101,"indent":0,"parameters":["Kora",1,0,2]},{"code":401,"indent":0,"parameters":["\\C[14]\\N[1]:\\C[0]"]},{"code":401,"indent":0,"parameters":["À uk thì..."]},{"code":101,"indent":0,"parameters":["Kora",1,0,2]},{"code":401,"indent":0,"parameters":["\\C[14]\\N[1]:\\C[0]"]},{"code":401,"indent":0,"parameters":["Tôi từng làm nhiệm vụ cho 1 người giới"]},{"code":401,"indent":0,"parameters":["thượng lưu và họ tặng tôi mấy bộ đồ này."]},{"code":123,"indent":0,"parameters":["B",1]},{"code":123,"indent":0,"parameters":["C",0]},{"code":0,"indent":0,"parameters":[]}],"moveFrequency":3,"moveRoute":{"list":[{"code":0,"parameters":[]}],"repeat":true,"skippable":false,"wait":false},"moveSpeed":3,"moveType":0,"priorityType":0,"stepAnime":false,"through":false,"trigger":3,"walkAnime":true},{"conditions":{"actorId":1,"actorValid":false,"itemId":1,"itemValid":false,"selfSwitchCh":"C","selfSwitchValid":true,"switch1Id":1,"switch1Valid":false,"switch2Id":1,"switch2Valid":false,"variableId":1,"variableValid":false,"variableValue":0},"directionFix":false,"image":{"characterIndex":0,"characterName":"","direction":2,"pattern":0,"tileId":0},"list":[{"code":0,"indent":0,"parameters":[]}],"moveFrequency":3,"moveRoute":{"list":[{"code":0,"parameters":[]}],"repeat":true,"skippable":false,"wait":false},"moveSpeed":3,"moveType":0,"priorityType":0,"stepAnime":false,"through":false,"trigger":0,"walkAnime":true}],"x":24,"y":9},
{"id":11,"name":"EV011","note":"","pages":[{"conditions":{"actorId":1,"actorValid":false,"itemId":1,"itemValid":false,"selfSwitchCh":"A","selfSwitchValid":false,"switch1Id":13,"switch1Valid":true,"switch2Id":1,"switch2Valid":false,"variableId":1,"variableValid":false,"variableValue":0},"directionFix":false,"image":{"characterIndex":0,"characterName":"","direction":2,"pattern":0,"tileId":0},"list":[{"code":221,"indent":0,"parameters":[]},{"code":129,"indent":0,"parameters":[2,1,false]},{"code":201,"indent":0,"parameters":[0,27,5,20,2,0]},{"code":222,"indent":0,"parameters":[]},{"code":123,"indent":0,"parameters":["A",0]},{"code":0,"indent":0,"parameters":[]}],"moveFrequency":3,"moveRoute":{"list":[{"code":0,"parameters":[]}],"repeat":true,"skippable":false,"wait":false},"moveSpeed":3,"moveType":0,"priorityType":0,"stepAnime":false,"through":false,"trigger":3,"walkAnime":true},{"conditions":{"actorId":1,"actorValid":false,"itemId":1,"itemValid":false,"selfSwitchCh":"A","selfSwitchValid":true,"switch1Id":1,"switch1Valid":false,"switch2Id":1,"switch2Valid":false,"variableId":1,"variableValid":false,"variableValue":0},"directionFix":false,"image":{"tileId":0,"characterName":"Valha","direction":8,"pattern":1,"characterIndex":0},"list":[{"code":108,"indent":0,"parameters":["N start all shared"]},{"code":101,"indent":0,"parameters":["Valha",0,0,2]},{"code":401,"indent":0,"parameters":["\\C[14]\\N[2]:\\C[0]"]},{"code":401,"indent":0,"parameters":["\\N[1]! Tôi đã quyết định rồi. Tôi sẽ cứu"]},{"code":401,"indent":0,"parameters":["họ."]},{"code":213,"indent":0,"parameters":[-1,5,true]},{"code":101,"indent":0,"parameters":["Kora",0,0,2]},{"code":401,"indent":0,"parameters":["\\C[14]\\N[1]:\\C[0]"]},{"code":401,"indent":0,"parameters":["Nghe này đồ ngốc. Đây không phải trò chơi"]},{"code":401,"indent":0,"parameters":["mà chúng ta có thể chơi đâu."]},{"code":101,"indent":0,"parameters":["Kora",0,0,2]},{"code":401,"indent":0,"parameters":["\\C[14]\\N[1]:\\C[0]"]},{"code":401,"indent":0,"parameters":["Họ toàn những người có kỹ năng chiến đấu"]},{"code":401,"indent":0,"parameters":["đấy và lại. Chắc chắn có 1 tên khá giả nào"]},{"code":401,"indent":0,"parameters":["đó nằm vùng ở đây."]},{"code":101,"indent":0,"parameters":["Kora",0,0,2]},{"code":401,"indent":0,"parameters":["\\C[14]\\N[1]:\\C[0]"]},{"code":401,"indent":0,"parameters":["Sống với thời đại này đi \\N[2]. Không phải"]},{"code":401,"indent":0,"parameters":["cứ nghĩa hiệp là nhận được may mắn đâu."]},{"code":101,"indent":0,"parameters":["Kora",0,0,2]},{"code":401,"indent":0,"parameters":["\\C[14]\\N[1]:\\C[0]"]},{"code":401,"indent":0,"parameters":["Đúng là anh là hiệp sĩ. Tôi tin điều đó"]},{"code":401,"indent":0,"parameters":["nhưng dù vậy nếu có 1 kẻ có quyền lực nhắm"]},{"code":401,"indent":0,"parameters":["đến thì anh có thoát được không?"]},{"code":101,"indent":0,"parameters":["Valha",0,0,2]},{"code":401,"indent":0,"parameters":["\\C[14]\\N[2]:\\C[0]"]},{"code":401,"indent":0,"parameters":["\\N[1]! Tôi đã quyết định rồi. Dù cô có"]},{"code":401,"indent":0,"parameters":["ngăn cản tôi thì tôi vẫn sẽ cứu họ và tôi"]},{"code":401,"indent":0,"parameters":["cũng không bắt cô tham gia vụ này."]},{"code":101,"indent":0,"parameters":["Kora",0,0,2]},{"code":401,"indent":0,"parameters":["\\C[14]\\N[1]:\\C[0]"]},{"code":401,"indent":0,"parameters":["Anh đúng là 1 thằng khốn nạn khó ưa. Thôi"]},{"code":401,"indent":0,"parameters":["được rồi. Tôi sẽ tham gia."]},{"code":213,"indent":0,"parameters":[0,1,true]},{"code":101,"indent":0,"parameters":["Valha",0,0,2]},{"code":401,"indent":0,"parameters":["\\C[14]\\N[2]:\\C[0]"]},{"code":401,"indent":0,"parameters":["\\N[1] cô..."]},{"code":101,"indent":0,"parameters":["Kora",0,0,2]},{"code":401,"indent":0,"parameters":["\\C[14]\\N[1]:\\C[0]"]},{"code":401,"indent":0,"parameters":["Nhưng chúng ta sẽ không cứ thế phi vào đâu."]},{"code":401,"indent":0,"parameters":["Quay lại nhà tôi thôi."]},{"code":129,"indent":0,"parameters":[2,0,false]},{"code":123,"indent":0,"parameters":["A",1]},{"code":123,"indent":0,"parameters":["B",0]},{"code":0,"indent":0,"parameters":[]}],"moveFrequency":3,"moveRoute":{"list":[{"code":0,"parameters":[]}],"repeat":true,"skippable":false,"wait":false},"moveSpeed":3,"moveType":0,"priorityType":1,"stepAnime":false,"through":false,"trigger":3,"walkAnime":true},{"conditions":{"actorId":1,"actorValid":false,"itemId":1,"itemValid":false,"selfSwitchCh":"B","selfSwitchValid":true,"switch1Id":1,"switch1Valid":false,"switch2Id":1,"switch2Valid":false,"variableId":1,"variableValid":false,"variableValue":0},"directionFix":false,"image":{"characterIndex":0,"characterName":"","direction":2,"pattern":0,"tileId":0},"list":[{"code":0,"indent":0,"parameters":[]}],"moveFrequency":3,"moveRoute":{"list":[{"code":0,"parameters":[]}],"repeat":true,"skippable":false,"wait":false},"moveSpeed":3,"moveType":0,"priorityType":0,"stepAnime":false,"through":false,"trigger":0,"walkAnime":true}],"x":5,"y":22},
{"id":12,"name":"EV012","note":"","pages":[{"conditions":{"actorId":1,"actorValid":false,"itemId":1,"itemValid":false,"selfSwitchCh":"A","selfSwitchValid":false,"switch1Id":1,"switch1Valid":false,"switch2Id":1,"switch2Valid":false,"variableId":1,"variableValid":false,"variableValue":0},"directionFix":true,"image":{"characterIndex":0,"characterName":"!Chest","direction":2,"pattern":1,"tileId":0},"list":[{"code":250,"indent":0,"parameters":[{"name":"Chest1","pan":0,"pitch":100,"volume":90}]},{"code":205,"indent":0,"parameters":[0,{"list":[{"code":36},{"code":17},{"code":15,"parameters":[3]},{"code":18},{"code":15,"parameters":[3]},{"code":0}],"repeat":false,"skippable":false,"wait":true}]},{"code":505,"indent":0,"parameters":[{"code":36}]},{"code":505,"indent":0,"parameters":[{"code":17}]},{"code":505,"indent":0,"parameters":[{"code":15,"parameters":[3]}]},{"code":505,"indent":0,"parameters":[{"code":18}]},{"code":505,"indent":0,"parameters":[{"code":15,"parameters":[3]}]},{"code":123,"indent":0,"parameters":["A",0]},{"code":125,"indent":0,"parameters":[0,0,300]},{"code":101,"indent":0,"parameters":["",0,0,2]},{"code":401,"indent":0,"parameters":["Nhận được 300 \\G"]},{"code":0,"indent":0,"parameters":[]}],"moveFrequency":3,"moveRoute":{"list":[{"code":0,"parameters":[]}],"repeat":true,"skippable":false,"wait":false},"moveSpeed":3,"moveType":0,"priorityType":1,"stepAnime":false,"through":false,"trigger":0,"walkAnime":false},{"conditions":{"actorId":1,"actorValid":false,"itemId":1,"itemValid":false,"selfSwitchCh":"A","selfSwitchValid":true,"switch1Id":1,"switch1Valid":false,"switch2Id":1,"switch2Valid":false,"variableId":1,"variableValid":false,"variableValue":0},"directionFix":true,"image":{"characterIndex":0,"characterName":"!Chest","direction":8,"pattern":1,"tileId":0},"list":[{"code":0,"indent":0,"parameters":[]}],"moveFrequency":3,"moveRoute":{"list":[{"code":0,"parameters":[]}],"repeat":true,"skippable":false,"wait":false},"moveSpeed":3,"moveType":0,"priorityType":1,"stepAnime":false,"through":false,"trigger":0,"walkAnime":false}],"x":1,"y":8}
]
}