{
"autoplayBgm":false,"autoplayBgs":false,"battleback1Name":"","battleback2Name":"","bgm":{"name":"","pan":0,"pitch":100,"volume":90},"bgs":{"name":"","pan":0,"pitch":100,"volume":90},"disableDashing":false,"displayName":"","encounterList":[],"encounterStep":30,"height":30,"note":"","parallaxLoopX":false,"parallaxLoopY":false,"parallaxName":"","parallaxShow":true,"parallaxSx":0,"parallaxSy":0,"scrollType":0,"specifyBattleback":false,"tilesetId":3,"width":15,
"data":[6804,6828,6828,6828,6828,6828,6828,6828,6828,6828,6828,6828,6828,6828,6808,6824,7186,7186,7186,7186,7186,7186,7186,7186,7186,7186,7186,7186,7186,6816,6824,7184,7184,7184,7184,7184,7184,7184,7184,7184,7184,7184,7184,7184,6816,6824,7192,7192,7192,7192,7192,7192,7192,7192,7192,7192,7192,7192,7192,6816,6824,3234,3220,3220,3220,3220,3220,3220,3220,3220,3220,3220,3220,3236,6816,6824,3216,3204,3228,3208,3200,3200,3200,3200,3200,3204,3228,3208,3224,6816,6824,3218,3238,4106,3240,3212,3228,3228,3228,3212,3238,4106,3240,3225,6816,6824,3232,4107,4079,4109,3232,4098,4084,4100,3232,4107,4079,4109,3232,6816,6824,3217,3236,4108,3234,3226,4080,4064,4088,3217,3236,4108,3234,3226,6816,6824,3240,3230,3233,3209,3224,4104,4076,4102,3216,3206,3233,3229,3238,6816,6806,6833,6833,6845,3216,3202,3236,4096,3234,3201,3224,6843,6833,6833,6809,6824,7194,7194,7198,3240,3228,3238,4096,3240,3228,3238,7195,7194,7194,6816,6824,4099,4097,4097,4097,4087,4097,4095,4097,4087,4097,4097,4097,4101,6816,6824,4096,3234,3220,3236,4096,3234,3220,3236,4096,3234,3220,3236,4096,6816,6824,4096,3216,3200,3224,4096,3216,3200,3224,4096,3216,3200,3224,4096,6816,6824,4096,3216,3200,3224,4096,3216,3200,3224,4096,3216,3200,3224,4096,6816,6824,4096,3216,3200,3224,4096,3216,3200,3224,4096,3216,3200,3224,4096,6816,6824,4096,3216,3200,3224,4096,3216,3200,3224,4096,3216,3200,3224,4096,6816,6824,4096,3216,3200,3224,4096,3216,3200,3224,4096,3216,3200,3224,4096,6816,6824,4096,3216,3200,3224,4096,3216,3200,3224,4096,3216,3200,3224,4096,6816,6824,4096,3216,3200,3224,4096,3216,3200,3224,4096,3216,3200,3224,4096,6816,6824,4096,3216,3200,3224,4096,3216,3200,3224,4096,3216,3200,3224,4096,6816,6824,4108,3240,3228,3238,4108,3216,3200,3224,4108,3240,3228,3238,4108,6816,6830,6833,6833,6833,6833,6837,3216,3200,3224,6835,6833,6833,6833,6833,6829,1536,1536,1536,1536,1536,6832,3216,3200,3224,6832,1536,1536,1536,1536,1536,1536,1536,1536,1536,1536,6832,3216,3200,3224,6832,1536,1536,1536,1536,1536,1536,1536,1536,1536,1536,6832,3216,3200,3224,6832,1536,1536,1536,1536,1536,1536,1536,1536,1536,1536,6832,3216,3200,3224,6832,1536,1536,1536,1536,1536,1536,1536,1536,1536,1536,6832,3216,3200,3224,6832,1536,1536,1536,1536,1536,1536,1536,1536,1536,1536,6832,3216,3200,3224,6832,1536,1536,1536,1536,1536,0,0,0,0,0,0,0,0,0,0,0,0,0,0,0,0,0,0,0,0,0,0,0,0,0,0,0,0,0,0,0,0,0,0,0,0,0,0,0,0,0,0,0,0,0,0,0,0,0,0,0,0,0,0,0,0,0,0,0,0,0,4347,4337,4337,4337,4337,4349,0,4347,4337,4337,4337,4337,4349,0,0,0,0,0,0,0,0,0,0,0,0,0,0,0,0,0,0,0,0,0,0,0,0,0,0,0,0,0,0,0,0,0,0,0,0,0,0,0,0,0,0,0,0,0,0,0,0,0,0,0,0,0,0,0,0,0,0,0,0,0,0,0,0,0,0,0,0,0,0,0,0,0,0,0,0,0,0,0,0,0,0,0,0,0,0,0,0,0,0,0,0,0,0,0,0,0,0,0,0,0,0,0,0,0,0,0,0,0,0,0,0,0,0,0,0,0,0,0,0,0,0,0,0,0,0,0,0,0,0,0,0,0,0,0,0,0,0,3195,3185,3197,0,3195,3185,3197,0,3195,3185,3197,0,0,0,0,0,0,0,0,0,0,0,0,0,0,0,0,0,0,0,0,0,0,0,0,0,0,0,0,0,0,0,0,0,0,3195,3185,3197,0,3195,3185,3197,0,3195,3185,3197,0,0,0,0,0,0,0,0,0,0,0,0,0,0,0,0,0,0,0,0,0,0,0,0,0,0,0,0,0,0,0,0,0,0,3195,3185,3197,0,3195,3185,3197,0,3195,3185,3197,0,0,0,0,0,0,0,0,0,0,0,0,0,0,0,0,0,0,0,0,0,0,0,0,0,0,0,0,0,0,0,0,0,0,0,0,0,0,0,0,0,0,0,0,0,0,0,0,0,0,0,0,0,0,0,0,0,0,0,0,0,0,0,0,0,0,0,0,0,0,0,0,0,0,0,0,0,0,0,0,0,0,0,0,0,0,0,0,0,0,0,0,0,0,0,0,0,0,0,0,0,0,0,0,0,0,0,0,0,0,0,0,0,0,0,0,0,0,0,0,0,0,0,0,0,0,0,0,0,0,0,0,0,0,0,0,0,0,0,0,0,0,0,0,0,0,0,0,0,0,0,0,0,0,0,0,0,0,0,0,0,0,0,0,0,0,0,0,0,0,0,0,0,0,0,0,0,0,0,0,0,0,0,0,0,0,0,0,0,0,0,0,0,0,0,0,0,0,0,0,0,0,0,0,0,0,0,0,0,0,0,0,0,0,0,0,0,0,0,0,0,0,0,0,0,0,0,0,0,0,0,0,0,0,0,0,0,0,0,0,0,0,0,0,0,0,0,0,0,0,0,0,0,0,0,0,0,0,0,0,0,0,0,0,0,0,0,0,0,0,0,0,0,0,0,0,0,0,0,0,0,0,0,0,0,0,0,0,0,0,0,0,0,0,0,0,0,0,0,0,0,0,0,0,0,0,0,0,0,0,0,0,0,0,0,0,0,0,0,0,0,0,0,0,0,0,0,0,0,0,0,0,0,0,0,0,0,0,0,0,0,0,0,0,0,0,0,0,0,0,0,0,0,0,0,0,0,0,0,0,0,0,0,0,0,0,0,0,0,0,0,0,0,0,0,0,0,0,0,0,0,0,0,0,0,0,0,0,0,0,0,0,0,0,0,0,0,0,0,0,0,0,0,0,0,0,0,0,0,0,0,0,0,0,0,0,0,0,0,0,0,0,0,0,0,0,0,0,0,0,0,0,0,0,0,0,0,0,0,0,0,0,0,0,0,0,0,0,0,0,0,0,0,0,0,0,0,0,0,0,0,0,0,0,0,0,0,0,0,0,0,0,0,0,0,0,0,0,0,0,0,0,0,0,0,0,0,0,0,0,0,0,0,0,0,0,0,0,0,0,0,0,0,0,0,0,0,0,0,0,0,0,0,0,0,0,0,0,0,0,0,0,0,0,0,0,0,0,0,0,0,0,0,0,0,0,0,0,0,0,0,0,0,0,0,0,0,0,0,0,0,0,0,0,0,0,0,0,0,0,0,0,0,0,0,0,0,0,0,0,0,0,0,0,0,0,0,0,0,0,0,0,0,0,0,0,0,0,0,0,0,0,0,0,0,0,0,0,0,0,0,0,0,0,0,0,0,0,0,0,0,0,0,0,0,0,0,0,0,0,0,0,0,0,0,0,0,0,0,0,0,0,0,0,0,0,0,0,0,424,0,0,0,0,0,0,0,0,0,292,316,339,338,343,432,343,338,339,316,289,0,0,0,0,0,0,0,0,0,0,0,0,0,0,0,0,0,0,0,0,427,0,0,0,0,0,0,0,427,0,0,0,0,0,0,435,0,0,440,443,442,0,0,435,0,0,0,0,0,0,0,0,0,448,451,450,0,0,0,0,0,0,0,0,0,0,0,0,0,0,0,0,0,0,0,0,0,0,0,0,0,425,0,0,0,0,0,426,0,0,0,0,0,0,0,0,433,0,0,0,0,0,434,0,0,0,0,0,0,0,0,0,0,0,0,0,0,0,0,0,0,0,0,0,0,0,0,0,0,0,0,0,0,0,0,0,0,0,0,0,0,0,0,0,0,0,0,0,0,0,0,0,0,0,105,105,105,0,105,105,105,0,105,105,105,0,0,0,0,0,0,0,0,0,0,0,0,0,0,0,0,0,0,0,0,0,0,0,0,0,0,0,0,0,0,0,0,0,0,105,105,105,0,105,105,105,0,105,105,105,0,0,0,0,0,0,0,0,0,0,0,0,0,0,0,0,0,0,0,0,0,0,0,0,0,0,0,0,0,0,0,0,0,0,105,105,105,0,105,105,105,0,105,105,105,0,0,0,0,0,0,0,0,0,0,0,0,0,0,0,0,0,0,0,0,0,0,0,0,0,0,0,0,0,0,0,0,0,0,0,0,0,0,0,0,0,0,0,0,0,0,0,0,0,0,0,0,0,0,0,0,0,0,0,0,0,0,0,0,0,0,0,0,0,0,0,0,0,0,0,0,0,0,0,0,0,0,0,0,0,0,0,0,0,0,0,0,0,0,0,0,0,0,0,0,0,0,0,0,0,0,0,0,0,0,0,0,0,0,0,0,0,0,0,0,0,0,0,0,0,0,0,0,0,0,0,0,0,0,0,0,0,0,0,0,0,0,0,0,0,0,0,0,0,0,0,0,0,0,0,0,0,0,0,0,0,0,0,0,0,0,0,0,0,0,0,0,0,0,0,0,0,0,0,0,0,0,0,5,0,0,0,0,0,0,0,0,0,0,0,0,0,0,5,0,0,0,0,0,0,0,0,0,0,0,0,0,0,5,0,0,0,0,0,0,0,0,0,0,0,0,0,0,5,0,0,0,0,0,0,0,0,0,0,0,0,0,0,5,0,0,0,0,0,0,0,0,0,0,0,0,0,0,5,0,0,0,0,0,0,0,0,0,0,0,0,0,0,0,0,0,0,0,0,0,0,0,0,0,0,0,0,0,0,0,0,5,0,0,0,0,0,0,0,0,0,0,0,5,0,0,0,0,0,0,0,0,0,0,0,0,0,0,5,0,0,0,0,0,0,0,0,0,0,0,0,0,0,5,0,0,0,0,0,0,0,0,0,0,0,0,0,0,5,0,0,0,0,0,0,0,0,0,0,0,0,0,0,5,0,0,0,0,0,0,0,0,0,0,0,0,0,0,5,0,0,0,0,0,0,0,0,0,0,0,0,0,0,5,0,0,0,0,0,0,0,0,0,0,0,0,0,0,5,0,0,0,0,0,0,0,0,0,0,0,0,0,0,5,0,0,0,0,0,0,0,0,0,0,0,0,0,0,5,0,0,0,0,0,0,0,0,0,0,0,0,0,0,5,0,0,0,0,0,0,0,0,0,0,0,0,0,0,0,0,0,0,0,0,0,0,0,0,0,0,0,0,0,0,0,0,0,0,5,0,0,0,5,0,0,0,0,0,0,0,0,0,0,5,0,0,0,5,0,0,0,0,0,0,0,0,0,0,5,0,0,0,5,0,0,0,0,0,0,0,0,0,0,5,0,0,0,5,0,0,0,0,0,0,0,0,0,0,5,0,0,0,5,0,0,0,0,0,0,0,0,0,0,5,0,0,0,5,0,0,0,0,0,0,0,0,0,0,0,0,0,0,0,0,0,0,0,0,0,0,0,0,0,0,0,0,0,0,0,0,0,0,0,0,0,0,0,0,0,0,0,0,0,0,0,0,0,0,0,0,0,0,0,0,0,0,0,0,0,0,0,0,0,0,0,0,0,0,0,0,0,0,0,0,0,0,0,0,0,0,0,0,0,0,0,0,0,0,0,0,0,0,0,0,0,0,0,0,0,0,0,0,0,0,0,0,0,0,0,0,0,0,0,0,0,0,0,0,0,0,0,0,0,0,0,0,0,0,0,0,0,0,0,0,0,0,0,0,0,0,0,0,0,0,0,0,0,0,0,0,0,0,0,0,0,0,0,0,0,0,0,0,0,0,0,0,0,0,0,0,0,0,0,0,0,0,0,0,0,0,0,0,0,0,0,0,0,0,0,0,0,0,0,0,0,0,0,0,0,0,0,0,0,0,0,0,0,0,0,0,0,0,0,0,0,0,0,0,0,0,0,0,0,0,0,0,0,0,0,0,0,0,0,0,0,0,0,0,0,0,0,0,0,0,0,0,0,0,0,0,0,0,0,0,0,0,0,0,0,0,0,0,0,0,0,0,0,0,0,0,0,0,0,0,0,0,0,0,0,0,0,0,0,0,0,0,0,0,0,0,0,0,0,0,0,0,0,0,0,0,0,0,0,0,0,0,0,0,0,0,0,0,0,0,0,0,0,0,0,0,0,0,0,0,0,0,0,0,0,0,0,0,0,0,0,0,0,0,0,0,0,0,0,0,0,0,0,0,0,0,0,0,0,0,0,0,0,0,0,0,0,0,0,0,0,0,0,0,0,0,0,0,0,0,0,0,0,0,0,0,0,0,0,0,0,0,0,0,0,0,0,0,0,0,0,0,0,0,0,0,0,0,0,0,0,0,0,0,0,0,0,0,0,0,0,0,0,0,0,0,0,0,0,0,0,0,0,0,0,0,0,0,0,0,0,0,0,0,0,0,0,0,0,0,0,0,0,0,0,0,0,0],
"events":[
null,
{"id":1,"name":"EV001","note":"","pages":[{"conditions":{"actorId":1,"actorValid":false,"itemId":1,"itemValid":false,"selfSwitchCh":"A","selfSwitchValid":false,"switch1Id":61,"switch1Valid":true,"switch2Id":1,"switch2Valid":false,"variableId":1,"variableValid":false,"variableValue":0},"directionFix":false,"image":{"tileId":0,"characterName":"KingdomWarrior","direction":2,"pattern":1,"characterIndex":3},"list":[{"code":108,"indent":0,"parameters":["N start all shared"]},{"code":213,"indent":0,"parameters":[0,1,true]},{"code":101,"indent":0,"parameters":["KingdomWarrior",3,0,2]},{"code":401,"indent":0,"parameters":["\\C[14]\\N[30]:\\C[0]"]},{"code":401,"indent":0,"parameters":["\\N[10]? Cơn gió nào đưa anh tới đây vậy?"]},{"code":101,"indent":0,"parameters":["Waldron",0,0,2]},{"code":401,"indent":0,"parameters":["\\C[14]\\N[10]:\\C[0]"]},{"code":401,"indent":0,"parameters":["Ờm \\N[30]. Tôi cần cô giúp 1 số việc."]},{"code":101,"indent":0,"parameters":["KingdomWarrior",3,0,2]},{"code":401,"indent":0,"parameters":["\\C[14]\\N[30]:\\C[0]"]},{"code":401,"indent":0,"parameters":["Tôi sao? Thật ư? Được chiến binh tinh nhuệ"]},{"code":401,"indent":0,"parameters":["nhờ giúp sao! "]},{"code":213,"indent":0,"parameters":[0,3,true]},{"code":213,"indent":0,"parameters":[-1,7,true]},{"code":101,"indent":0,"parameters":["Kora",0,0,2]},{"code":401,"indent":0,"parameters":["\\C[14]\\N[1]:\\C[0]"]},{"code":401,"indent":0,"parameters":["Anh có thể bắt đầu luôn được không \\N[10]?"]},{"code":101,"indent":0,"parameters":["KingdomWarrior",3,0,2]},{"code":401,"indent":0,"parameters":["\\C[14]\\N[30]:\\C[0]"]},{"code":401,"indent":0,"parameters":["Ủa họ là ai vậy \\N[10]?"]},{"code":101,"indent":0,"parameters":["Waldron",0,0,2]},{"code":401,"indent":0,"parameters":["\\C[14]\\N[10]:\\C[0]"]},{"code":401,"indent":0,"parameters":["À! Họ là \\| đồng đội của tôi. Đó là \\N[1]"]},{"code":401,"indent":0,"parameters":["còn kia là \\N[3]."]},{"code":101,"indent":0,"parameters":["KingdomWarrior",3,0,2]},{"code":401,"indent":0,"parameters":["\\C[14]\\N[30]:\\C[0]"]},{"code":401,"indent":0,"parameters":["À ra vậy! Chào mọi người! Tôi tên là "]},{"code":401,"indent":0,"parameters":["\\N[30] rất vui được gặp mọi người."]},{"code":101,"indent":0,"parameters":["Kora",0,0,2]},{"code":401,"indent":0,"parameters":["\\C[14]\\N[1]:\\C[0]"]},{"code":401,"indent":0,"parameters":["Sup."]},{"code":101,"indent":0,"parameters":["Theri",0,0,2]},{"code":401,"indent":0,"parameters":["\\C[14]\\N[3]:\\C[0]"]},{"code":401,"indent":0,"parameters":["Chào cô."]},{"code":101,"indent":0,"parameters":["KingdomWarrior",3,0,2]},{"code":401,"indent":0,"parameters":["\\C[14]\\N[30]:\\C[0]"]},{"code":401,"indent":0,"parameters":["Vậy \\N[10] đồng đội anh là 2 người phụ nữ "]},{"code":401,"indent":0,"parameters":["à? Công nhận anh biết thu hút các người phụ"]},{"code":401,"indent":0,"parameters":["nữ nhỉ?"]},{"code":101,"indent":0,"parameters":["Waldron",0,0,2]},{"code":401,"indent":0,"parameters":["\\C[14]\\N[10]:\\C[0]"]},{"code":401,"indent":0,"parameters":["À không chỉ là tôi tình cờ gặp họ thôi với"]},{"code":401,"indent":0,"parameters":["chúng tôi cũng đang nhờ cô tìm 1 người cũng"]},{"code":401,"indent":0,"parameters":["là đồng đội của bọn tôi."]},{"code":213,"indent":0,"parameters":[0,6,true]},{"code":101,"indent":0,"parameters":["KingdomWarrior",3,0,2]},{"code":401,"indent":0,"parameters":["\\C[14]\\N[30]:\\C[0]"]},{"code":401,"indent":0,"parameters":["À vậy à? Vậy tôi có thể giúp anh."]},{"code":205,"indent":0,"parameters":[0,{"list":[{"code":16,"indent":null},{"code":0}],"repeat":false,"skippable":true,"wait":true}]},{"code":505,"indent":0,"parameters":[{"code":16,"indent":null}]},{"code":213,"indent":0,"parameters":[0,8,true]},{"code":101,"indent":0,"parameters":["KingdomWarrior",3,0,2]},{"code":401,"indent":0,"parameters":["\\C[14]\\N[30]:\\C[0]"]},{"code":401,"indent":0,"parameters":["À quên mất! Tôi cần 1 chút thông tin về"]},{"code":401,"indent":0,"parameters":["người đó để tìm kiếm."]},{"code":101,"indent":0,"parameters":["KingdomWarrior",3,0,2]},{"code":401,"indent":0,"parameters":["\\C[14]\\N[30]:\\C[0]"]},{"code":401,"indent":0,"parameters":["Ví dụ như là người đó là con gái hay con"]},{"code":401,"indent":0,"parameters":["trai này? Rồi có thông tin cá nhân như nào"]},{"code":401,"indent":0,"parameters":["này?"]},{"code":101,"indent":0,"parameters":["Waldron",0,0,2]},{"code":401,"indent":0,"parameters":["\\C[14]\\N[10]:\\C[0]"]},{"code":401,"indent":0,"parameters":["À người đó là con trai và\\| tôi cũng không"]},{"code":401,"indent":0,"parameters":["rõ nữa..."]},{"code":101,"indent":0,"parameters":["Kora",0,0,2]},{"code":401,"indent":0,"parameters":["\\C[14]\\N[1]:\\C[0]"]},{"code":401,"indent":0,"parameters":["Haiz. Cậu ta là \\N[2] và là 1 hiệp sĩ của"]},{"code":401,"indent":0,"parameters":["vương quốc. Đây là ảnh của cậu ta."]},{"code":101,"indent":0,"parameters":["Waldron",0,0,2]},{"code":401,"indent":0,"parameters":["\\C[14]\\N[10]:\\C[0]"]},{"code":401,"indent":0,"parameters":["Khoan đã so cô có ảnh của cậu ta vậy?"]},{"code":213,"indent":0,"parameters":[-1,3,true]},{"code":101,"indent":0,"parameters":["Kora",0,0,2]},{"code":401,"indent":0,"parameters":["\\C[14]\\N[1]:\\C[0]"]},{"code":401,"indent":0,"parameters":["Cậu ta còn nợ tôi nên tôi không để cậu ta"]},{"code":401,"indent":0,"parameters":["thoát dễ vậy đâu."]},{"code":101,"indent":0,"parameters":["KingdomWarrior",3,0,2]},{"code":401,"indent":0,"parameters":["\\C[14]\\N[30]:\\C[0]"]},{"code":401,"indent":0,"parameters":["Được rồi! Cảm ơn vì thông tin. Giờ tôi bắt"]},{"code":401,"indent":0,"parameters":["đầu tìm kiếm cậu ta đây."]},{"code":221,"indent":0,"parameters":[]},{"code":121,"indent":0,"parameters":[62,62,0]},{"code":222,"indent":0,"parameters":[]},{"code":101,"indent":0,"parameters":["KingdomWarrior",3,0,2]},{"code":401,"indent":0,"parameters":["\\C[14]\\N[30]:\\C[0]"]},{"code":401,"indent":0,"parameters":["Được rồi! Cũng không quá khó."]},{"code":101,"indent":0,"parameters":["KingdomWarrior",3,0,2]},{"code":401,"indent":0,"parameters":["\\C[14]\\N[30]:\\C[0]"]},{"code":401,"indent":0,"parameters":["Cậu ta đang ở 1 ngôi làng gần lâu đài của"]},{"code":401,"indent":0,"parameters":["vương quốc."]},{"code":101,"indent":0,"parameters":["Theri",0,0,2]},{"code":401,"indent":0,"parameters":["\\C[14]\\N[3]:\\C[0]"]},{"code":401,"indent":0,"parameters":["Vậy nghĩa là \\N[2] vẫn ổn! May quá."]},{"code":101,"indent":0,"parameters":["Kora",0,0,2]},{"code":401,"indent":0,"parameters":["\\C[14]\\N[1]:\\C[0]"]},{"code":401,"indent":0,"parameters":["Đến tìm cậu ta thôi mọi người!"]},{"code":101,"indent":0,"parameters":["Waldron",0,0,2]},{"code":401,"indent":0,"parameters":["\\C[14]\\N[10]:\\C[0]"]},{"code":401,"indent":0,"parameters":["Cảm ơn \\N[30] vì đã giúp đỡ."]},{"code":101,"indent":0,"parameters":["KingdomWarrior",3,0,2]},{"code":401,"indent":0,"parameters":["\\C[14]\\N[30]:\\C[0]"]},{"code":401,"indent":0,"parameters":["À có gì đâu. Chiến binh tinh nhuệ nhờ giúp"]},{"code":401,"indent":0,"parameters":["mà."]},{"code":101,"indent":0,"parameters":["Waldron",0,0,2]},{"code":401,"indent":0,"parameters":["\\C[14]\\N[10]:\\C[0]"]},{"code":401,"indent":0,"parameters":["Vậy chúng tôi xin phép đi nha."]},{"code":101,"indent":0,"parameters":["KingdomWarrior",3,0,2]},{"code":401,"indent":0,"parameters":["\\C[14]\\N[30]:\\C[0]"]},{"code":401,"indent":0,"parameters":["Um. Mà anh \\N[10] nếu khi nào anh rảnh thì"]},{"code":401,"indent":0,"parameters":["anh có thể..."]},{"code":101,"indent":0,"parameters":["KingdomWarrior",3,0,2]},{"code":401,"indent":0,"parameters":["\\C[14]\\N[30]:\\C[0]"]},{"code":401,"indent":0,"parameters":["Anh biết đấy... Đến đây chơi chẳng hạn?"]},{"code":101,"indent":0,"parameters":["Waldron",0,0,2]},{"code":401,"indent":0,"parameters":["\\C[14]\\N[10]:\\C[0]"]},{"code":401,"indent":0,"parameters":["Um. Sau tôi sẽ quay lại. Tạm biệt \\N[30]"]},{"code":101,"indent":0,"parameters":["KingdomWarrior",3,0,2]},{"code":401,"indent":0,"parameters":["\\C[14]\\N[30]:\\C[0]"]},{"code":401,"indent":0,"parameters":["Tạm biệt \\N[10] và mọi người nha."]},{"code":123,"indent":0,"parameters":["A",0]},{"code":356,"indent":0,"parameters":["Autosave"]},{"code":0,"indent":0,"parameters":[]}],"moveFrequency":3,"moveRoute":{"list":[{"code":0,"parameters":[]}],"repeat":true,"skippable":false,"wait":false},"moveSpeed":3,"moveType":0,"priorityType":1,"stepAnime":false,"through":false,"trigger":0,"walkAnime":true},{"conditions":{"actorId":1,"actorValid":false,"itemId":1,"itemValid":false,"selfSwitchCh":"A","selfSwitchValid":true,"switch1Id":1,"switch1Valid":false,"switch2Id":1,"switch2Valid":false,"variableId":1,"variableValid":false,"variableValue":0},"directionFix":false,"image":{"tileId":0,"characterName":"KingdomWarrior","direction":2,"pattern":1,"characterIndex":3},"list":[{"code":101,"indent":0,"parameters":["KingdomWarrior",3,0,2]},{"code":401,"indent":0,"parameters":["\\C[14]\\N[30]:\\C[0]"]},{"code":401,"indent":0,"parameters":["Xin chào."]},{"code":0,"indent":0,"parameters":[]}],"moveFrequency":3,"moveRoute":{"list":[{"code":0,"parameters":[]}],"repeat":true,"skippable":false,"wait":false},"moveSpeed":3,"moveType":0,"priorityType":1,"stepAnime":false,"through":false,"trigger":0,"walkAnime":true}],"x":7,"y":6},
{"id":2,"name":"EV002","note":"","pages":[{"conditions":{"actorId":1,"actorValid":false,"itemId":1,"itemValid":false,"selfSwitchCh":"A","selfSwitchValid":false,"switch1Id":1,"switch1Valid":false,"switch2Id":1,"switch2Valid":false,"variableId":1,"variableValid":false,"variableValue":0},"directionFix":false,"image":{"characterIndex":0,"characterName":"","direction":2,"pattern":0,"tileId":0},"list":[{"code":250,"indent":0,"parameters":[{"name":"Move1","pan":0,"pitch":100,"volume":90}]},{"code":201,"indent":0,"parameters":[0,1,9,19,0,0]},{"code":0,"indent":0,"parameters":[]}],"moveFrequency":3,"moveRoute":{"list":[{"code":0,"parameters":[]}],"repeat":true,"skippable":false,"wait":false},"moveSpeed":3,"moveType":0,"priorityType":0,"stepAnime":false,"through":false,"trigger":1,"walkAnime":true}],"x":7,"y":29}
]
}