{
"autoplayBgm":false,"autoplayBgs":false,"battleback1Name":"Wood2","battleback2Name":"Room1","bgm":{"name":"","pan":0,"pitch":100,"volume":90},"bgs":{"name":"","pan":0,"pitch":100,"volume":90},"disableDashing":false,"displayName":"","encounterList":[],"encounterStep":30,"height":20,"note":"","parallaxLoopX":false,"parallaxLoopY":false,"parallaxName":"","parallaxShow":true,"parallaxSx":0,"parallaxSy":0,"scrollType":0,"specifyBattleback":true,"tilesetId":3,"width":21,
"data":[1536,1536,1536,1536,1536,1536,1536,1536,1536,1536,1536,1536,1536,1536,1536,1536,1536,1536,1536,1536,1536,1536,6834,6820,6821,6833,6833,6833,6833,6823,6833,6833,6833,6833,6833,6833,6833,6833,6833,6822,6836,1536,1536,6816,6800,6824,7043,7042,7042,7046,6832,7043,7042,7042,7042,7042,7042,7042,7042,7046,6816,6824,1536,1536,6816,6800,6824,7049,7048,7048,7052,6832,7049,7048,7048,7048,7048,7048,7048,7048,7052,6816,6824,1536,1536,6818,6828,6838,2946,2932,2932,2948,6832,3234,3220,3220,3220,3220,3220,3220,3220,3236,6816,6824,1536,1536,6832,7043,7046,2928,2912,2912,2936,6832,3216,3200,3200,3200,3200,3200,3200,3200,3224,6816,6824,1536,1536,6832,7049,7052,2952,2940,2940,2950,6832,3240,3228,3228,3228,3228,3228,3228,3208,3224,6816,6824,1536,1536,6832,3234,3220,3220,3220,3220,3236,6819,6833,6833,6833,6833,6833,6833,6845,3216,3224,6840,6825,1536,1536,6832,3240,3228,3228,3212,3228,3238,6832,7043,7042,7042,7042,7042,7042,7046,3216,3224,7047,6832,1536,1536,6819,6833,6833,6845,3232,6843,6833,6827,7049,7048,7048,7048,7048,7048,7052,3216,3224,7053,6832,1536,1536,6832,7043,7042,7046,3232,7043,7046,6844,3234,3220,3220,3220,3220,3220,3221,3229,3230,3237,6832,1536,1536,6832,7049,7048,7052,3232,7049,7052,7047,3240,3228,3228,3228,3228,3208,3224,6834,6836,3232,6832,1536,1536,6832,3234,3220,3220,3203,3220,3236,7053,2955,2945,2945,2945,2957,3216,3224,6840,6838,3232,6832,1536,1536,6832,3216,3200,3200,3200,3200,3202,3220,3220,3220,3220,3220,3220,3201,3224,7043,7046,3232,6832,1536,1536,6832,3240,3228,3208,3200,3200,3200,3200,3200,3200,3200,3200,3200,3200,3224,7049,7052,3232,6832,1536,1536,6817,6820,6836,3216,3200,3200,3200,3200,3200,3200,3200,3200,3200,3200,3202,3220,3220,3226,6832,1536,1536,6816,6800,6824,3240,3228,3228,3228,3228,3208,3200,3204,3228,3228,3228,3228,3228,3228,3238,6832,1536,1536,6816,6800,6802,6820,6820,6820,6820,6836,3240,3212,3238,6834,6820,6820,6820,6820,6820,6820,6826,1536,1536,6840,6828,6828,6828,6828,6828,6828,6830,6837,3232,6835,6829,6828,6828,6828,6828,6828,6828,6838,1536,1536,1536,1536,1536,1536,1536,1536,1536,1536,6832,3232,6832,1536,1536,1536,1536,1536,1536,1536,1536,1536,0,0,0,0,0,0,0,0,0,0,0,0,0,0,0,0,0,0,0,0,0,0,0,0,0,0,0,0,0,0,0,0,0,0,0,0,0,0,0,0,0,0,0,0,0,0,0,0,0,0,0,0,0,0,0,0,0,0,0,0,0,0,0,0,0,0,0,0,0,0,0,0,0,0,0,0,0,0,0,0,0,0,0,0,0,0,0,0,0,0,0,0,0,0,0,0,0,0,0,0,0,0,0,0,0,0,0,0,0,0,0,0,0,0,0,3195,3185,3185,3197,0,0,0,0,0,0,0,0,0,0,0,0,0,0,0,0,0,0,0,0,0,0,0,0,0,0,0,0,0,0,3187,3197,0,0,0,0,0,0,0,0,0,0,0,0,0,0,0,0,0,0,0,3196,0,0,0,0,0,0,0,0,0,0,0,0,0,0,0,0,0,0,0,0,0,0,0,0,0,0,0,0,0,0,0,0,0,0,0,0,0,0,0,0,0,0,0,0,0,0,0,0,0,0,0,0,3578,0,0,0,0,0,0,0,0,0,0,0,0,0,0,0,0,3579,3569,3569,3569,3575,0,0,0,0,0,0,0,0,0,0,0,0,0,0,3198,0,0,0,0,0,0,0,0,0,0,0,0,0,0,0,0,0,0,0,0,0,0,0,0,0,0,0,0,0,0,0,0,0,0,0,0,0,0,0,0,0,0,0,0,0,0,0,0,0,0,0,0,0,0,0,0,0,0,0,0,0,0,0,0,0,0,0,0,0,0,0,0,0,0,0,0,0,0,0,0,0,0,0,0,0,0,0,0,0,0,0,0,0,0,0,0,0,0,0,0,0,0,0,0,0,0,0,0,0,0,0,0,0,0,0,0,0,0,0,0,0,0,0,0,0,0,0,0,0,0,0,0,0,0,0,0,0,0,0,0,0,0,0,0,0,0,0,0,0,0,0,0,0,0,0,0,0,0,0,0,0,0,0,0,0,0,0,0,0,0,0,0,0,0,0,0,0,0,0,0,0,0,0,0,0,0,0,0,0,0,0,0,0,0,0,0,0,0,0,0,0,0,0,0,0,0,32,0,32,0,0,0,0,0,0,0,0,0,0,0,0,0,0,0,0,0,0,40,0,40,50,0,0,0,0,0,0,0,0,0,0,0,0,0,0,0,0,0,0,0,0,0,0,0,0,0,0,0,0,0,0,0,0,0,0,0,0,0,0,0,0,0,0,0,0,0,0,0,0,0,0,0,0,0,0,0,0,0,0,0,0,0,0,0,0,0,0,0,0,0,0,0,0,0,0,0,0,0,0,0,0,0,0,0,0,0,0,0,0,0,0,0,0,0,0,0,0,0,0,0,0,0,0,0,0,0,0,0,0,0,0,0,0,0,0,0,0,0,0,0,0,0,0,0,0,0,0,0,0,0,0,0,0,0,0,0,0,0,0,0,0,0,0,0,0,0,0,0,0,0,0,0,0,0,0,0,0,0,0,0,0,0,0,0,0,0,0,0,0,0,0,0,0,0,0,0,0,0,0,0,0,0,0,0,0,0,0,0,0,0,0,0,0,0,0,0,0,0,0,0,0,0,0,0,0,0,0,0,0,0,0,0,0,0,0,0,0,0,0,0,0,0,0,0,0,0,0,0,0,0,0,0,0,0,0,0,0,0,0,0,0,0,0,0,0,0,0,0,0,0,0,0,0,0,0,0,0,0,0,0,0,0,0,0,0,0,0,0,0,0,0,0,0,0,0,0,0,0,0,0,0,0,0,0,0,0,0,0,0,0,0,0,0,0,0,0,0,0,0,0,0,0,0,0,0,0,0,0,0,0,0,0,0,0,0,0,0,0,0,0,0,0,0,0,0,0,0,0,0,0,0,0,0,0,0,0,0,0,0,0,0,0,0,0,0,0,0,0,0,0,0,0,0,0,0,0,0,0,0,0,0,0,0,0,0,0,0,0,0,0,0,0,0,0,0,0,0,0,0,0,0,0,0,0,0,0,0,0,0,0,0,0,0,0,0,0,33,0,33,0,0,0,32,0,0,32,0,131,32,0,0,0,0,0,0,0,0,41,0,41,51,0,0,40,0,0,40,124,139,40,0,0,0,0,0,0,0,0,80,108,80,59,0,0,104,104,104,104,0,115,113,112,0,0,0,0,0,0,0,88,0,88,0,0,0,0,0,0,0,0,0,0,0,0,0,0,0,0,0,0,0,0,0,0,0,0,104,104,104,104,0,0,0,0,0,0,0,0,0,340,122,0,0,0,104,0,0,0,0,0,0,0,0,0,0,0,0,0,0,0,319,104,0,0,0,96,0,396,397,0,0,173,0,0,0,0,0,0,0,0,0,0,0,0,0,0,0,0,0,0,0,162,348,69,0,0,0,0,0,0,0,0,0,0,0,0,0,0,0,354,0,104,0,341,77,0,0,0,0,0,0,0,0,226,227,0,0,0,350,160,373,0,329,0,346,0,0,0,0,0,0,0,0,0,234,235,0,0,0,343,168,360,0,0,0,0,0,0,0,0,0,0,0,0,0,0,0,0,0,0,0,0,0,0,0,0,0,0,0,166,167,0,0,0,0,0,209,209,0,0,0,0,0,0,0,0,0,0,0,1,176,176,0,0,0,0,0,0,0,0,0,0,0,0,0,0,0,0,0,0,0,184,184,0,0,0,0,0,0,0,208,0,0,0,0,0,0,0,0,0,0,0,0,0,0,0,0,0,0,0,0,0,0,0,0,0,0,0,0,0,0,0,0,0,0,0,0,0,0,0,0,0,0,0,0,0,0,0,0,0,0,0,0,0,0,0,0,0,0,0,0,0,0,0,0,0,0,0,0,0,0,0,0,0,0,0,0,0,0,0,0,0,0,0,0,0,0,0,0,0,0,0,0,0,0,0,0,0,0,0,0,0,0,0,0,0,0,0,0,0,0,0,0,0,0,0,0,0,0,0,0,0,0,0,0,0,0,0,0,0,0,0,0,0,0,0,0,0,0,0,0,0,5,0,0,0,0,0,0,0,0,0,0,0,0,0,0,0,0,0,0,0,0,5,0,0,0,0,5,0,0,0,0,5,0,0,0,0,0,0,0,0,0,0,5,0,0,0,0,5,0,0,0,0,5,0,0,0,0,0,0,0,0,0,0,5,0,0,0,0,5,0,0,0,0,5,0,0,0,0,0,0,0,0,0,0,5,0,0,5,0,0,0,0,0,0,0,0,0,0,0,0,0,0,0,0,0,5,0,0,5,0,0,0,0,0,0,0,0,0,0,0,0,0,5,0,0,0,5,0,0,0,0,0,0,0,0,0,0,0,0,0,0,0,0,5,0,0,0,5,0,0,0,0,0,5,0,0,0,5,0,0,0,0,0,5,0,0,0,0,5,0,0,0,0,0,5,0,0,0,5,0,0,0,0,0,0,0,0,0,0,5,0,0,5,0,5,0,0,0,0,5,0,0,0,0,0,0,0,0,5,0,5,0,0,5,0,0,0,0,0,0,0,0,0,0,0,0,0,0,0,5,0,5,0,0,5,0,0,0,0,0,0,0,0,0,0,0,0,0,0,0,5,0,5,0,0,0,0,0,0,0,0,0,0,0,0,0,0,0,0,0,0,0,0,5,0,0,0,0,5,0,0,0,0,0,0,0,0,0,0,0,0,0,0,0,5,0,0,0,0,0,0,0,0,0,0,0,0,0,0,0,0,0,0,0,0,5,0,0,0,0,0,0,0,0,0,0,0,0,0,0,0,0,0,0,0,0,5,0,0,0,0,0,0,0,0,0,0,5,0,5,0,0,0,0,0,0,0,0,0,0,0,0,0,0,0,0,0,0,0,0,0,0,0,0,0,0,0,0,0,0,0,0,0,0,0,0,0,0,0,0,0,0,0,0,0,0,0,0,0,0,0,0,0,0,0,0,0,0,0,0,0,0,0,0,0,0,0,0,0,0,0,0,0,0,0,0,0,0,0,0,0,0,0,0,0,0,0,0,0,0,0,0,0,0,0,0,0,0,0,0,0,0,0,0,0,0,0,0,0,0,0,0,0,0,0,0,0,0,0,0,0,0,0,0,0,0,0,0,0,0,0,0,0,0,0,0,0,0,0,0,0,0,0,0,0,0,0,0,0,0,0,0,0,0,0,0,0,0,0,0,0,0,0,0,0,0,0,0,0,0,0,0,0,0,0,0,0,0,0,0,0,0,0,0,0,0,0,0,0,0,0,0,0,0,0,0,0,0,0,0,0,0,0,0,0,0,0,0,0,0,0,0,0,0,0,0,0,0,0,0,0,0,0,0,0,0,0,0,0,0,0,0,0,0,0,0,0,0,0,0,0,0,0,0,0,0,0,0,0,0,0,0,0,0,0,0,0,0,0,0,0,0,0,0,0,0,0,0,0,0,0,0,0,0,0,0,0,0,0,0,0,0,0,0,0,0,0,0,0,0,0,0,0,0,0,0,0,0,0,0,0,0,0,0,0,0,0,0,0,0,0,0,0,0,0,0,0,0,0,0,0,0,0,0,0,0,0,0,0,0,0,0,0,0,0,0,0,0,0,0,0,0,0,0,0,0,0,0,0,0,0,0,0,0,0,0,0,0,0,0,0,0,0,0,0,0,0,0,0,0,0,0,0,0,0,0,0,0,0,0,0,0,0,0,0,0,0,0,0,0,0,0,0,0,0,0,0,0,0,0,0,0,0,0,0,0,0,0,0,0,0,0,0,0,0,0,0,0,0,0,0,0,0,0,0,0,0,0],
"events":[
null,
{"id":1,"name":"EV001","note":"","pages":[{"conditions":{"actorId":1,"actorValid":false,"itemId":1,"itemValid":false,"selfSwitchCh":"A","selfSwitchValid":false,"switch1Id":1,"switch1Valid":false,"switch2Id":1,"switch2Valid":false,"variableId":1,"variableValid":false,"variableValue":0},"directionFix":true,"image":{"tileId":0,"characterName":"!Flame","direction":4,"pattern":1,"characterIndex":1},"list":[{"code":0,"indent":0,"parameters":[]}],"moveFrequency":3,"moveRoute":{"list":[{"code":0,"parameters":[]}],"repeat":true,"skippable":false,"wait":false},"moveSpeed":3,"moveType":0,"priorityType":1,"stepAnime":true,"through":false,"trigger":0,"walkAnime":true}],"x":11,"y":8},
{"id":2,"name":"EV002","note":"","pages":[{"conditions":{"actorId":1,"actorValid":false,"itemId":1,"itemValid":false,"selfSwitchCh":"A","selfSwitchValid":false,"switch1Id":1,"switch1Valid":false,"switch2Id":1,"switch2Valid":false,"variableId":1,"variableValid":false,"variableValue":0},"directionFix":true,"image":{"tileId":0,"characterName":"!Flame","direction":4,"pattern":1,"characterIndex":1},"list":[{"code":0,"indent":0,"parameters":[]}],"moveFrequency":3,"moveRoute":{"list":[{"code":0,"parameters":[]}],"repeat":true,"skippable":false,"wait":false},"moveSpeed":3,"moveType":0,"priorityType":1,"stepAnime":true,"through":false,"trigger":0,"walkAnime":true}],"x":12,"y":2},
{"id":3,"name":"InnOwner","note":"","pages":[{"conditions":{"actorId":1,"actorValid":false,"itemId":1,"itemValid":false,"selfSwitchCh":"A","selfSwitchValid":false,"switch1Id":1,"switch1Valid":false,"switch2Id":1,"switch2Valid":false,"variableId":1,"variableValid":false,"variableValue":0},"directionFix":false,"image":{"characterIndex":5,"characterName":"People2","direction":2,"pattern":1,"tileId":0},"list":[{"code":101,"indent":0,"parameters":["People2",5,0,2]},{"code":401,"indent":0,"parameters":["\\C[14]InnOwner:\\C[0]"]},{"code":401,"indent":0,"parameters":["100 \\G cho 1 lần nghỉ ngơi."]},{"code":401,"indent":0,"parameters":["Bạn có muốn ở lại?"]},{"code":102,"indent":0,"parameters":[["Có","Không"],-2,0,2,0]},{"code":402,"indent":0,"parameters":[0,"Có"]},{"code":111,"indent":1,"parameters":[7,100,0]},{"code":125,"indent":2,"parameters":[1,0,100]},{"code":221,"indent":2,"parameters":[]},{"code":249,"indent":2,"parameters":[{"name":"Inn","pan":0,"pitch":100,"volume":90}]},{"code":230,"indent":2,"parameters":[300]},{"code":314,"indent":2,"parameters":[0,0]},{"code":222,"indent":2,"parameters":[]},{"code":201,"indent":2,"parameters":[0,6,7,5,0,0]},{"code":0,"indent":2,"parameters":[]},{"code":411,"indent":1,"parameters":[]},{"code":101,"indent":2,"parameters":["People2",5,0,2]},{"code":401,"indent":2,"parameters":["\\C[14]InnOwner:\\C[0]"]},{"code":401,"indent":2,"parameters":["Bạn không có đủ \\G."]},{"code":0,"indent":2,"parameters":[]},{"code":412,"indent":1,"parameters":[]},{"code":0,"indent":1,"parameters":[]},{"code":402,"indent":0,"parameters":[1,"Không"]},{"code":101,"indent":1,"parameters":["People2",5,0,2]},{"code":401,"indent":1,"parameters":["\\C[14]InnOwner:\\C[0]"]},{"code":401,"indent":1,"parameters":["Quay lại bất cứ khi nào bạn"]},{"code":401,"indent":1,"parameters":["cần."]},{"code":0,"indent":1,"parameters":[]},{"code":403,"indent":0,"parameters":[6,null]},{"code":0,"indent":1,"parameters":[]},{"code":404,"indent":0,"parameters":[]},{"code":0,"indent":0,"parameters":[]}],"moveFrequency":3,"moveRoute":{"list":[{"code":0,"parameters":[]}],"repeat":true,"skippable":false,"wait":false},"moveSpeed":3,"moveType":0,"priorityType":1,"stepAnime":false,"through":false,"trigger":0,"walkAnime":true}],"x":11,"y":10},
{"id":4,"name":"Valha","note":"","pages":[{"conditions":{"actorId":2,"actorValid":false,"itemId":1,"itemValid":false,"selfSwitchCh":"A","selfSwitchValid":false,"switch1Id":1,"switch1Valid":true,"switch2Id":1,"switch2Valid":false,"variableId":1,"variableValid":false,"variableValue":0},"directionFix":false,"image":{"characterIndex":0,"characterName":"","direction":2,"pattern":0,"tileId":0},"list":[{"code":221,"indent":0,"parameters":[]},{"code":203,"indent":0,"parameters":[0,0,5,5,0]},{"code":201,"indent":0,"parameters":[0,6,5,6,8,0]},{"code":222,"indent":0,"parameters":[]},{"code":123,"indent":0,"parameters":["A",0]},{"code":0,"indent":0,"parameters":[]}],"moveFrequency":3,"moveRoute":{"list":[{"code":0,"parameters":[]}],"repeat":true,"skippable":false,"wait":false},"moveSpeed":3,"moveType":0,"priorityType":0,"stepAnime":false,"through":false,"trigger":1,"walkAnime":true},{"conditions":{"actorId":1,"actorValid":false,"itemId":6,"itemValid":false,"selfSwitchCh":"A","selfSwitchValid":true,"switch1Id":1,"switch1Valid":false,"switch2Id":1,"switch2Valid":false,"variableId":1,"variableValid":false,"variableValue":0},"directionFix":false,"image":{"tileId":0,"characterName":"Valha","direction":2,"pattern":1,"characterIndex":0},"list":[{"code":108,"indent":0,"parameters":["N start all shared"]},{"code":101,"indent":0,"parameters":["Valha",0,0,2]},{"code":401,"indent":0,"parameters":["\\C[14]Valha:\\C[0]"]},{"code":401,"indent":0,"parameters":["Cảm ơn đã giúp đỡ tôi. Nhưng tại sao cô"]},{"code":401,"indent":0,"parameters":["lại..."]},{"code":101,"indent":0,"parameters":["Kora",0,0,2]},{"code":401,"indent":0,"parameters":["\\C[14]\\N[1]:\\C[0]"]},{"code":401,"indent":0,"parameters":["Này đừng nghĩ đơn giản vậy chứ! Anh còn nợ"]},{"code":401,"indent":0,"parameters":["tôi 500 Gem đó."]},{"code":101,"indent":0,"parameters":["Valha",0,0,2]},{"code":401,"indent":0,"parameters":["\\C[14]Valha:\\C[0]"]},{"code":401,"indent":0,"parameters":["Hả? Nhưng tôi đâu có yêu cầu cô giúp."]},{"code":101,"indent":0,"parameters":["Kora",0,0,2]},{"code":401,"indent":0,"parameters":["\\C[14]\\N[1]:\\C[0]"]},{"code":401,"indent":0,"parameters":["Tôi không quan tâm. Nhưng anh vẫn nợ"]},{"code":401,"indent":0,"parameters":["tôi 500 Gem."]},{"code":101,"indent":0,"parameters":["Valha",0,0,2]},{"code":401,"indent":0,"parameters":["\\C[14]Valha:\\C[0]"]},{"code":401,"indent":0,"parameters":["Nhưng..."]},{"code":126,"indent":0,"parameters":[6,1,0,1]},{"code":101,"indent":0,"parameters":["",0,0,2]},{"code":401,"indent":0,"parameters":["[Nhiệm vụ hoàn thành]"]},{"code":401,"indent":0,"parameters":["+ 500 Gem"]},{"code":401,"indent":0,"parameters":["+ 50 EXP"]},{"code":125,"indent":0,"parameters":[0,0,500]},{"code":315,"indent":0,"parameters":[0,0,0,0,100,true]},{"code":250,"indent":0,"parameters":[{"name":"Bell3","volume":90,"pitch":100,"pan":0}]},{"code":123,"indent":0,"parameters":["A",1]},{"code":123,"indent":0,"parameters":["B",0]},{"code":0,"indent":0,"parameters":[]}],"moveFrequency":3,"moveRoute":{"list":[{"code":0,"parameters":[]}],"repeat":true,"skippable":false,"wait":false},"moveSpeed":3,"moveType":0,"priorityType":1,"stepAnime":false,"through":false,"trigger":3,"walkAnime":true},{"conditions":{"actorId":1,"actorValid":false,"itemId":1,"itemValid":false,"selfSwitchCh":"B","selfSwitchValid":true,"switch1Id":27,"switch1Valid":false,"switch2Id":1,"switch2Valid":false,"variableId":1,"variableValid":false,"variableValue":0},"directionFix":false,"image":{"characterIndex":0,"characterName":"","direction":2,"pattern":0,"tileId":0},"list":[{"code":0,"indent":0,"parameters":[]}],"moveFrequency":3,"moveRoute":{"list":[{"code":0,"parameters":[]}],"repeat":true,"skippable":false,"wait":false},"moveSpeed":3,"moveType":0,"priorityType":0,"stepAnime":false,"through":false,"trigger":0,"walkAnime":true},{"conditions":{"actorId":1,"actorValid":false,"itemId":1,"itemValid":false,"selfSwitchCh":"A","selfSwitchValid":false,"switch1Id":27,"switch1Valid":true,"switch2Id":1,"switch2Valid":false,"variableId":1,"variableValid":false,"variableValue":0},"directionFix":false,"image":{"characterIndex":0,"characterName":"","direction":2,"pattern":0,"tileId":0},"list":[{"code":123,"indent":0,"parameters":["B",1]},{"code":314,"indent":0,"parameters":[0,0]},{"code":201,"indent":0,"parameters":[0,58,6,5,0,0]},{"code":121,"indent":0,"parameters":[28,28,0]},{"code":123,"indent":0,"parameters":["C",0]},{"code":0,"indent":0,"parameters":[]}],"moveFrequency":3,"moveRoute":{"list":[{"code":0,"parameters":[]}],"repeat":true,"skippable":false,"wait":false},"moveSpeed":3,"moveType":0,"priorityType":0,"stepAnime":false,"through":false,"trigger":1,"walkAnime":true},{"conditions":{"actorId":1,"actorValid":false,"itemId":1,"itemValid":false,"selfSwitchCh":"C","selfSwitchValid":true,"switch1Id":1,"switch1Valid":false,"switch2Id":1,"switch2Valid":false,"variableId":1,"variableValid":false,"variableValue":0},"directionFix":false,"image":{"characterIndex":0,"characterName":"","direction":2,"pattern":0,"tileId":0},"list":[{"code":0,"indent":0,"parameters":[]}],"moveFrequency":3,"moveRoute":{"list":[{"code":0,"parameters":[]}],"repeat":true,"skippable":false,"wait":false},"moveSpeed":3,"moveType":0,"priorityType":0,"stepAnime":false,"through":false,"trigger":0,"walkAnime":true}],"x":10,"y":17},
{"id":5,"name":"EV005","note":"","pages":[{"conditions":{"actorId":1,"actorValid":false,"itemId":1,"itemValid":false,"selfSwitchCh":"A","selfSwitchValid":false,"switch1Id":1,"switch1Valid":false,"switch2Id":1,"switch2Valid":false,"variableId":1,"variableValid":false,"variableValue":0},"directionFix":false,"image":{"characterIndex":0,"characterName":"","direction":2,"pattern":0,"tileId":0},"list":[{"code":250,"indent":0,"parameters":[{"name":"Move1","pan":0,"pitch":100,"volume":90}]},{"code":201,"indent":0,"parameters":[0,1,10,30,0,0]},{"code":0,"indent":0,"parameters":[]}],"moveFrequency":3,"moveRoute":{"list":[{"code":0,"parameters":[]}],"repeat":true,"skippable":false,"wait":false},"moveSpeed":3,"moveType":0,"priorityType":0,"stepAnime":false,"through":false,"trigger":1,"walkAnime":true}],"x":10,"y":19},
{"id":6,"name":"ValhaWait","note":"","pages":[{"conditions":{"actorId":1,"actorValid":false,"itemId":1,"itemValid":false,"selfSwitchCh":"A","selfSwitchValid":false,"switch1Id":1,"switch1Valid":true,"switch2Id":1,"switch2Valid":false,"variableId":1,"variableValid":false,"variableValue":0},"directionFix":false,"image":{"tileId":0,"characterName":"","direction":2,"pattern":1,"characterIndex":0},"list":[{"code":123,"indent":0,"parameters":["C",0]},{"code":0,"indent":0,"parameters":[]}],"moveFrequency":3,"moveRoute":{"list":[{"code":0,"parameters":[]}],"repeat":true,"skippable":false,"wait":false},"moveSpeed":3,"moveType":0,"priorityType":0,"stepAnime":false,"through":false,"trigger":3,"walkAnime":true},{"conditions":{"actorId":1,"actorValid":false,"itemId":1,"itemValid":false,"selfSwitchCh":"C","selfSwitchValid":true,"switch1Id":1,"switch1Valid":false,"switch2Id":1,"switch2Valid":false,"variableId":1,"variableValid":false,"variableValue":0},"directionFix":false,"image":{"tileId":0,"characterName":"Valha","direction":2,"pattern":1,"characterIndex":0},"list":[{"code":108,"indent":0,"parameters":["N start all shared"]},{"code":101,"indent":0,"parameters":["Valha",0,0,2]},{"code":401,"indent":0,"parameters":["\\C[14]Valha:\\C[0]"]},{"code":401,"indent":0,"parameters":["Xin chào! Cảm ơn đã giúp"]},{"code":401,"indent":0,"parameters":["tôi! Nhưng mà tôi vẫn chưa"]},{"code":401,"indent":0,"parameters":["biết tên cô?"]},{"code":101,"indent":0,"parameters":["Kora",0,0,2]},{"code":401,"indent":0,"parameters":["\\C[14]\\N[1]:\\C[0]"]},{"code":401,"indent":0,"parameters":["Tại sao anh muốn biết tên"]},{"code":401,"indent":0,"parameters":["tôi?"]},{"code":101,"indent":0,"parameters":["Valha",0,0,2]},{"code":401,"indent":0,"parameters":["\\C[14]Valha:\\C[0]"]},{"code":401,"indent":0,"parameters":["Tệ thật! Vậy tôi không thể trả"]},{"code":401,"indent":0,"parameters":["cô 500 \\G được rồi."]},{"code":213,"indent":0,"parameters":[-1,6,true]},{"code":101,"indent":0,"parameters":["Kora",0,0,2]},{"code":401,"indent":0,"parameters":["\\C[14]\\N[1]:\\C[0]"]},{"code":401,"indent":0,"parameters":["\\N[1]. \\N[1] là tên tôi."]},{"code":101,"indent":0,"parameters":["Valha",0,0,2]},{"code":401,"indent":0,"parameters":["\\C[14]Valha:\\C[0]"]},{"code":401,"indent":0,"parameters":["Wow. 1 cái tên tuyệt đẹp nó"]},{"code":401,"indent":0,"parameters":["rất hợp với khuôn mặt mỹ nhân"]},{"code":401,"indent":0,"parameters":["như cô."]},{"code":101,"indent":0,"parameters":["Kora",0,0,2]},{"code":401,"indent":0,"parameters":["\\C[14]\\N[1]:\\C[0]"]},{"code":401,"indent":0,"parameters":["Nếu anh tính tán tỉnh tôi"]},{"code":401,"indent":0,"parameters":["thì tôi sẽ cắt lưỡi anh"]},{"code":401,"indent":0,"parameters":["đấy."]},{"code":101,"indent":0,"parameters":["Valha",0,0,2]},{"code":401,"indent":0,"parameters":["\\C[14]Valha:\\C[0]"]},{"code":401,"indent":0,"parameters":["Ấy bình tĩnh nào. Gì"]},{"code":401,"indent":0,"parameters":["căng vậy!"]},{"code":101,"indent":0,"parameters":["Valha",0,0,2]},{"code":401,"indent":0,"parameters":["\\C[14]Valha:\\C[0]"]},{"code":401,"indent":0,"parameters":["Thứ mà tôi muốn nói là..."]},{"code":101,"indent":0,"parameters":["Valha",0,0,2]},{"code":401,"indent":0,"parameters":["\\C[14]Valha:\\C[0]"]},{"code":401,"indent":0,"parameters":["Tôi muốn tham gia cùng cô. Tôi"]},{"code":401,"indent":0,"parameters":["tin rằng sức mạnh tôi sẽ hữu ích"]},{"code":401,"indent":0,"parameters":["với cô. Vậy cô nghĩ sao?"]},{"code":108,"indent":0,"parameters":["N choicesForMaster"]},{"code":102,"indent":0,"parameters":[["Được thôi","Không"],1,0,2,0]},{"code":402,"indent":0,"parameters":[0,"Được thôi"]},{"code":101,"indent":1,"parameters":["Kora",0,0,2]},{"code":401,"indent":1,"parameters":["\\C[14]\\N[1]:\\C[0]"]},{"code":401,"indent":1,"parameters":["Được rồi. Nếu anh muốn thì chiều"]},{"code":401,"indent":1,"parameters":["Nhưng tôi cảnh báo với anh. Tôi là"]},{"code":401,"indent":1,"parameters":["1 sát thủ và không có tình nghĩa đồng"]},{"code":108,"indent":1,"parameters":["N wait"]},{"code":101,"indent":1,"parameters":["Kora",0,0,2]},{"code":401,"indent":1,"parameters":["\\C[14]\\N[1]:\\C[0]"]},{"code":401,"indent":1,"parameters":["minh gì hết. Nếu anh có làm sao thì kệ anh."]},{"code":108,"indent":1,"parameters":["N wait"]},{"code":101,"indent":1,"parameters":["Valha",0,0,2]},{"code":401,"indent":1,"parameters":["\\C[14]Valha:\\C[0]"]},{"code":401,"indent":1,"parameters":["Đừng lo cho tôi. Tôi làm gì yếu"]},{"code":401,"indent":1,"parameters":["đến mức không lo được cho bản thân"]},{"code":401,"indent":1,"parameters":["đâu."]},{"code":108,"indent":1,"parameters":["N wait"]},{"code":101,"indent":1,"parameters":["Kora",0,0,2]},{"code":401,"indent":1,"parameters":["\\C[14]\\N[1]:\\C[0]"]},{"code":401,"indent":1,"parameters":["(Nằm bẹp ra ở đầm lầy vậy thì kinh rồi!)"]},{"code":129,"indent":1,"parameters":[2,0,false]},{"code":122,"indent":1,"parameters":[4,4,0,3,3,1,1]},{"code":315,"indent":1,"parameters":[0,2,0,1,4,false]},{"code":314,"indent":1,"parameters":[0,2]},{"code":121,"indent":1,"parameters":[3,3,0]},{"code":123,"indent":1,"parameters":["C",1]},{"code":123,"indent":1,"parameters":["A",0]},{"code":0,"indent":1,"parameters":[]},{"code":402,"indent":0,"parameters":[1,"Không"]},{"code":101,"indent":1,"parameters":["Kora",0,0,2]},{"code":401,"indent":1,"parameters":["\\C[14]\\N[1]:\\C[0]"]},{"code":401,"indent":1,"parameters":["Không cảm ơn. Tôi quen hoạt động"]},{"code":401,"indent":1,"parameters":["1 mình rồi."]},{"code":108,"indent":1,"parameters":["N wait"]},{"code":101,"indent":1,"parameters":["Valha",0,0,2]},{"code":401,"indent":1,"parameters":["\\C[14]Valha:\\C[0]"]},{"code":401,"indent":1,"parameters":["Bất kỳ khi nào cô cần tôi sẽ vẫn"]},{"code":401,"indent":1,"parameters":["chờ ở đây."]},{"code":123,"indent":1,"parameters":["C",1]},{"code":123,"indent":1,"parameters":["B",0]},{"code":356,"indent":1,"parameters":["Autosave"]},{"code":0,"indent":1,"parameters":[]},{"code":404,"indent":0,"parameters":[]},{"code":0,"indent":0,"parameters":[]}],"moveFrequency":3,"moveRoute":{"list":[{"code":0,"parameters":[]}],"repeat":true,"skippable":false,"wait":false},"moveSpeed":3,"moveType":0,"priorityType":1,"stepAnime":false,"through":false,"trigger":0,"walkAnime":true},{"conditions":{"actorId":1,"actorValid":false,"itemId":1,"itemValid":false,"selfSwitchCh":"A","selfSwitchValid":true,"switch1Id":1,"switch1Valid":false,"switch2Id":1,"switch2Valid":false,"variableId":1,"variableValid":false,"variableValue":0},"directionFix":false,"image":{"characterIndex":0,"characterName":"","direction":2,"pattern":0,"tileId":0},"list":[{"code":0,"indent":0,"parameters":[]}],"moveFrequency":3,"moveRoute":{"list":[{"code":0,"parameters":[]}],"repeat":true,"skippable":false,"wait":false},"moveSpeed":3,"moveType":0,"priorityType":0,"stepAnime":false,"through":false,"trigger":0,"walkAnime":true},{"conditions":{"actorId":1,"actorValid":false,"itemId":1,"itemValid":false,"selfSwitchCh":"B","selfSwitchValid":true,"switch1Id":1,"switch1Valid":false,"switch2Id":1,"switch2Valid":false,"variableId":1,"variableValid":false,"variableValue":0},"directionFix":false,"image":{"tileId":0,"characterName":"Valha","direction":2,"pattern":1,"characterIndex":0},"list":[{"code":108,"indent":0,"parameters":["N start all shared"]},{"code":101,"indent":0,"parameters":["Valha",0,0,2]},{"code":401,"indent":0,"parameters":["\\C[14]Valha:\\C[0]"]},{"code":401,"indent":0,"parameters":["Vậy cô sẽ cho tôi tham gia"]},{"code":401,"indent":0,"parameters":["cùng cô?"]},{"code":108,"indent":0,"parameters":["N choicesForMaster"]},{"code":102,"indent":0,"parameters":[["Được thôi","Không"],1,0,2,0]},{"code":402,"indent":0,"parameters":[0,"Được thôi"]},{"code":101,"indent":1,"parameters":["Kora",0,0,2]},{"code":401,"indent":1,"parameters":["\\C[14]\\N[1]:\\C[0]"]},{"code":401,"indent":1,"parameters":["Được rồi. Nếu anh muốn thì chiều"]},{"code":401,"indent":1,"parameters":["Nhưng tôi cảnh báo với anh. Tôi là"]},{"code":401,"indent":1,"parameters":["1 sát thủ và không có tình nghĩa đồng"]},{"code":108,"indent":1,"parameters":["N wait"]},{"code":101,"indent":1,"parameters":["Kora",0,0,2]},{"code":401,"indent":1,"parameters":["\\C[14]\\N[1]:\\C[0]"]},{"code":401,"indent":1,"parameters":["minh gì hết. Nếu anh có làm sao thì kệ anh."]},{"code":108,"indent":1,"parameters":["N wait"]},{"code":101,"indent":1,"parameters":["Valha",0,0,2]},{"code":401,"indent":1,"parameters":["\\C[14]Valha:\\C[0]"]},{"code":401,"indent":1,"parameters":["Đừng lo cho tôi. Tôi làm gì yếu"]},{"code":401,"indent":1,"parameters":["đến mức không lo được cho bản thân"]},{"code":401,"indent":1,"parameters":["đâu."]},{"code":108,"indent":1,"parameters":["N wait"]},{"code":101,"indent":1,"parameters":["Kora",0,0,2]},{"code":401,"indent":1,"parameters":["\\C[14]\\N[1]:\\C[0]"]},{"code":401,"indent":1,"parameters":["(Nằm bẹp ra ở đầm lầy vậy thì kinh rồi!)"]},{"code":129,"indent":1,"parameters":[2,0,false]},{"code":122,"indent":1,"parameters":[4,4,0,3,3,1,1]},{"code":315,"indent":1,"parameters":[0,2,0,1,4,false]},{"code":314,"indent":1,"parameters":[0,2]},{"code":121,"indent":1,"parameters":[3,3,0]},{"code":123,"indent":1,"parameters":["B",1]},{"code":123,"indent":1,"parameters":["A",0]},{"code":0,"indent":1,"parameters":[]},{"code":402,"indent":0,"parameters":[1,"Không"]},{"code":101,"indent":1,"parameters":["Kora",0,0,2]},{"code":401,"indent":1,"parameters":["\\C[14]\\N[1]:\\C[0]"]},{"code":401,"indent":1,"parameters":["Không cảm ơn. Tôi quen hoạt động"]},{"code":401,"indent":1,"parameters":["1 mình rồi."]},{"code":108,"indent":1,"parameters":["N wait"]},{"code":101,"indent":1,"parameters":["Valha",0,0,2]},{"code":401,"indent":1,"parameters":["\\C[14]Valha:\\C[0]"]},{"code":401,"indent":1,"parameters":["Bất kỳ khi nào cô cần tôi sẽ vẫn"]},{"code":401,"indent":1,"parameters":["chờ ở đây."]},{"code":0,"indent":1,"parameters":[]},{"code":404,"indent":0,"parameters":[]},{"code":0,"indent":0,"parameters":[]}],"moveFrequency":3,"moveRoute":{"list":[{"code":0,"parameters":[]}],"repeat":true,"skippable":false,"wait":false},"moveSpeed":3,"moveType":0,"priorityType":1,"stepAnime":false,"through":false,"trigger":0,"walkAnime":true}],"x":5,"y":5},
{"id":7,"name":"EV007","note":"","pages":[{"conditions":{"actorId":1,"actorValid":false,"itemId":1,"itemValid":false,"selfSwitchCh":"A","selfSwitchValid":false,"switch1Id":1,"switch1Valid":false,"switch2Id":1,"switch2Valid":false,"variableId":1,"variableValid":false,"variableValue":0},"directionFix":false,"image":{"characterIndex":0,"characterName":"","direction":2,"pattern":0,"tileId":0},"list":[{"code":250,"indent":0,"parameters":[{"name":"Move1","pan":0,"pitch":100,"volume":90}]},{"code":201,"indent":0,"parameters":[0,58,11,11,0,0]},{"code":0,"indent":0,"parameters":[]}],"moveFrequency":3,"moveRoute":{"list":[{"code":0,"parameters":[]}],"repeat":true,"skippable":false,"wait":false},"moveSpeed":3,"moveType":0,"priorityType":0,"stepAnime":false,"through":false,"trigger":1,"walkAnime":true}],"x":15,"y":14}
]
}