{
"autoplayBgm":true,"autoplayBgs":false,"battleback1Name":"Grassland","battleback2Name":"Cliff","bgm":{"name":"Dungeon1","pan":0,"pitch":100,"volume":90},"bgs":{"name":"River","pan":0,"pitch":100,"volume":90},"disableDashing":false,"displayName":"","encounterList":[{"regionSet":[],"troopId":1,"weight":5},{"regionSet":[],"troopId":2,"weight":5}],"encounterStep":30,"height":40,"note":"","parallaxLoopX":false,"parallaxLoopY":false,"parallaxName":"","parallaxShow":true,"parallaxSx":0,"parallaxSy":0,"scrollType":0,"specifyBattleback":true,"tilesetId":2,"width":40,
"data":[1633,1633,1633,1633,1644,1641,1641,1641,1641,1642,1649,1649,2481,2480,2482,1649,1649,1649,1649,1640,1643,1633,1633,1633,1633,1633,1633,1633,1633,1633,1633,1633,1633,1633,1633,1633,1633,1633,1633,1633,1633,1633,1633,1644,1642,1649,1649,1649,1649,1650,1657,1657,2481,2480,2482,1649,1657,1657,1657,1648,1640,1641,1641,1641,1641,1641,1641,1641,1643,1633,1633,1633,1633,1633,1633,1633,1633,1633,1633,1633,1633,1633,1644,1642,1650,1657,1657,1657,1657,1658,1644,1641,2064,2048,2072,1641,1643,1633,1633,1656,1648,1649,1649,1649,1649,1649,1649,1649,1640,1641,1643,1633,1633,1633,1633,1633,1633,1633,1633,1633,1633,1644,1642,1650,1658,2859,2849,2849,2861,1644,1642,1649,2481,2480,2578,1649,1640,1641,1643,1633,1656,1657,1657,1657,1657,1657,1657,1657,1648,1649,1640,1641,1643,1633,1633,1633,1633,1633,1633,1633,1633,1634,1650,1658,1644,1641,1641,1641,1641,1642,1650,1657,2481,2480,2482,1657,1648,1649,1640,1641,1641,1641,1641,1641,1641,1643,1633,1633,1656,1657,1648,1649,1640,1641,1643,1633,1633,1633,1633,1633,1633,1634,1658,1644,1642,1649,1649,1649,1649,1650,1658,2082,2049,2048,2050,2084,1656,1657,1648,1649,1649,1649,1649,1649,1649,1640,1643,1633,1633,1633,1656,1657,1648,1649,1632,1633,1633,1633,1633,1633,1644,1642,1644,1642,1650,1657,1657,1657,1657,1658,2082,2049,2048,2048,2048,2050,2068,2084,1656,1657,1657,1657,1657,1657,1657,1648,1640,1643,1633,1633,1633,1633,1656,1657,1632,1633,1633,1633,1633,1633,1634,1650,1634,1650,1658,2082,2068,2068,2068,2069,2077,2076,2076,2056,2048,2048,2048,2050,2068,2084,1633,1633,1633,2082,2084,1656,1648,1640,1641,1641,1641,1643,1633,1633,1640,1641,1643,1633,1633,1633,1634,1658,1634,1658,2082,2049,2048,2048,2052,2086,1624,1625,1626,2064,2048,2048,2048,2048,2048,2072,1633,1633,1633,2064,2072,1633,1656,1648,1649,1649,1649,1640,1643,1633,1648,1649,1640,1641,1643,1633,1634,2858,1634,2082,2049,2048,2048,2052,2086,1624,1635,1633,1634,2064,2048,2048,2048,2052,2076,2086,2858,2082,2068,2049,2050,2068,2084,1656,1657,1657,1657,1648,1640,1643,1656,1657,1648,1649,1632,1633,1634,2848,1634,2064,2048,2048,2052,2086,1624,2858,1633,1644,1642,2064,2048,2048,2052,2086,2851,2849,2855,2064,2048,2048,2048,2048,2050,2068,2068,2068,2084,1656,1648,1640,1643,1633,1656,1657,1632,1633,1634,2848,1634,2088,2056,2048,2072,1624,1635,2860,1644,1642,1658,2064,2048,2052,2086,2851,2855,2082,2068,2049,2048,2048,2048,2048,2048,2048,2048,2048,2050,2084,1656,1648,1640,1643,1633,1633,1632,1633,1634,2860,1636,1626,2088,2056,2072,1640,1633,1633,1642,1658,2082,2049,2052,2086,2851,2855,2082,2049,2048,2048,2048,2052,2076,2076,2076,2076,2056,2048,2048,2050,2084,1656,1648,1632,1633,1633,1632,1633,1636,1626,2862,1636,1626,2064,2072,1656,1560,1562,1658,2082,2053,2076,2086,2851,2855,2082,2049,2048,2048,2048,2052,2086,1624,1625,1625,1626,2088,2056,2048,2048,2050,2084,1656,1632,1633,1633,1632,1633,2852,1636,1626,2862,1634,2064,2050,2084,2859,2838,2852,2088,2086,2851,2849,2855,2082,2049,2048,2048,2048,2048,2072,1624,1635,1633,1633,1636,1626,2088,2056,2048,2048,2050,2084,1632,1633,1633,1632,1633,2818,2852,1636,1626,1634,2064,2048,2050,2084,2856,2826,2836,2837,2855,2082,2068,2049,2048,2048,2048,2048,2052,2086,1632,1633,1633,1633,1633,1636,1626,2064,2048,2048,2048,2072,1632,1633,1624,1635,1633,2816,2818,2852,1634,1634,2064,2048,2048,2054,2093,2832,2820,2854,2082,2049,2048,2048,2048,2048,2048,2048,2072,1624,1635,1633,1633,1633,1633,1633,1634,2064,2048,2048,2048,2072,1640,1643,1632,1633,1633,2816,2816,2840,1634,1634,2064,2048,2048,2072,2850,2817,2840,2082,2049,2048,2048,2048,2048,2048,2048,2048,2072,1632,1633,1633,1633,1633,1633,1633,1634,2064,2048,2048,2048,2072,1648,1632,1632,1633,1633,2816,2816,2840,1634,1634,2088,2056,2048,2072,2832,2820,2854,2064,2048,2048,2048,2048,2048,2048,2048,2052,2086,1632,1633,1633,1633,1633,1633,1633,1634,2064,2048,2048,2048,2072,1656,1632,1632,1633,1633,2816,2820,2854,1634,1636,1626,2064,2052,2086,2832,2840,2082,2049,2048,2048,2048,2048,2048,2052,2076,2086,1624,1635,1633,1633,1633,1633,1633,1644,1642,2064,2048,2048,2048,2050,2084,1632,1640,1643,1633,2816,2840,1644,1642,2858,1634,2064,2072,2850,2817,2840,2064,2048,2048,2048,2048,2052,2076,2086,1624,1625,1635,1633,1633,1633,1633,1633,1644,1642,1650,2064,2048,2048,2048,2048,2072,1632,1648,1640,1643,2816,2840,1634,1650,2848,1634,2064,2072,2856,2824,2840,2064,2048,2048,2048,2048,2072,1624,1625,1635,1633,1633,1633,1633,1633,1633,1633,1634,1650,1658,2064,2048,2048,2048,2048,2072,1632,1656,1648,1632,2816,2840,1634,1658,2848,1634,2064,2050,2084,2832,2840,2064,2048,2048,2048,2048,2072,1640,1633,1643,1633,1633,1633,1633,1633,1633,1633,1634,1658,2082,2049,2048,2048,2048,2048,2072,1640,1643,1656,1632,2820,2854,1634,2850,2842,1634,2064,2048,2072,2832,2840,2088,2056,2048,2048,2048,2072,1648,1563,1632,1633,1633,1633,1633,1633,1633,1633,1634,2082,2049,2048,2048,2048,2048,2048,2072,1648,1632,1633,1632,2854,1644,1642,2832,2840,1634,2064,2048,2072,2832,2818,2852,2064,2048,2048,2052,2086,1656,1563,1632,1633,1633,1633,1633,1633,1633,1633,1634,2064,2048,2048,2048,2048,2048,2048,2072,1656,1632,1633,1632,1644,1642,1650,2832,2840,1634,2064,2048,2072,2856,2844,2841,2088,2076,2076,2086,2850,2836,2852,1632,1633,1633,1633,1633,1633,1633,1644,1642,2064,2048,2052,2076,2076,2056,2048,2050,2084,1632,1633,1632,1634,1650,1658,2834,2854,1634,2064,2048,2050,2068,2084,2833,2836,2836,2836,2836,2821,2844,2854,1640,1643,1633,1633,1633,1633,1644,1642,1650,2064,2048,2072,2850,2852,2064,2048,2048,2072,1632,1633,1632,1634,1658,2859,2855,1644,1642,2064,2048,2048,2048,2072,2832,2820,2844,2844,2844,2854,2082,2084,1648,1640,1641,1641,1641,1641,1642,1650,1658,2064,2052,2086,2832,2840,2064,2048,2048,2072,1632,1633,1632,1634,2858,1633,1644,1642,1650,2064,2048,2048,2048,2072,2856,2841,2082,2068,2068,2068,2049,2072,1656,1648,1649,1649,1649,1649,1650,1658,2082,2049,2072,2850,2817,2840,2088,2056,2052,2086,1632,1633,1632,1634,2848,1644,1642,1650,1658,2064,2048,2048,2048,2050,2084,2848,2064,2048,2048,2048,2048,2050,2084,1656,1657,1657,1657,1657,1658,2082,2049,2052,2086,2832,2816,2818,2852,2088,2086,1624,1635,1633,1632,1634,2848,1634,1650,1658,2858,2064,2048,2048,2048,2048,2072,2848,2088,2056,2048,2048,2048,2048,2050,2068,2068,2068,2068,2068,2068,2049,2048,2072,2850,2817,2816,2816,2822,2861,1624,1635,1633,1633,1632,1634,2848,1634,1658,2850,2842,2088,2076,2056,2048,2048,2072,2857,2853,2064,2048,2048,2048,2048,2048,2048,2048,2048,2048,2048,2048,2048,2052,2086,2832,2816,2816,2820,2854,1624,1635,1633,1633,1633,1632,1634,2848,1634,2859,2825,2818,2836,2852,2088,2076,2056,2050,2084,2848,2088,2076,2056,2048,2048,2048,2048,2048,2048,2052,2076,2076,2076,2086,2850,2817,2816,2820,2854,1624,1635,1633,1633,1633,1624,1635,1634,2860,1636,1626,2856,2824,2816,2818,2836,2852,2064,2052,2086,2833,2836,2852,2088,2076,2076,2076,2076,2076,2076,2086,2850,2836,2836,2836,2817,2816,2820,2854,1624,1635,1633,1624,1625,1625,1635,2850,1636,1626,2862,1636,1626,2856,2824,2816,2816,2840,2088,2086,2850,2817,2816,2818,2836,2836,2836,2836,2836,2836,2836,2837,2845,2844,2844,2844,2844,2844,2854,1624,1635,1633,1624,1635,2850,2836,2836,2817,2852,1636,1626,2862,1636,1626,2856,2844,2844,2846,2849,2849,2845,2824,2816,2816,2816,2816,2816,2816,2816,2820,2844,2854,1624,1625,1625,1625,1625,1625,1625,1635,1633,1624,1635,2850,2817,2816,2816,2816,2818,2852,1636,1626,2862,1636,1625,1625,1625,1625,1625,1625,1626,2856,2844,2824,2816,2816,2816,2816,2820,2854,1624,1625,1635,2851,2849,2849,2861,1624,1625,1625,1625,1635,2850,2817,2816,2816,2816,2816,2816,2818,2852,1636,1626,2859,2849,2849,2849,2849,2849,2861,1636,1625,1626,2856,2844,2824,2816,2820,2854,1624,1635,2851,2849,2855,1624,1625,1625,1635,2850,2836,2836,2836,2817,2816,2816,2816,2816,2816,2816,2816,2818,2852,1636,1625,1625,1625,1625,1625,1625,1625,1626,2862,1636,1625,1626,2832,2816,2840,1624,1635,2859,2855,1624,1625,1635,2850,2836,2836,2817,2816,2816,2816,2816,2816,2816,2816,2816,2816,2816,2816,2816,2818,2836,2836,2836,2836,2836,2836,2836,2852,1636,1626,2850,2852,1634,2832,2816,2840,1632,2858,1624,1625,1635,2850,2836,2817,2816,2816,2816,2816,2816,2816,2816,2816,2816,2816,2816,2816,0,0,0,0,0,0,0,0,0,0,0,0,0,0,0,0,0,0,0,0,0,0,0,0,0,0,0,0,0,0,0,0,3024,3008,3008,3008,3008,3008,3008,3008,0,0,0,0,0,0,0,0,0,0,0,0,0,0,0,0,0,0,0,0,0,0,0,0,0,0,0,0,0,0,0,0,3024,3008,3008,3008,3008,3008,3008,3008,0,0,0,0,0,0,0,0,0,0,0,0,0,0,0,0,0,0,0,0,0,0,0,0,0,0,0,0,0,0,0,0,3048,3036,3036,3016,3008,3008,3008,3008,0,0,0,0,0,0,0,0,0,0,0,0,0,0,0,0,0,0,0,0,0,0,0,0,0,0,0,0,0,0,0,0,0,0,0,3048,3016,3008,3008,3008,0,0,0,0,0,0,0,0,0,0,0,0,0,0,0,0,0,0,0,0,0,0,0,0,0,0,0,0,0,0,0,0,0,0,0,0,3024,3008,3008,3008,0,0,0,0,0,0,0,0,0,0,0,2138,0,0,0,2138,0,0,0,0,0,0,0,0,0,0,0,0,0,0,0,0,0,0,0,0,3048,3036,3016,3008,0,0,0,0,0,0,0,0,0,0,2130,2099,2116,2117,2129,2107,2116,2132,0,0,0,0,0,0,0,0,0,0,0,0,0,0,0,0,0,0,0,0,3048,3036,0,0,0,0,0,2131,2129,2118,2116,2117,2125,2124,2124,2121,2190,2136,2124,2106,2116,2132,0,0,0,2130,2132,0,0,0,0,0,0,0,0,0,0,0,0,0,0,0,0,0,0,0,2130,2122,2190,2112,2100,2134,0,0,0,2113,2132,2187,2189,2112,2096,2120,0,0,0,2112,2120,0,0,0,0,0,0,0,0,0,0,0,0,0,0,0,0,0,0,2130,2097,2098,2116,2101,2134,0,0,0,0,2112,2098,2116,2116,2101,2124,2134,0,2130,2116,2097,2098,2116,2132,0,0,0,0,0,0,0,0,0,0,0,0,0,0,0,0,2112,2096,2096,2100,2134,3051,3041,3053,0,0,2112,2096,2096,2100,2134,0,0,0,2112,2096,2100,2124,2108,2126,2118,2116,2116,2132,0,0,0,0,0,0,0,0,0,0,0,0,2136,2104,2096,2120,0,0,0,0,0,0,2112,2096,2100,2134,0,0,2130,2116,2097,2096,2120,2190,2128,2190,2112,2096,2096,2098,2132,0,0,0,0,0,0,0,0,0,0,0,0,2136,2104,2120,0,0,0,0,0,2130,2097,2100,2134,0,3966,2130,2097,2100,2124,2124,2110,2129,2127,2129,2125,2104,2096,2096,2098,2132,0,0,0,0,0,0,0,0,0,0,0,0,2112,2120,0,0,0,0,2130,2101,2124,2134,0,0,2130,2097,2100,2134,2227,2237,2140,0,0,0,0,2136,2104,2096,2096,2098,2132,0,0,0,0,0,0,0,0,0,0,0,2112,2098,2132,0,0,0,2136,2134,0,0,0,2130,2097,2100,2134,2227,2231,2138,0,0,0,0,0,0,2136,2108,2124,2104,2098,2132,0,0,0,0,0,3028,3044,0,0,0,2112,2100,2126,2133,0,0,3962,0,0,2130,2117,2125,2124,2134,2227,2231,2131,2135,0,3042,3028,3044,0,0,0,2128,2234,2136,2124,2121,0,0,0,0,0,3008,3032,0,0,0,2112,2120,2190,2115,2141,3954,3946,0,2130,2101,2134,2226,2212,2213,2231,2130,2122,0,3042,3009,3008,3010,3028,3044,0,2128,2209,2212,2228,2128,0,0,0,0,0,3008,3032,0,0,0,2112,2098,2116,2122,3954,3925,3958,2130,2097,2120,2226,2193,2192,2216,2130,2097,2120,0,3024,3012,3036,3016,3008,3032,0,2128,2208,2192,2216,2128,0,0,0,0,0,3008,3032,0,0,0,2136,2104,2096,2120,3936,3944,0,2112,2096,2120,2208,2192,2196,2230,2112,2100,2134,0,3024,3032,3962,3024,3012,3046,0,2128,2208,2192,2216,2128,0,0,0,0,0,3008,3032,0,0,0,0,2112,2100,2134,3936,3944,2130,2097,2096,2120,2232,2220,2230,2131,2125,2134,0,0,3026,3046,3952,3026,3046,0,0,2128,2232,2200,2216,2113,2132,0,0,0,0,3008,3032,0,0,0,0,2112,2120,0,3936,3944,2112,2096,2096,2098,2116,2117,2129,2135,0,0,0,3043,3047,3954,3946,3040,0,0,0,2113,2132,2208,2216,2112,2120,0,0,0,0,3012,3046,0,0,0,0,2112,2120,0,3936,3944,2112,2100,2124,2104,2096,2120,0,0,0,0,3051,3047,3954,3921,3944,3040,0,0,0,2112,2120,2208,2216,2136,2121,0,0,0,0,3032,0,0,0,0,0,2112,2098,2132,3936,3944,2112,2120,2190,2112,2096,2120,0,0,0,0,3954,3940,3921,3920,3944,3040,0,0,2130,2097,2120,2232,2222,2237,2128,0,0,0,0,3046,0,0,0,0,0,2112,2096,2120,3960,3945,2136,2106,2116,2097,2096,2120,0,0,0,3954,3921,3920,3920,3924,3958,3052,0,2130,2097,2096,2098,2116,2116,2116,2122,0,0,0,0,0,0,0,0,0,0,2112,2096,2120,0,3964,0,2112,2096,2096,2100,2134,0,0,0,3960,3928,3920,3924,3958,3054,0,0,2112,2096,2096,2096,2096,2096,2096,2120,0,0,0,0,0,0,0,0,0,0,2112,2096,2120,0,0,0,2136,2124,2124,2134,0,0,0,0,0,3960,3948,3958,0,0,0,0,2112,2096,2100,2124,2124,2104,2096,2098,2132,0,0,0,0,0,0,0,0,0,2112,2096,2098,2116,2132,0,0,0,0,0,0,0,0,0,0,0,0,0,0,0,0,0,2112,2096,2120,0,3962,2112,2096,2096,2120,0,0,0,0,0,0,0,0,0,2114,2124,2124,2124,2121,0,0,0,0,0,0,2130,2132,0,0,0,0,0,0,0,0,0,2112,2100,2134,3954,3946,2112,2096,2096,2120,0,0,0,0,0,0,0,0,0,2128,2226,2212,2228,2128,0,0,2130,2117,2129,2129,2125,2121,0,0,0,0,0,0,0,0,2130,2097,2120,0,3936,3944,2136,2104,2100,2134,0,0,0,0,0,0,0,0,0,2128,2232,2200,2216,2137,2133,0,2112,2120,2226,2212,2228,2137,2133,0,0,0,0,0,0,2130,2097,2100,2134,0,3936,3944,0,2136,2134,0,0,0,0,0,0,0,0,0,0,2128,0,2232,2222,2229,2128,0,2136,2121,2232,2220,2202,2228,2137,2118,2116,2116,2116,2116,2116,2097,2096,2120,0,3954,3921,3944,0,0,0,0,0,0,0,0,0,0,0,0,0,2137,2129,2129,2133,2236,2128,0,0,2113,2116,2132,2232,2202,2228,2112,2096,2096,2096,2096,2096,2096,2100,2134,3954,3921,3920,3944,0,0,0,0,0,0,0,0,0,0,0,3954,3940,3940,3956,0,2137,2118,2099,2132,0,2136,2124,2106,2132,2232,2230,2112,2096,2096,2100,2124,2124,2124,2134,0,3936,3924,3948,3958,0,0,0,0,0,0,0,0,0,0,0,3960,3948,3928,3922,3956,0,2112,2100,2134,3962,0,0,2136,2126,2129,2129,2125,2124,2124,2134,0,0,0,0,3954,3925,3958,0,0,0,0,0,0,0,0,3042,0,0,0,0,0,0,3936,3920,3944,0,2136,2134,0,3937,3940,3956,0,0,0,0,0,0,0,0,0,0,3963,3953,3949,3958,0,0,0,0,0,0,0,0,3042,3009,0,0,0,0,0,0,3960,3948,3958,0,0,0,0,3960,3928,3922,3940,3940,3940,3956,0,0,0,0,0,0,0,0,0,0,0,0,0,0,0,0,0,3042,3009,3008,0,0,0,0,0,0,0,0,0,0,0,0,0,0,3960,3948,3948,3928,3920,3944,0,0,0,0,0,0,0,0,0,0,0,0,0,0,0,3042,3028,3009,3008,3008,3028,3044,0,0,0,0,0,0,0,0,0,0,0,0,0,0,0,3936,3920,3944,0,0,0,0,0,0,0,0,0,0,0,0,0,3042,3028,3009,3008,3008,3008,3008,3008,3032,0,0,0,0,0,0,0,0,0,0,0,0,0,0,0,3936,3920,3944,0,0,0,0,0,0,0,0,0,0,0,0,3042,3009,3008,3008,3008,3008,3008,3008,3008,3010,3044,0,0,0,0,0,0,0,0,0,0,0,0,0,0,3936,3920,3944,0,0,0,0,0,0,0,0,0,3042,3028,3028,3009,3008,3008,3008,3008,3008,3008,3008,0,0,0,0,0,0,0,0,0,0,0,0,0,0,0,0,0,0,0,0,0,0,0,0,0,0,0,0,0,0,0,0,0,0,0,0,0,0,0,0,0,121,0,0,0,0,0,0,0,0,0,0,0,0,0,0,0,0,0,0,0,0,0,0,0,0,0,0,0,0,0,0,0,0,0,0,0,0,0,0,0,0,0,0,0,0,0,0,0,0,0,0,0,0,0,0,0,0,0,0,0,0,0,0,0,0,0,0,0,0,0,0,0,0,121,0,0,0,0,0,0,0,0,0,0,0,0,0,0,0,0,0,0,0,0,0,0,0,0,0,0,0,0,0,0,0,0,0,0,0,0,0,0,0,0,0,0,0,0,0,0,0,0,0,0,0,0,0,0,0,0,0,0,0,0,0,0,0,0,0,0,0,0,0,0,0,0,0,0,0,0,0,0,0,0,0,0,0,0,0,0,0,0,0,0,0,0,0,0,0,0,0,0,0,0,0,0,0,0,0,0,0,0,0,0,0,0,121,0,0,0,202,0,0,0,0,0,0,0,0,0,0,0,0,0,0,0,0,0,0,0,0,0,0,0,0,0,0,0,0,0,0,0,0,0,0,0,0,0,0,0,121,0,0,0,0,0,0,0,0,0,0,0,0,0,0,0,0,0,0,0,0,0,0,0,0,0,0,0,0,0,0,0,0,0,0,0,0,0,0,0,0,0,0,0,0,0,0,0,0,0,0,0,0,0,0,0,0,0,0,0,120,0,0,0,0,0,0,0,0,0,0,0,0,0,0,0,0,0,0,0,0,0,0,0,0,0,0,0,0,0,120,121,0,0,0,0,0,0,0,0,0,0,0,0,0,0,0,0,0,0,0,0,0,0,0,0,0,0,0,0,0,0,0,0,0,0,0,0,0,0,0,0,0,0,0,0,0,0,0,0,0,0,0,0,0,0,0,0,0,0,0,0,0,0,0,0,0,0,0,0,0,0,0,0,0,0,0,0,0,0,0,0,0,0,0,0,0,0,0,0,0,0,0,0,0,0,0,0,0,0,0,0,0,0,0,0,0,0,0,0,0,0,0,0,0,0,0,0,0,0,0,0,0,0,0,0,0,0,0,0,0,0,0,0,0,0,0,0,0,0,0,0,0,0,0,0,0,0,0,0,0,0,0,0,0,0,0,0,0,0,0,0,0,0,0,0,0,0,0,0,0,0,0,0,0,0,0,0,0,0,0,0,0,0,0,120,0,0,0,0,0,0,0,0,0,120,0,0,0,0,0,0,0,0,0,0,0,0,0,0,0,0,0,0,0,0,0,0,0,0,0,0,0,0,0,0,0,0,0,0,0,0,0,0,0,0,0,0,0,0,0,0,0,0,0,0,0,0,0,0,0,0,0,0,0,0,0,0,0,0,0,0,0,0,0,0,0,0,0,0,0,0,0,0,0,0,0,0,0,0,121,0,0,0,0,0,0,0,0,0,0,0,0,0,0,0,0,0,0,0,0,0,120,0,0,0,0,0,0,0,0,0,0,0,0,0,0,0,0,0,120,0,0,0,0,0,0,0,0,0,0,0,0,0,0,0,0,0,0,0,0,0,0,0,0,0,0,0,0,0,0,0,0,0,0,0,0,120,121,120,121,0,0,0,0,0,0,0,0,0,0,0,0,0,0,0,0,0,0,0,0,0,0,0,0,0,0,0,0,0,0,0,0,0,0,0,0,0,0,0,0,0,0,0,0,0,0,0,0,0,0,0,0,0,0,0,0,0,0,0,0,0,0,0,0,0,0,0,0,0,0,0,0,0,0,0,0,0,0,0,0,0,0,0,0,0,0,0,0,0,0,0,0,0,0,0,0,0,0,0,0,0,0,0,0,0,0,0,0,0,0,0,0,0,0,0,0,0,0,0,0,0,0,0,0,0,0,0,0,0,0,0,0,0,0,0,0,0,0,0,0,0,0,0,0,0,0,0,0,0,0,0,0,0,0,0,0,0,0,0,0,0,0,0,0,0,0,0,0,0,0,0,0,0,0,0,0,0,0,0,0,0,0,0,0,0,0,0,0,0,0,0,0,0,0,0,0,0,0,0,0,0,0,120,0,0,0,0,0,0,0,0,0,0,0,0,0,0,0,0,0,0,0,0,0,0,0,0,0,0,0,0,0,0,0,0,0,0,0,0,0,0,0,0,0,0,0,0,0,0,0,0,0,0,0,0,0,0,0,0,0,0,0,0,0,0,0,0,0,0,0,0,0,0,0,0,0,0,0,0,0,0,0,0,0,0,0,0,0,0,0,0,0,0,0,0,0,0,0,0,0,0,0,0,0,0,0,0,0,0,0,0,0,0,0,0,0,0,0,0,0,0,0,0,0,0,0,0,0,0,0,0,0,0,0,0,0,0,0,0,0,0,0,0,0,0,0,0,0,0,0,0,0,0,0,0,0,0,0,0,0,0,0,0,0,0,0,0,0,0,0,0,0,0,0,0,0,0,0,0,0,0,0,0,0,0,0,0,0,0,0,0,0,0,0,0,0,0,0,0,0,0,0,0,0,0,0,0,0,0,0,0,0,0,0,0,0,0,0,0,0,0,0,0,0,0,0,0,0,0,0,0,0,0,0,0,0,0,0,0,0,0,0,0,0,0,0,0,0,0,0,0,0,0,0,0,0,0,0,0,0,0,0,0,0,0,0,0,0,0,0,0,0,0,0,0,0,0,0,0,0,0,0,0,0,0,0,0,0,0,0,0,0,0,0,0,0,0,0,0,0,0,0,0,0,0,0,0,0,0,0,0,0,0,0,120,0,0,0,0,0,0,0,0,121,0,0,0,0,0,0,0,0,0,0,0,0,0,0,0,0,0,0,0,0,0,0,0,0,0,0,0,0,0,0,0,0,0,0,0,0,0,0,0,0,0,0,0,0,0,0,0,0,0,0,0,0,0,0,0,0,0,0,0,0,0,0,0,0,0,0,0,0,0,0,0,0,0,0,0,0,0,0,0,0,0,0,0,0,0,0,0,0,0,0,0,0,0,0,0,0,0,0,0,0,0,0,0,0,0,0,0,0,0,0,0,0,0,0,0,0,0,0,0,0,0,0,0,0,0,0,0,0,0,0,0,0,120,0,0,0,0,0,0,0,0,0,0,0,0,0,0,0,0,0,0,0,0,0,0,0,0,0,0,0,0,0,0,0,0,0,0,0,0,0,0,0,0,0,0,0,0,0,0,0,0,0,0,0,0,0,0,0,0,0,0,0,0,0,0,0,0,0,0,0,0,0,0,0,0,0,0,0,0,0,0,0,0,0,0,0,0,0,0,0,0,0,0,0,0,0,0,0,0,0,0,0,0,0,0,121,0,0,0,0,0,0,0,0,0,0,0,0,0,0,0,0,0,0,0,0,0,0,0,0,0,0,0,0,0,0,0,0,0,0,0,0,0,0,0,0,0,0,0,0,0,0,0,0,0,0,0,0,0,0,0,0,0,0,0,0,0,0,0,0,0,0,0,0,0,0,0,0,0,0,0,0,0,0,0,0,0,0,0,0,0,0,0,0,0,0,0,0,0,0,0,0,0,0,0,0,0,0,0,0,0,0,0,0,0,0,0,0,0,0,0,0,0,0,112,113,0,112,113,0,0,0,0,0,0,0,0,0,0,0,0,0,0,0,0,0,0,112,113,0,0,0,0,0,0,0,0,0,0,0,0,0,0,0,120,112,113,120,121,0,0,0,0,0,0,0,0,0,0,0,203,112,113,0,0,0,0,120,121,0,0,0,0,0,112,113,0,112,113,0,0,112,113,0,0,120,121,0,0,0,0,112,113,0,97,0,0,0,0,0,0,120,121,0,0,0,0,0,0,194,0,0,0,0,120,121,0,120,112,113,0,120,121,0,0,0,0,0,0,112,113,120,121,0,0,0,0,0,0,0,0,97,0,112,113,0,0,203,0,202,203,0,0,194,0,0,0,0,120,121,0,0,0,0,112,113,0,0,0,120,121,0,0,0,0,203,0,0,0,0,0,195,0,120,121,0,87,0,0,0,112,113,0,202,0,194,0,0,0,0,0,0,112,113,120,121,0,0,0,195,0,194,195,0,0,0,0,0,0,0,0,0,0,194,0,0,194,0,195,0,120,112,113,0,112,113,0,0,0,0,112,113,120,121,0,0,0,0,0,203,0,202,0,0,0,0,0,0,0,0,0,0,0,202,195,0,202,203,0,0,0,120,121,87,120,112,113,0,0,0,120,121,0,0,0,0,0,0,0,0,0,0,0,0,0,112,113,0,0,0,0,0,0,0,0,178,0,0,0,0,0,0,0,0,0,120,121,0,0,0,0,0,0,112,0,112,113,0,0,0,0,0,0,0,112,113,121,0,0,0,0,0,0,0,0,90,87,0,0,0,0,0,195,194,0,0,0,0,0,0,0,0,0,120,0,112,113,0,0,0,0,0,0,0,120,121,0,0,0,0,0,0,0,0,0,0,0,0,0,0,0,0,203,202,0,0,0,0,112,113,0,0,0,0,0,120,121,0,191,0,0,0,99,0,171,0,0,0,191,0,0,0,90,0,0,0,0,191,0,0,0,0,0,0,0,0,0,0,120,121,112,113,0,0,0,0,0,0,0,191,0,0,0,0,0,0,0,0,0,0,0,0,0,0,0,0,190,0,0,0,0,0,0,0,0,0,0,0,0,0,120,121,0,0,0,0,0,112,113,0,0,0,0,0,0,203,0,0,0,0,0,0,0,0,0,0,0,0,0,0,112,113,191,0,191,0,0,0,0,0,112,113,0,112,97,0,0,120,121,0,0,0,0,0,0,0,0,0,0,91,0,0,0,0,0,0,0,0,0,112,113,121,0,0,0,0,0,0,0,112,113,121,0,120,0,0,0,0,0,0,0,0,0,0,87,0,0,90,0,0,0,0,0,191,0,0,0,0,0,120,121,0,0,0,0,0,0,0,0,120,121,0,0,0,112,113,0,0,0,0,0,0,0,0,90,0,0,0,0,0,0,0,0,0,0,0,0,112,113,0,0,0,0,0,0,0,0,0,0,0,0,0,0,0,120,112,113,0,0,0,0,0,0,0,0,0,0,0,0,0,0,0,0,0,191,0,112,113,121,171,0,87,112,113,0,0,0,0,0,0,0,0,112,113,112,113,121,0,0,0,0,0,0,0,0,0,0,0,0,0,0,0,0,0,0,0,120,121,0,98,91,0,120,121,0,0,0,0,0,0,0,0,112,113,112,113,0,0,0,0,0,0,0,0,90,0,0,0,0,0,0,0,0,0,0,0,0,179,0,0,90,0,0,0,0,0,0,0,0,0,0,0,120,121,120,121,0,0,0,0,0,0,0,0,0,0,0,189,0,0,0,0,0,0,112,113,0,0,0,0,179,0,0,0,0,0,0,0,0,0,0,0,0,0,0,0,0,0,87,0,0,0,87,91,0,0,189,0,0,0,0,0,0,0,120,121,0,97,91,0,0,0,0,0,0,0,0,0,0,0,0,0,0,0,0,0,0,0,0,0,0,0,178,0,0,0,0,0,0,0,0,87,0,0,0,0,0,0,0,90,0,0,194,0,0,0,0,0,0,0,0,0,0,0,0,0,0,0,112,113,0,0,0,97,0,0,0,0,0,0,0,0,0,0,0,91,0,0,87,0,87,0,202,0,0,0,0,0,0,0,0,112,113,0,97,0,178,112,113,121,0,0,0,0,0,0,0,0,0,0,0,195,0,0,0,0,178,0,0,112,113,0,0,0,0,0,0,0,0,0,0,120,121,0,0,0,0,120,121,0,0,0,0,90,0,0,0,0,0,0,0,0,0,0,87,0,90,97,0,120,121,0,0,191,0,191,0,0,0,0,203,0,0,0,0,0,0,0,112,113,0,190,0,179,0,0,0,0,0,0,90,0,0,0,0,0,0,112,113,179,0,0,0,0,0,112,113,0,0,0,0,112,113,0,0,0,0,0,120,121,0,0,0,0,0,0,0,0,0,0,0,0,0,0,112,113,0,120,121,0,0,194,0,0,0,120,121,0,191,0,0,120,121,0,0,0,112,113,0,0,0,0,0,0,0,0,0,0,0,0,0,0,0,0,120,121,0,0,0,0,0,202,0,0,0,0,0,0,0,0,0,0,0,0,0,0,120,121,0,195,0,0,0,0,0,0,0,0,0,0,0,0,0,0,0,0,195,0,194,0,0,0,0,0,0,0,0,112,113,0,0,0,179,0,0,112,113,0,0,0,0,0,0,0,0,0,0,0,0,0,0,0,0,0,0,203,203,203,202,0,0,0,0,0,0,171,98,120,121,0,112,113,0,0,0,120,121,195,112,113,0,0,0,0,0,0,0,0,0,0,0,0,0,0,0,0,0,0,0,0,0,0,0,178,0,0,0,0,0,112,113,121,0,0,0,0,0,0,120,112,113,0,0,0,0,0,0,0,0,0,0,0,0,0,0,0,191,0,0,0,191,0,0,0,0,112,113,0,0,120,121,0,0,0,0,0,0,0,0,120,121,0,112,113,0,0,0,0,0,0,0,0,0,0,0,191,0,0,112,113,0,0,0,0,98,120,121,0,179,0,0,0,0,0,0,0,0,0,0,0,0,0,120,121,0,0,0,0,0,0,0,0,112,113,0,0,0,0,120,121,0,0,0,0,0,0,0,0,0,0,0,0,0,0,0,0,0,0,0,100,97,0,0,0,0,0,0,0,91,0,0,112,113,121,0,0,0,0,0,0,0,0,98,100,0,0,0,98,0,0,87,0,0,0,0,0,0,0,0,0,0,0,97,0,0,0,0,0,0,0,0,120,121,0,0,91,178,0,112,113,0,0,0,0,0,87,0,0,0,0,0,112,113,0,112,113,0,0,0,0,0,0,0,0,0,0,0,87,0,178,0,0,0,0,0,0,0,0,120,121,0,87,0,0,0,0,0,0,0,0,0,120,121,0,120,112,113,0,0,97,0,91,0,0,87,0,0,0,0,0,0,91,0,0,0,112,113,0,0,0,0,0,0,0,0,97,0,112,113,0,97,0,112,113,91,120,121,0,0,0,0,0,0,0,0,0,0,0,0,0,0,0,0,0,0,120,121,0,0,0,0,112,113,87,0,0,0,120,121,0,0,0,120,121,0,0,0,87,0,91,0,112,113,0,97,87,0,0,0,87,0,0,0,0,0,0,0,0,0,98,0,120,121,0,0,97,0,0,0,179,0,0,0,0,0,0,0,0,0,0,0,0,0,0,0,0,0,0,0,0,0,0,0,0,0,0,0,0,0,0,0,0,0,0,0,0,0,0,0,0,0,0,0,0,0,0,0,0,0,0,0,0,0,0,0,0,0,0,0,0,0,0,0,0,0,0,0,0,0,0,0,0,0,0,0,0,0,0,0,0,0,0,0,0,0,0,0,0,0,0,0,0,0,0,5,0,0,0,0,0,0,0,0,0,0,0,0,0,0,0,0,0,0,0,0,0,0,0,0,0,0,0,0,0,0,0,0,0,0,5,0,0,0,0,0,0,0,0,0,0,0,0,0,0,0,0,0,0,0,0,0,0,0,0,0,0,0,0,0,0,0,0,0,0,0,0,0,0,5,0,0,0,0,0,0,0,0,0,0,0,0,0,0,0,0,0,0,0,0,0,0,0,0,0,0,0,0,0,0,0,0,0,0,0,0,0,0,5,0,0,0,0,0,0,0,5,0,0,0,0,0,0,0,0,0,0,0,0,0,0,0,0,0,0,0,0,0,0,0,0,0,0,0,0,0,0,5,0,0,0,0,0,0,0,5,0,0,0,0,0,0,0,0,0,0,0,0,0,0,0,0,0,0,0,0,0,0,0,0,0,0,0,0,0,0,0,5,0,0,5,0,0,0,0,0,0,0,0,0,0,0,0,0,0,0,0,0,0,0,0,0,0,0,0,0,0,0,0,0,0,0,0,0,0,0,0,5,0,5,0,0,0,0,0,0,0,0,0,0,0,0,0,0,0,0,0,0,0,0,0,0,0,0,0,0,0,0,0,0,0,0,0,0,0,0,5,0,5,0,0,0,0,0,0,0,0,0,5,0,0,0,0,0,0,0,0,0,0,0,0,0,0,0,0,0,0,0,0,0,0,0,0,0,0,0,5,0,5,0,0,0,0,0,0,0,0,0,5,0,0,0,0,0,0,0,0,0,0,0,0,0,0,0,0,0,0,0,0,0,0,0,0,0,0,0,5,0,5,0,0,0,0,0,0,0,0,0,5,0,0,0,0,0,0,0,0,0,0,0,0,0,0,0,0,0,0,0,0,0,0,0,0,0,0,0,5,0,0,0,0,0,0,0,0,0,0,5,0,0,0,0,0,0,0,0,0,0,0,0,0,0,0,0,0,0,0,0,0,0,0,0,0,0,0,0,0,0,0,0,0,0,0,0,0,0,5,0,0,0,0,0,0,0,0,0,0,0,0,0,0,0,0,0,0,0,0,0,0,0,0,0,0,0,0,0,0,0,0,0,5,0,0,0,0,0,0,0,0,0,0,0,0,0,0,0,0,0,0,0,0,0,0,0,0,0,0,0,0,0,0,0,0,0,0,0,0,0,0,0,5,0,0,0,0,0,0,0,0,0,0,0,0,0,0,0,0,0,0,0,0,0,0,0,0,0,0,0,0,0,0,0,0,0,0,0,0,0,0,5,5,0,0,0,0,0,0,0,0,0,0,0,0,0,0,0,0,0,0,0,0,0,0,0,0,5,0,0,0,0,0,0,0,0,0,0,0,0,0,5,5,0,0,0,0,0,0,0,0,0,0,0,0,0,0,0,0,0,0,0,0,0,0,0,0,5,0,0,0,0,0,0,0,0,0,0,0,0,0,5,5,0,0,0,0,0,0,0,0,0,0,0,0,0,0,0,0,0,0,0,0,0,0,0,0,5,0,0,0,0,0,0,0,0,0,0,0,0,0,5,0,0,0,0,0,0,0,0,0,0,0,0,0,0,0,0,0,0,0,0,0,0,0,0,0,5,0,0,0,0,0,0,0,0,0,0,0,0,0,5,0,5,0,0,0,0,0,0,0,0,0,0,0,0,0,0,0,0,0,0,0,0,0,0,0,5,0,0,0,0,0,0,0,0,0,0,0,0,0,5,0,5,0,0,0,0,0,0,0,0,0,0,0,0,0,0,0,0,0,0,0,0,0,0,0,5,0,0,0,0,0,0,0,0,0,0,0,0,0,5,0,5,0,0,0,0,0,0,0,0,0,0,0,0,0,0,0,0,0,0,0,0,0,0,5,0,0,0,0,0,0,0,0,0,0,0,0,0,5,0,0,5,0,0,0,0,0,0,0,0,0,0,0,0,0,0,0,0,0,0,0,0,0,5,0,0,0,0,0,0,0,0,0,0,0,0,0,0,5,0,0,5,0,0,0,0,0,0,0,0,0,0,0,0,0,0,0,0,0,0,0,0,0,5,0,0,0,0,0,0,0,0,0,0,0,0,0,0,5,0,0,5,0,0,0,0,0,0,0,0,0,0,0,0,0,0,0,0,0,0,0,0,0,5,0,0,0,0,0,0,0,0,0,0,0,0,0,0,5,0,0,5,0,0,0,0,0,0,0,0,0,0,0,0,0,0,0,0,0,0,0,0,0,5,0,0,0,0,0,0,0,0,0,0,0,0,0,5,0,0,0,0,0,0,0,0,0,0,0,0,0,0,0,0,0,0,0,0,0,0,0,0,0,5,0,0,0,0,0,0,0,0,0,0,0,0,5,0,0,0,0,0,0,0,0,0,0,0,0,0,0,0,0,0,0,0,0,0,0,0,0,0,5,0,0,0,0,0,0,0,0,0,0,0,0,0,5,0,0,0,0,0,0,0,0,0,0,0,0,0,0,0,0,0,0,0,0,0,0,0,0,5,0,0,0,0,0,0,0,0,0,0,0,0,0,0,5,0,0,0,5,0,0,0,0,0,0,0,0,0,0,0,0,0,0,0,0,0,0,0,0,0,0,0,0,0,0,0,0,0,0,0,0,0,0,0,5,0,0,5,0,0,0,0,0,0,0,0,0,0,0,0,0,0,0,0,0,0,0,0,0,0,0,0,0,0,0,0,0,0,0,0,0,0,0,0,5,0,5,0,0,0,0,0,0,0,0,0,0,0,0,0,0,0,0,0,0,0,0,0,0,0,0,0,0,0,0,0,0,0,0,0,0,0,0,0,5,0,0,0,0,0,0,0,0,0,0,0,0,0,0,0,0,0,0,0,0,0,0,0,0,0,0,0,0,0,0,0,0,0,0,0,0,0,0,0,0,0,0,0,0,0,0,0,0,0,0,0,0,0,0,0,0,0,0,0,0,0,0,0,0,0,0,0,0,0,0,0,0,0,0,0,0,0,0,0,0,0,0,0,0,0,0,0,0,0,0,0,0,0,0,0,0,0,0,0,0,0,0,0,0,0,0,0,0,0,0,0,0,0,0,0,0,0,0,0,0,0,0,0,0,0,0,0,0,0,0,0,0,0,0,0,0,0,0,0,0,0,0,0,0,0,0,0,0,0,0,0,0,0,0,0,0,0,0,0,0,0,0,0,0,0,0,0,0,0,0,0,0,0,0,0,0,0,0,0,0,0,0,0,0,0,0,0,0,0,0,0,0,0,0,0,0,0,0,0,0,0,0,0,0,0,0,0,0,0,0,0,0,0,0,0,0,0,0,0,0,0,0,0,0,0,0,0,0,0,0,0,0,0,0,0,0,0,0,0,0,0,0,0,0,0,0,0,0,0,0,0,0,0,0,0,5,0,0,0,0,0,0,0,0,0,0,0,0,0,0,0,0,0,0,0,0,0,0,0,0,0,0,0,0,0,0,0,0,0,0,0,0,0,0,0,0,0,0,0,0,0,0,0,0,0,0,0,0,0,0,0,0,0,0,0,0,0,0,0,0,0,0,0,0,0,0,0,0,0,0,0,0,0,0,0,0,0,0,0,0,0,0,0,0,0,0,0,0,0,0,0,0,0,0,0,0,0,0,0,0,0,0,0,0,0,0,0,0,0,0,0,0,0,0,0,0,0,0,0,0,0,0,0,0,0,0,0,0,0,0,0,0,0,0,0,0,0,0,0,0,0,0,0,0,0,0,0,0,0,0,0,0,0,0,0,0,0,0,0,0,0,0,0,0,0,0,0,0,0,0,0,0,0,0,0,0,0,0,0,0,0,0,0,0,0,0,0,0,0,0,0,0,0,0,0,0,0,0,0,0,0,0,0,0,0,0,0,0,0,0,0,0,0,0,0,0,0,0,0,0,0,0,0,0,0,0,0,0,0,0,0,0,0,0,0,0,0,0,0,0,0,0,0,0,0,0,0,0,0,0,0,0,0,0,0,0,0,0,0,0,0,0,0,0,0,0,0,0,0,0,0,0,0,0,0,0,0,0,0,0,0,0,0,0,0,0,0,0,0,0,0,0,0,0,0,0,0,0,0,0,0,0,0,0,0,0,0,0,0,0,0,0,0,0,0,0,0,0,0,0,0,0,0,0,0,0,0,0,0,0,0,0,0,0,0,0,0,0,0,0,0,0,0,0,0,0,0,0,0,0,0,0,0,0,0,0,0,0,0,0,0,0,0,0,0,0,0,0,0,0,0,0,0,0,0,0,0,0,0,0,0,0,0,0,0,0,0,0,0,0,0,0,0,0,0,0,0,0,0,0,0,0,0,0,0,0,0,0,0,0,0,0,0,0,0,0,0,0,0,0,0,0,0,0,0,0,0,0,0,0,0,0,0,0,0,0,0,0,0,0,0,0,0,0,0,0,0,0,0,0,0,0,0,0,0,0,0,0,0,0,0,0,0,0,0,0,0,0,0,0,0,0,0,0,0,0,0,0,0,0,0,0,0,0,0,0,0,0,0,0,0,0,0,0,0,0,0,0,0,0,0,0,0,0,0,0,0,0,0,0,0,0,0,0,0,0,0,0,0,0,0,0,0,0,0,0,0,0,0,0,0,0,0,0,0,0,0,0,0,0,0,0,0,0,0,0,0,0,0,0,0,0,0,0,0,0,0,0,0,0,0,0,0,0,0,0,0,0,0,0,0,0,0,0,0,0,0,0,0,0,0,0,0,0,0,0,0,0,0,0,0,0,0,0,0,0,0,0,0,0,0,0,0,0,0,0,0,0,0,0,0,0,0,0,0,0,0,0,0,0,0,0,0,0,0,0,0,0,0,0,0,0,0,0,0,0,0,0,0,0,0,0,0,0,0,0,0,0,0,0,0,0,0,0,0,0,0,0,0,0,0,0,0,0,0,0,0,0,0,0,0,0,0,0,0,0,0,0,0,0,0,0,0,0,0,0,0,0,0,0,0,0,0,0,0,0,0,0,0,0,0,0,0,0,0,0,0,0,0,0,0,0,0,0,0,0,0,0,0,0,0,0,0,0,0,0,0,0,0,0,0,0,0,0,0,0,0,0,0,0,0,0,0,0,0,0,0,0,0,0,0,0,0,0,0,0,0,0,0,0,0,0,0,0,0,0,0,0,0,0,0,0,0,0,0,0,0,0,0,0,0,0,0,0,0,0,0,0,0,0,0,0,0,0,0,0,0,0,0,0,0,0,0,0,0,0,0,0,0,0,0,0,0,0,0,0,0,0,0,0,0,0,0,0,0,0,0,0,0,0,0,0,0,0,0,0,0,0,0,0,0,0,0,0,0,0,0,0,0,0,0,0,0,0,0,0,0,0,0,0,0,0,0,0,0,0,0,0,0,0,0,0,0,0,0,0,0,0,0,0,0,0,0,0,0,0,0,0,0,0,0,0,0,0,0,0,0,0,0,0,0,0,0,0,0,0,0,0,0,0,0,0,0,0,0,0,0,0,0,0,0,0,0,0,0,0,0,0,0,0,0,0,0,0,0,0,0,0,0,0,0,0,0,0,0,0,0,0,0,0,0,0,0,0,0,0,0,0,0,0,0,0,0,0,0,0,0,0,0,0,0,0,0,0,0,0,0,0,0,0,0,0,0,0,0,0,0,0,0,0,0,0,0,0,0,0,0,0,0,0,0,0,0,0,0,0,0,0,0,0,0,0,0,0,0,0,0,0,0,0,0,0,0,0,0,0,0,0,0,0,0,0,0,0,0,0,0,0,0,0,0,0,0,0,0,0,0,0,0,0,0,0,0,0,0,0,0,0,0,0,0,0,0,0,0,0,0,0,0,0,0,0,0,0,0,0,0,0,0,0,0,0,0,0,0,0,0,0,0,0,0,0,0,0,0,0,0,0,0,0,0,0,0,0,0,0,0,0,0,0,0,0,0,0,0,0,0,0,0,0,0,0,0,0,0,0,0,0,0,0,0,0,0,0,0,0,0,0,0,0,0,0,0,0,0,0,0,0,0,0,0,0,0,0,0,0,0,0,0,0,0,0,0,0,0,0,0,0,0,0,0,0,0,0,0,0,0,0,0,0,0,0,0,0,0,0,0,0,0,0,0,0,0,0,0,0,0,0,0,0,0,0,0,0,0,0,0,0,0,0,0,0,0,0,0,0,0,0,0,0,0,0,0,0,0,0,0,0,0,0,0,0,0,0,0,0,0,0,0,0,0,0,0,0,0,0,0,0,0,0,0,0,0,0,0,0,0,0,0,0,0,0,0,0,0,0,0,0,0,0,0,0,0,0,0,0,0,0,0,0,0,0,0,0,0,0,0,0,0,0,0,0,0,0,0,0,0,0,0,0,0,0,0,0,0,0,0,0,0,0,0,0,0,0,0,0,0,0,0,0,0,0,0,0,0,0,0,0,0,0,0,0,0,0,0,0,0,0,0,0,0,0,0,0,0,0,0,0,0,0,0,0,0,0,0,0,0,0,0,0,0,0,0,0,0,0,0,0,0,0,0,0,0,0,0,0,0,0,0,0,0,0,0,0,0,0,0,0,0,0,0,0,0,0,0,0,0,0,0,0,0,0,0,0,0,0,0,0,0,0,0,0,0,0,0,0,0,0,0,0,0,0,0,0,0,0,0,0,0,0,0,0,0,0,0,0,0,0,0,0,0,0,0,0,0,0,0,0,0,0,0,0,0,0,0,0,0,0,0,0,0,0,0,0,0,0,0,0,0,0,0,0,0,0,0,0,0,0,0,0,0,0,0,0,0,0,0,0,0,0,0,0,0,0,0,0,0,0,0,0,0,0,0,0,0,0,0,0,0,0,0,0,0,0,0,0,0,0,0,0,0,0,0,0,0,0,0,0,0,0,0,0,0,0,0,0,0,0,0,0,0,0,0,0,0,0,0,0,0,0,0,0,0,0,0,0,0,0,0,0,0,0,0,0,0,0,0,0,0,0,0,0,0,0,0,0,0,0,0,0,0,0,0,0,0,0,0,0,0,0,0,0,0,0,0,0,0,0,0,0,0,0,0,0,0,0,0,0,0,0,0,0,0,0,0,0,0,0],
"events":[
null,
{"id":1,"name":"EV001","note":"","pages":[{"conditions":{"actorId":1,"actorValid":false,"itemId":1,"itemValid":false,"selfSwitchCh":"A","selfSwitchValid":false,"switch1Id":1,"switch1Valid":false,"switch2Id":1,"switch2Valid":false,"variableId":1,"variableValid":false,"variableValue":0},"directionFix":true,"image":{"tileId":0,"characterName":"!Other2","direction":2,"pattern":0,"characterIndex":0},"list":[{"code":0,"indent":0,"parameters":[]}],"moveFrequency":3,"moveRoute":{"list":[{"code":0,"parameters":[]}],"repeat":true,"skippable":false,"wait":false},"moveSpeed":3,"moveType":0,"priorityType":1,"stepAnime":true,"through":false,"trigger":0,"walkAnime":true}],"x":12,"y":5},
{"id":2,"name":"EV002","note":"","pages":[{"conditions":{"actorId":1,"actorValid":false,"itemId":1,"itemValid":false,"selfSwitchCh":"A","selfSwitchValid":false,"switch1Id":1,"switch1Valid":false,"switch2Id":1,"switch2Valid":false,"variableId":1,"variableValid":false,"variableValue":0},"directionFix":true,"image":{"tileId":0,"characterName":"!Other2","direction":2,"pattern":0,"characterIndex":0},"list":[{"code":0,"indent":0,"parameters":[]}],"moveFrequency":3,"moveRoute":{"list":[{"code":0,"parameters":[]}],"repeat":true,"skippable":false,"wait":false},"moveSpeed":3,"moveType":0,"priorityType":1,"stepAnime":true,"through":false,"trigger":0,"walkAnime":true}],"x":13,"y":5},
{"id":3,"name":"EV003","note":"","pages":[{"conditions":{"actorId":1,"actorValid":false,"itemId":1,"itemValid":false,"selfSwitchCh":"A","selfSwitchValid":false,"switch1Id":1,"switch1Valid":false,"switch2Id":1,"switch2Valid":false,"variableId":1,"variableValid":false,"variableValue":0},"directionFix":true,"image":{"tileId":0,"characterName":"!Other2","direction":2,"pattern":0,"characterIndex":0},"list":[{"code":0,"indent":0,"parameters":[]}],"moveFrequency":3,"moveRoute":{"list":[{"code":0,"parameters":[]}],"repeat":true,"skippable":false,"wait":false},"moveSpeed":3,"moveType":0,"priorityType":1,"stepAnime":true,"through":false,"trigger":0,"walkAnime":true}],"x":14,"y":5},
{"id":4,"name":"EV004","note":"","pages":[{"conditions":{"actorId":1,"actorValid":false,"itemId":1,"itemValid":false,"selfSwitchCh":"A","selfSwitchValid":false,"switch1Id":1,"switch1Valid":false,"switch2Id":1,"switch2Valid":false,"variableId":1,"variableValid":false,"variableValue":0},"directionFix":true,"image":{"tileId":0,"characterName":"!Other2","direction":8,"pattern":0,"characterIndex":0},"list":[{"code":0,"indent":0,"parameters":[]}],"moveFrequency":3,"moveRoute":{"list":[{"code":0,"parameters":[]}],"repeat":true,"skippable":false,"wait":false},"moveSpeed":3,"moveType":0,"priorityType":1,"stepAnime":true,"through":false,"trigger":0,"walkAnime":true}],"x":12,"y":3},
{"id":5,"name":"EV005","note":"","pages":[{"conditions":{"actorId":1,"actorValid":false,"itemId":1,"itemValid":false,"selfSwitchCh":"A","selfSwitchValid":false,"switch1Id":1,"switch1Valid":false,"switch2Id":1,"switch2Valid":false,"variableId":1,"variableValid":false,"variableValue":0},"directionFix":true,"image":{"tileId":0,"characterName":"!Other2","direction":8,"pattern":0,"characterIndex":0},"list":[{"code":0,"indent":0,"parameters":[]}],"moveFrequency":3,"moveRoute":{"list":[{"code":0,"parameters":[]}],"repeat":true,"skippable":false,"wait":false},"moveSpeed":3,"moveType":0,"priorityType":1,"stepAnime":true,"through":false,"trigger":0,"walkAnime":true}],"x":13,"y":3},
{"id":6,"name":"EV006","note":"","pages":[{"conditions":{"actorId":1,"actorValid":false,"itemId":1,"itemValid":false,"selfSwitchCh":"A","selfSwitchValid":false,"switch1Id":1,"switch1Valid":false,"switch2Id":1,"switch2Valid":false,"variableId":1,"variableValid":false,"variableValue":0},"directionFix":true,"image":{"tileId":0,"characterName":"!Other2","direction":8,"pattern":0,"characterIndex":0},"list":[{"code":0,"indent":0,"parameters":[]}],"moveFrequency":3,"moveRoute":{"list":[{"code":0,"parameters":[]}],"repeat":true,"skippable":false,"wait":false},"moveSpeed":3,"moveType":0,"priorityType":1,"stepAnime":true,"through":false,"trigger":0,"walkAnime":true}],"x":14,"y":3},
{"id":7,"name":"EV007","note":"","pages":[{"conditions":{"actorId":1,"actorValid":false,"itemId":1,"itemValid":false,"selfSwitchCh":"A","selfSwitchValid":false,"switch1Id":1,"switch1Valid":false,"switch2Id":1,"switch2Valid":false,"variableId":1,"variableValid":false,"variableValue":0},"directionFix":true,"image":{"tileId":0,"characterName":"!Other2","direction":8,"pattern":0,"characterIndex":0},"list":[{"code":0,"indent":0,"parameters":[]}],"moveFrequency":3,"moveRoute":{"list":[{"code":0,"parameters":[]}],"repeat":true,"skippable":false,"wait":false},"moveSpeed":3,"moveType":0,"priorityType":1,"stepAnime":true,"through":false,"trigger":0,"walkAnime":true}],"x":12,"y":0},
{"id":8,"name":"EV008","note":"","pages":[{"conditions":{"actorId":1,"actorValid":false,"itemId":1,"itemValid":false,"selfSwitchCh":"A","selfSwitchValid":false,"switch1Id":1,"switch1Valid":false,"switch2Id":1,"switch2Valid":false,"variableId":1,"variableValid":false,"variableValue":0},"directionFix":true,"image":{"tileId":0,"characterName":"!Other2","direction":8,"pattern":0,"characterIndex":0},"list":[{"code":0,"indent":0,"parameters":[]}],"moveFrequency":3,"moveRoute":{"list":[{"code":0,"parameters":[]}],"repeat":true,"skippable":false,"wait":false},"moveSpeed":3,"moveType":0,"priorityType":1,"stepAnime":true,"through":false,"trigger":0,"walkAnime":true}],"x":13,"y":0},
{"id":9,"name":"EV009","note":"","pages":[{"conditions":{"actorId":1,"actorValid":false,"itemId":1,"itemValid":false,"selfSwitchCh":"A","selfSwitchValid":false,"switch1Id":1,"switch1Valid":false,"switch2Id":1,"switch2Valid":false,"variableId":1,"variableValid":false,"variableValue":0},"directionFix":true,"image":{"tileId":0,"characterName":"!Other2","direction":8,"pattern":0,"characterIndex":0},"list":[{"code":0,"indent":0,"parameters":[]}],"moveFrequency":3,"moveRoute":{"list":[{"code":0,"parameters":[]}],"repeat":true,"skippable":false,"wait":false},"moveSpeed":3,"moveType":0,"priorityType":1,"stepAnime":true,"through":false,"trigger":0,"walkAnime":true}],"x":14,"y":0},
{"id":10,"name":"EV010","note":"","pages":[{"conditions":{"actorId":1,"actorValid":false,"itemId":1,"itemValid":false,"selfSwitchCh":"A","selfSwitchValid":false,"switch1Id":1,"switch1Valid":false,"switch2Id":1,"switch2Valid":false,"variableId":1,"variableValid":false,"variableValue":0},"directionFix":true,"image":{"tileId":0,"characterName":"!Other2","direction":2,"pattern":0,"characterIndex":0},"list":[{"code":0,"indent":0,"parameters":[]}],"moveFrequency":3,"moveRoute":{"list":[{"code":0,"parameters":[]}],"repeat":true,"skippable":false,"wait":false},"moveSpeed":3,"moveType":0,"priorityType":1,"stepAnime":true,"through":false,"trigger":0,"walkAnime":true}],"x":12,"y":2},
{"id":11,"name":"EV011","note":"","pages":[{"conditions":{"actorId":1,"actorValid":false,"itemId":1,"itemValid":false,"selfSwitchCh":"A","selfSwitchValid":false,"switch1Id":1,"switch1Valid":false,"switch2Id":1,"switch2Valid":false,"variableId":1,"variableValid":false,"variableValue":0},"directionFix":true,"image":{"tileId":0,"characterName":"!Other2","direction":2,"pattern":0,"characterIndex":0},"list":[{"code":0,"indent":0,"parameters":[]}],"moveFrequency":3,"moveRoute":{"list":[{"code":0,"parameters":[]}],"repeat":true,"skippable":false,"wait":false},"moveSpeed":3,"moveType":0,"priorityType":1,"stepAnime":true,"through":false,"trigger":0,"walkAnime":true}],"x":13,"y":2},
{"id":12,"name":"EV012","note":"","pages":[{"conditions":{"actorId":1,"actorValid":false,"itemId":1,"itemValid":false,"selfSwitchCh":"A","selfSwitchValid":false,"switch1Id":1,"switch1Valid":false,"switch2Id":1,"switch2Valid":false,"variableId":1,"variableValid":false,"variableValue":0},"directionFix":true,"image":{"tileId":0,"characterName":"!Other2","direction":2,"pattern":0,"characterIndex":0},"list":[{"code":0,"indent":0,"parameters":[]}],"moveFrequency":3,"moveRoute":{"list":[{"code":0,"parameters":[]}],"repeat":true,"skippable":false,"wait":false},"moveSpeed":3,"moveType":0,"priorityType":1,"stepAnime":true,"through":false,"trigger":0,"walkAnime":true}],"x":14,"y":2},
{"id":13,"name":"Valha Found","note":"","pages":[{"conditions":{"actorId":1,"actorValid":false,"itemId":1,"itemValid":false,"selfSwitchCh":"A","selfSwitchValid":false,"switch1Id":1,"switch1Valid":false,"switch2Id":1,"switch2Valid":false,"variableId":1,"variableValid":false,"variableValue":0},"directionFix":false,"image":{"tileId":0,"characterName":"damageValha","direction":2,"pattern":0,"characterIndex":0},"list":[{"code":108,"indent":0,"parameters":["N start all shared"]},{"code":101,"indent":0,"parameters":["Kora",0,0,2]},{"code":401,"indent":0,"parameters":["\\C[14]\\N[1]:\\C[0]"]},{"code":401,"indent":0,"parameters":["Hmmm..."]},{"code":101,"indent":0,"parameters":["Kora",0,0,2]},{"code":401,"indent":0,"parameters":["\\C[14]\\N[1]:\\C[0]"]},{"code":401,"indent":0,"parameters":["Không biết hắn ta chết chưa nhỉ ?"]},{"code":101,"indent":0,"parameters":["Kora",0,0,2]},{"code":401,"indent":0,"parameters":["\\C[14]\\N[1]:\\C[0]"]},{"code":401,"indent":0,"parameters":["Này cậu gì ơi ! "]},{"code":101,"indent":0,"parameters":["Valha",0,0,2]},{"code":401,"indent":0,"parameters":["\\C[14]???:\\C[0]"]},{"code":401,"indent":0,"parameters":["..."]},{"code":101,"indent":0,"parameters":["Kora",0,0,2]},{"code":401,"indent":0,"parameters":["\\C[14]\\N[1]:\\C[0]"]},{"code":401,"indent":0,"parameters":["Hả ? Vẫn sống à ?"]},{"code":101,"indent":0,"parameters":["Kora",0,0,2]},{"code":401,"indent":0,"parameters":["\\C[14]\\N[1]:\\C[0]"]},{"code":401,"indent":0,"parameters":["Này đồ ngốc."]},{"code":101,"indent":0,"parameters":["Kora",0,0,2]},{"code":401,"indent":0,"parameters":["\\C[14]\\N[1]:\\C[0]"]},{"code":401,"indent":0,"parameters":["Ngủ đâu không ngủ lại ngủ ở giữa "]},{"code":401,"indent":0,"parameters":["đầm lầy vậy ?"]},{"code":101,"indent":0,"parameters":["Valha",0,0,2]},{"code":401,"indent":0,"parameters":["\\C[14]???:\\C[0]"]},{"code":401,"indent":0,"parameters":["Ah ! Đây là đâu vậy ?"]},{"code":101,"indent":0,"parameters":["Kora",0,0,2]},{"code":401,"indent":0,"parameters":["\\C[14]\\N[1]:\\C[0]"]},{"code":401,"indent":0,"parameters":["Như tôi đã nói. Đ...Ầ...M...L...Ầ...Y"]},{"code":101,"indent":0,"parameters":["Valha",0,0,2]},{"code":401,"indent":0,"parameters":["\\C[14]???:\\C[0]"]},{"code":401,"indent":0,"parameters":["Cô là ai vậy ?"]},{"code":101,"indent":0,"parameters":["Kora",0,0,2]},{"code":401,"indent":0,"parameters":["\\C[14]\\N[1]:\\C[0]"]},{"code":401,"indent":0,"parameters":["Cứ coi tôi là người đang đi "]},{"code":401,"indent":0,"parameters":["tham quan cũng được"]},{"code":101,"indent":0,"parameters":["Valha",0,0,2]},{"code":401,"indent":0,"parameters":["\\C[14]???:\\C[0]"]},{"code":401,"indent":0,"parameters":["Cô không nên đến đây ! Ở đây có ..."]},{"code":101,"indent":0,"parameters":["Kora",0,0,2]},{"code":401,"indent":0,"parameters":["\\C[14]\\N[1]:\\C[0]"]},{"code":401,"indent":0,"parameters":["Mấy con slime nhớt nháp đó à ? "]},{"code":401,"indent":0,"parameters":["Tôi xử lý chúng rồi."]},{"code":101,"indent":0,"parameters":["Valha",0,0,2]},{"code":401,"indent":0,"parameters":["\\C[14]???:\\C[0]"]},{"code":401,"indent":0,"parameters":["Không phải ! Còn 1 thứ nữa đang ẩn náu"]},{"code":401,"indent":0,"parameters":["ở đây ? Sức mạnh c...ủa..."]},{"code":101,"indent":0,"parameters":["Kora",0,0,2]},{"code":401,"indent":0,"parameters":["\\C[14]\\N[1]:\\C[0]"]},{"code":401,"indent":0,"parameters":["Mới tỉnh dậy đã lại ngủm rồi ?"]},{"code":101,"indent":0,"parameters":["Kora",0,0,2]},{"code":401,"indent":0,"parameters":["\\C[14]\\N[1]:\\C[0]"]},{"code":401,"indent":0,"parameters":["Có nên bỏ hắn ở đây không nhỉ ?"]},{"code":101,"indent":0,"parameters":["Kora",0,0,2]},{"code":401,"indent":0,"parameters":["\\C[14]\\N[1]:\\C[0]"]},{"code":401,"indent":0,"parameters":["Thôi lỡ gặp người ta rồi thì giúp cái vậy."]},{"code":101,"indent":0,"parameters":["Kora",0,0,2]},{"code":401,"indent":0,"parameters":["\\C[14]\\N[1]:\\C[0]"]},{"code":401,"indent":0,"parameters":["May cho hắn là có ngôi làng ngay gần đây."]},{"code":356,"indent":0,"parameters":["Autosave"]},{"code":121,"indent":0,"parameters":[1,1,0]},{"code":108,"indent":0,"parameters":["N all virtual"]},{"code":126,"indent":0,"parameters":[6,0,0,1]},{"code":0,"indent":0,"parameters":[]}],"moveFrequency":3,"moveRoute":{"list":[{"code":0,"parameters":[]}],"repeat":true,"skippable":false,"wait":false},"moveSpeed":3,"moveType":0,"priorityType":1,"stepAnime":false,"through":false,"trigger":0,"walkAnime":true},{"conditions":{"actorId":1,"actorValid":false,"itemId":1,"itemValid":false,"selfSwitchCh":"A","selfSwitchValid":false,"switch1Id":1,"switch1Valid":true,"switch2Id":1,"switch2Valid":false,"variableId":1,"variableValid":false,"variableValue":0},"directionFix":false,"image":{"characterIndex":0,"characterName":"","direction":2,"pattern":0,"tileId":0},"list":[{"code":123,"indent":0,"parameters":["A",0]},{"code":0,"indent":0,"parameters":[]}],"moveFrequency":3,"moveRoute":{"list":[{"code":0,"parameters":[]}],"repeat":true,"skippable":false,"wait":false},"moveSpeed":3,"moveType":0,"priorityType":0,"stepAnime":false,"through":false,"trigger":3,"walkAnime":true},{"conditions":{"actorId":1,"actorValid":false,"itemId":1,"itemValid":false,"selfSwitchCh":"A","selfSwitchValid":true,"switch1Id":1,"switch1Valid":false,"switch2Id":1,"switch2Valid":false,"variableId":1,"variableValid":false,"variableValue":0},"directionFix":false,"image":{"characterIndex":0,"characterName":"","direction":2,"pattern":0,"tileId":0},"list":[{"code":0,"indent":0,"parameters":[]}],"moveFrequency":3,"moveRoute":{"list":[{"code":0,"parameters":[]}],"repeat":true,"skippable":false,"wait":false},"moveSpeed":3,"moveType":0,"priorityType":0,"stepAnime":false,"through":false,"trigger":0,"walkAnime":true}],"x":27,"y":15},
{"id":14,"name":"SwampToWorld","note":"","pages":[{"conditions":{"actorId":1,"actorValid":false,"itemId":1,"itemValid":false,"selfSwitchCh":"A","selfSwitchValid":false,"switch1Id":1,"switch1Valid":false,"switch2Id":1,"switch2Valid":false,"variableId":1,"variableValid":false,"variableValue":0},"directionFix":false,"image":{"characterIndex":0,"characterName":"","direction":2,"pattern":0,"tileId":0},"list":[{"code":250,"indent":0,"parameters":[{"name":"Move1","pan":0,"pitch":100,"volume":90}]},{"code":201,"indent":0,"parameters":[0,2,24,14,0,0]},{"code":0,"indent":0,"parameters":[]}],"moveFrequency":3,"moveRoute":{"list":[{"code":0,"parameters":[]}],"repeat":true,"skippable":false,"wait":false},"moveSpeed":3,"moveType":0,"priorityType":0,"stepAnime":false,"through":false,"trigger":1,"walkAnime":true}],"x":17,"y":39},
{"id":15,"name":"SwampToWorld","note":"","pages":[{"conditions":{"actorId":1,"actorValid":false,"itemId":1,"itemValid":false,"selfSwitchCh":"A","selfSwitchValid":false,"switch1Id":1,"switch1Valid":false,"switch2Id":1,"switch2Valid":false,"variableId":1,"variableValid":false,"variableValue":0},"directionFix":false,"image":{"characterIndex":0,"characterName":"","direction":2,"pattern":0,"tileId":0},"list":[{"code":250,"indent":0,"parameters":[{"name":"Move1","pan":0,"pitch":100,"volume":90}]},{"code":201,"indent":0,"parameters":[0,2,24,14,0,0]},{"code":0,"indent":0,"parameters":[]}],"moveFrequency":3,"moveRoute":{"list":[{"code":0,"parameters":[]}],"repeat":true,"skippable":false,"wait":false},"moveSpeed":3,"moveType":0,"priorityType":0,"stepAnime":false,"through":false,"trigger":1,"walkAnime":true}],"x":18,"y":39},
{"id":16,"name":"SwampToWorld","note":"","pages":[{"conditions":{"actorId":1,"actorValid":false,"itemId":1,"itemValid":false,"selfSwitchCh":"A","selfSwitchValid":false,"switch1Id":1,"switch1Valid":false,"switch2Id":1,"switch2Valid":false,"variableId":1,"variableValid":false,"variableValue":0},"directionFix":false,"image":{"characterIndex":0,"characterName":"","direction":2,"pattern":0,"tileId":0},"list":[{"code":250,"indent":0,"parameters":[{"name":"Move1","pan":0,"pitch":100,"volume":90}]},{"code":201,"indent":0,"parameters":[0,2,24,14,0,0]},{"code":0,"indent":0,"parameters":[]}],"moveFrequency":3,"moveRoute":{"list":[{"code":0,"parameters":[]}],"repeat":true,"skippable":false,"wait":false},"moveSpeed":3,"moveType":0,"priorityType":0,"stepAnime":false,"through":false,"trigger":1,"walkAnime":true}],"x":19,"y":39},
{"id":17,"name":"Floating Crystal","note":"","pages":[{"conditions":{"actorId":1,"actorValid":false,"itemId":1,"itemValid":false,"selfSwitchCh":"A","selfSwitchValid":false,"switch1Id":1,"switch1Valid":false,"switch2Id":1,"switch2Valid":false,"variableId":1,"variableValid":false,"variableValue":0},"directionFix":false,"image":{"tileId":0,"characterName":"!Crystal","direction":2,"pattern":1,"characterIndex":2},"list":[{"code":108,"indent":0,"parameters":["N start all shared"]},{"code":111,"indent":0,"parameters":[0,3,0]},{"code":108,"indent":1,"parameters":["N wait"]},{"code":101,"indent":1,"parameters":["Kora",0,0,2]},{"code":401,"indent":1,"parameters":["\\C[14]\\N[1]:\\C[0]"]},{"code":401,"indent":1,"parameters":["Cái thứ này là gì ta ?"]},{"code":108,"indent":1,"parameters":["N wait"]},{"code":101,"indent":1,"parameters":["Valha",0,0,2]},{"code":401,"indent":1,"parameters":["\\C[14]Valha:\\C[0]"]},{"code":401,"indent":1,"parameters":["Có vẻ như nó bị khóa bởi 1 loại"]},{"code":401,"indent":1,"parameters":["pháp thuật nào đó."]},{"code":108,"indent":1,"parameters":["N wait"]},{"code":101,"indent":1,"parameters":["Kora",0,0,2]},{"code":401,"indent":1,"parameters":["\\C[14]\\N[1]:\\C[0]"]},{"code":401,"indent":1,"parameters":["Anh có thể phá được nó không ?"]},{"code":108,"indent":1,"parameters":["N wait"]},{"code":101,"indent":1,"parameters":["Valha",0,0,2]},{"code":401,"indent":1,"parameters":["\\C[14]Valha:\\C[0]"]},{"code":401,"indent":1,"parameters":["Được chứ! Mà sao mới thấy nó"]},{"code":401,"indent":1,"parameters":["đã phá vậy?"]},{"code":108,"indent":1,"parameters":["N wait"]},{"code":101,"indent":1,"parameters":["Kora",0,0,2]},{"code":401,"indent":1,"parameters":["\\C[14]\\N[1]:\\C[0]"]},{"code":401,"indent":1,"parameters":["Ừ thì do nó ... chỉ là ..."]},{"code":108,"indent":1,"parameters":["N wait"]},{"code":101,"indent":1,"parameters":["Kora",0,0,2]},{"code":401,"indent":1,"parameters":["\\C[14]\\N[1]:\\C[0]"]},{"code":401,"indent":1,"parameters":["Tôi nghĩ nó là nguyên nhân"]},{"code":401,"indent":1,"parameters":["gây dịch bệnh cho dân làng."]},{"code":108,"indent":1,"parameters":["N wait"]},{"code":101,"indent":1,"parameters":["Valha",0,0,2]},{"code":401,"indent":1,"parameters":["\\C[14]Valha:\\C[0]"]},{"code":401,"indent":1,"parameters":["Được rồi! Không thành vấn đề"]},{"code":401,"indent":1,"parameters":["với 1 pháp sư siêu cấp vjppro"]},{"code":401,"indent":1,"parameters":["như tôi."]},{"code":108,"indent":1,"parameters":["N wait"]},{"code":101,"indent":1,"parameters":["Kora",0,0,2]},{"code":401,"indent":1,"parameters":["\\C[14]\\N[1]:\\C[0]"]},{"code":401,"indent":1,"parameters":["(May quá ít ra cậu ta còn có"]},{"code":401,"indent":1,"parameters":["ích)"]},{"code":108,"indent":1,"parameters":["N wait"]},{"code":212,"indent":1,"parameters":[0,2,true]},{"code":108,"indent":1,"parameters":["N wait"]},{"code":101,"indent":1,"parameters":["Valha",0,0,2]},{"code":401,"indent":1,"parameters":["\\C[14]Valha:\\C[0]"]},{"code":401,"indent":1,"parameters":["Hả? Sao lại không được nhỉ?"]},{"code":108,"indent":1,"parameters":["N wait"]},{"code":212,"indent":1,"parameters":[0,2,true]},{"code":108,"indent":1,"parameters":["N wait"]},{"code":101,"indent":1,"parameters":["Valha",0,0,2]},{"code":401,"indent":1,"parameters":["\\C[14]Valha:\\C[0]"]},{"code":401,"indent":1,"parameters":["Vô lý!"]},{"code":108,"indent":1,"parameters":["N wait"]},{"code":213,"indent":1,"parameters":[-1,6,true]},{"code":108,"indent":1,"parameters":["N wait"]},{"code":101,"indent":1,"parameters":["Kora",0,0,2]},{"code":401,"indent":1,"parameters":["\\C[14]\\N[1]:\\C[0]"]},{"code":401,"indent":1,"parameters":["(Mình rút lại suy nghĩ vừa"]},{"code":401,"indent":1,"parameters":["rồi)"]},{"code":108,"indent":1,"parameters":["N wait"]},{"code":101,"indent":1,"parameters":["Valha",0,0,2]},{"code":401,"indent":1,"parameters":["\\C[14]Valha:\\C[0]"]},{"code":401,"indent":1,"parameters":["Lùi lại \\N[1] tôi sẽ sử dụng"]},{"code":401,"indent":1,"parameters":["pháp thuật đặc biệt này!"]},{"code":108,"indent":1,"parameters":["N wait"]},{"code":101,"indent":1,"parameters":["Kora",0,0,2]},{"code":401,"indent":1,"parameters":["\\C[14]\\N[1]:\\C[0]"]},{"code":401,"indent":1,"parameters":["Sao cũng được."]},{"code":108,"indent":1,"parameters":["N wait"]},{"code":205,"indent":1,"parameters":[-1,{"list":[{"code":35,"indent":null},{"code":13,"indent":null},{"code":36,"indent":null},{"code":0}],"repeat":false,"skippable":true,"wait":true}]},{"code":505,"indent":1,"parameters":[{"code":35,"indent":null}]},{"code":505,"indent":1,"parameters":[{"code":13,"indent":null}]},{"code":505,"indent":1,"parameters":[{"code":36,"indent":null}]},{"code":108,"indent":1,"parameters":["N wait"]},{"code":230,"indent":1,"parameters":[60]},{"code":108,"indent":1,"parameters":["N wait"]},{"code":212,"indent":1,"parameters":[0,40,true]},{"code":108,"indent":1,"parameters":["N wait"]},{"code":101,"indent":1,"parameters":["Valha",0,0,2]},{"code":401,"indent":1,"parameters":["\\C[14]Valha:\\C[0]"]},{"code":401,"indent":1,"parameters":["Nó đang vỡ ra!"]},{"code":108,"indent":1,"parameters":["N wait"]},{"code":101,"indent":1,"parameters":["Kora",0,0,2]},{"code":401,"indent":1,"parameters":["\\C[14]\\N[1]:\\C[0]"]},{"code":401,"indent":1,"parameters":["Anh ta. Làm được thật à?"]},{"code":108,"indent":1,"parameters":["N wait"]},{"code":123,"indent":1,"parameters":["A",0]},{"code":0,"indent":1,"parameters":[]},{"code":411,"indent":0,"parameters":[]},{"code":101,"indent":1,"parameters":["Kora",0,0,2]},{"code":401,"indent":1,"parameters":["\\C[14]\\N[1]:\\C[0]"]},{"code":401,"indent":1,"parameters":["Hmm. Chắc chắn sẽ không có gì"]},{"code":401,"indent":1,"parameters":["lạ khi có 1 viên pha lê lơ"]},{"code":401,"indent":1,"parameters":["lửng ở đây đâu nhỉ?"]},{"code":108,"indent":1,"parameters":["N wait"]},{"code":101,"indent":1,"parameters":["Kora",0,0,2]},{"code":401,"indent":1,"parameters":["\\C[14]\\N[1]:\\C[0]"]},{"code":401,"indent":1,"parameters":["Thôi nào! Thật sao? Sao không"]},{"code":401,"indent":1,"parameters":["binh sĩ trong làng nào thấy \"1 viên"]},{"code":401,"indent":1,"parameters":["pha lê lơ lửng trên trời\" là lạ nhỉ?"]},{"code":108,"indent":1,"parameters":["N wait"]},{"code":101,"indent":1,"parameters":["Kora",0,0,2]},{"code":401,"indent":1,"parameters":["\\C[14]\\N[1]:\\C[0]"]},{"code":401,"indent":1,"parameters":["Theo linh cảm của 1 sát thủ"]},{"code":401,"indent":1,"parameters":["chuyên nghiệp như mình(hihi)."]},{"code":401,"indent":1,"parameters":["Thì chắc chắn thứ này là "]},{"code":108,"indent":1,"parameters":["N wait"]},{"code":101,"indent":1,"parameters":["Kora",0,0,2]},{"code":401,"indent":1,"parameters":["\\C[14]\\N[1]:\\C[0]"]},{"code":401,"indent":1,"parameters":["nhân gây dịch bệnh cho ngôi"]},{"code":401,"indent":1,"parameters":["làng."]},{"code":401,"indent":1,"parameters":["(Mình thông minh v*)"]},{"code":108,"indent":1,"parameters":["N wait"]},{"code":213,"indent":1,"parameters":[-1,3,true]},{"code":108,"indent":1,"parameters":["N wait"]},{"code":101,"indent":1,"parameters":["Kora",0,0,2]},{"code":401,"indent":1,"parameters":["\\C[14]\\N[1]:\\C[0]"]},{"code":401,"indent":1,"parameters":["Hmm. Làm gì với nó giờ ta?"]},{"code":108,"indent":1,"parameters":["N wait"]},{"code":101,"indent":1,"parameters":["Kora",0,0,2]},{"code":401,"indent":1,"parameters":["\\C[14]\\N[1]:\\C[0]"]},{"code":401,"indent":1,"parameters":["Động não đi nào \\N[1]. Mà"]},{"code":401,"indent":1,"parameters":["khoan? Lo nghĩ nhiều làm gì"]},{"code":401,"indent":1,"parameters":["cứ đập nó thôi."]},{"code":108,"indent":1,"parameters":["N wait"]},{"code":212,"indent":1,"parameters":[0,1,true]},{"code":108,"indent":1,"parameters":["N wait"]},{"code":213,"indent":1,"parameters":[-1,2,true]},{"code":108,"indent":1,"parameters":["N wait"]},{"code":212,"indent":1,"parameters":[0,1,true]},{"code":108,"indent":1,"parameters":["N wait"]},{"code":101,"indent":1,"parameters":["Kora",0,0,2]},{"code":401,"indent":1,"parameters":["\\C[14]\\N[1]:\\C[0]"]},{"code":401,"indent":1,"parameters":["Không 1 vết xước? Tệ thật."]},{"code":401,"indent":1,"parameters":["Có lẽ nó được bao phủ bởi"]},{"code":401,"indent":1,"parameters":["lớp lá chắn ma thuật."]},{"code":108,"indent":1,"parameters":["N wait"]},{"code":123,"indent":1,"parameters":["C",0]},{"code":0,"indent":1,"parameters":[]},{"code":412,"indent":0,"parameters":[]},{"code":0,"indent":0,"parameters":[]}],"moveFrequency":3,"moveRoute":{"list":[{"code":0,"parameters":[]}],"repeat":true,"skippable":false,"wait":false},"moveSpeed":3,"moveType":0,"priorityType":1,"stepAnime":false,"through":false,"trigger":0,"walkAnime":true},{"conditions":{"actorId":1,"actorValid":false,"itemId":1,"itemValid":false,"selfSwitchCh":"A","selfSwitchValid":true,"switch1Id":1,"switch1Valid":false,"switch2Id":1,"switch2Valid":false,"variableId":1,"variableValid":false,"variableValue":0},"directionFix":false,"image":{"tileId":0,"characterName":"!Crystal","direction":2,"pattern":1,"characterIndex":6},"list":[{"code":108,"indent":0,"parameters":["N start all shared"]},{"code":122,"indent":0,"parameters":[1,1,0,3,3,1,0]},{"code":111,"indent":0,"parameters":[1,1,0,5,1]},{"code":108,"indent":1,"parameters":["N wait"]},{"code":101,"indent":1,"parameters":["",0,0,2]},{"code":401,"indent":1,"parameters":["\\C[14]???:\\C[0]"]},{"code":401,"indent":1,"parameters":["Lũ khốn nạn!"]},{"code":314,"indent":1,"parameters":[0,0]},{"code":356,"indent":1,"parameters":["SetSharedBattle 123"]},{"code":301,"indent":1,"parameters":[0,3,false,false]},{"code":123,"indent":1,"parameters":["A",1]},{"code":123,"indent":1,"parameters":["B",0]},{"code":0,"indent":1,"parameters":[]},{"code":411,"indent":0,"parameters":[]},{"code":101,"indent":1,"parameters":["",0,0,2]},{"code":401,"indent":1,"parameters":["Bạn cần tối thiểu Lv5 để thực"]},{"code":401,"indent":1,"parameters":["hiện hành động này."]},{"code":0,"indent":1,"parameters":[]},{"code":412,"indent":0,"parameters":[]},{"code":0,"indent":0,"parameters":[]}],"moveFrequency":3,"moveRoute":{"list":[{"code":0,"parameters":[]}],"repeat":true,"skippable":false,"wait":false},"moveSpeed":3,"moveType":0,"priorityType":1,"stepAnime":false,"through":false,"trigger":0,"walkAnime":true},{"conditions":{"actorId":1,"actorValid":false,"itemId":1,"itemValid":false,"selfSwitchCh":"B","selfSwitchValid":true,"switch1Id":1,"switch1Valid":false,"switch2Id":1,"switch2Valid":false,"variableId":1,"variableValid":false,"variableValue":0},"directionFix":false,"image":{"characterIndex":0,"characterName":"","direction":2,"pattern":0,"tileId":0},"list":[{"code":108,"indent":0,"parameters":["N start all shared"]},{"code":101,"indent":0,"parameters":["",0,0,2]},{"code":401,"indent":0,"parameters":["\\C[14]Poison Slime:\\C[0]"]},{"code":401,"indent":0,"parameters":["Không thể nào? Ta...ta"]},{"code":401,"indent":0,"parameters":["thua sao?"]},{"code":101,"indent":0,"parameters":["",0,0,2]},{"code":401,"indent":0,"parameters":["\\C[14]Poison Slime:\\C[0]"]},{"code":401,"indent":0,"parameters":["Các ngươi không thể thắng ta vì các"]},{"code":401,"indent":0,"parameters":["ngươi...c.h..ỉ...l.à..c..o.n..ng.."]},{"code":401,"indent":0,"parameters":["ườ..i thôi."]},{"code":101,"indent":0,"parameters":["Valha",0,0,2]},{"code":401,"indent":0,"parameters":["\\C[14]Valha:\\C[0]"]},{"code":401,"indent":0,"parameters":["Chúng ta thắng rồi!"]},{"code":101,"indent":0,"parameters":["Kora",0,0,2]},{"code":401,"indent":0,"parameters":["\\C[14]\\N[1]:\\C[0]"]},{"code":401,"indent":0,"parameters":["Chúng ta thắng sao? Cái quái gì"]},{"code":401,"indent":0,"parameters":["vậy? Cái thứ đó."]},{"code":101,"indent":0,"parameters":["Valha",0,0,2]},{"code":401,"indent":0,"parameters":["\\C[14]Valha:\\C[0]"]},{"code":401,"indent":0,"parameters":["Hả? Nó là quái vật mà?"]},{"code":401,"indent":0,"parameters":["Cô chưa nhìn thấy chúng bao giờ"]},{"code":401,"indent":0,"parameters":["sao?"]},{"code":101,"indent":0,"parameters":["Kora",0,0,2]},{"code":401,"indent":0,"parameters":["\\C[14]\\N[1]:\\C[0]"]},{"code":401,"indent":0,"parameters":["Đương nhiên tôi có nhìn thấy"]},{"code":401,"indent":0,"parameters":["mấy con slime rồi. Nhưng thứ"]},{"code":401,"indent":0,"parameters":["đó nó ở 1 đẳng cấp khác."]},{"code":101,"indent":0,"parameters":["Kora",0,0,2]},{"code":401,"indent":0,"parameters":["\\C[14]\\N[1]:\\C[0]"]},{"code":401,"indent":0,"parameters":["Nó là cái quái gì vậy? Tôi"]},{"code":401,"indent":0,"parameters":["gần như suýt chết đó."]},{"code":101,"indent":0,"parameters":["Valha",0,0,2]},{"code":401,"indent":0,"parameters":["\\C[14]Valha:\\C[0]"]},{"code":401,"indent":0,"parameters":["Bình tĩnh nào \\N[1]!"]},{"code":101,"indent":0,"parameters":["Kora",0,0,2]},{"code":401,"indent":0,"parameters":["\\C[14]\\N[1]:\\C[0]"]},{"code":401,"indent":0,"parameters":["Bình tĩnh? BÌNH TĨNH ừ được"]},{"code":401,"indent":0,"parameters":["rồi mà không. Tôi SUÝT CHẾT đó"]},{"code":401,"indent":0,"parameters":["tôi không thể bình tĩnh được."]},{"code":101,"indent":0,"parameters":["Kora",0,0,2]},{"code":401,"indent":0,"parameters":["\\C[14]\\N[1]:\\C[0]"]},{"code":401,"indent":0,"parameters":["Cả đời tôi! Chưa bao giờ phải"]},{"code":401,"indent":0,"parameters":["chạm chán cái chết gần như này."]},{"code":101,"indent":0,"parameters":["Kora",0,0,2]},{"code":401,"indent":0,"parameters":["\\C[14]\\N[1]:\\C[0]"]},{"code":401,"indent":0,"parameters":["Tại sao anh vẫn có thể"]},{"code":401,"indent":0,"parameters":["thư giãn như vậy?"]},{"code":101,"indent":0,"parameters":["Valha",0,0,2]},{"code":401,"indent":0,"parameters":["\\C[14]Valha:\\C[0]"]},{"code":401,"indent":0,"parameters":["Tôi hiểu mà. Tôi cũng từng"]},{"code":401,"indent":0,"parameters":["chạm chán cái chết rồi."]},{"code":101,"indent":0,"parameters":["Valha",0,0,2]},{"code":401,"indent":0,"parameters":["\\C[14]Valha:\\C[0]"]},{"code":401,"indent":0,"parameters":["Còn tệ hơn. Tôi còn phải"]},{"code":401,"indent":0,"parameters":["chứng kiến cảnh những người"]},{"code":401,"indent":0,"parameters":["thân của tôi...."]},{"code":101,"indent":0,"parameters":["Valha",0,0,2]},{"code":401,"indent":0,"parameters":["\\C[14]Valha:\\C[0]"]},{"code":401,"indent":0,"parameters":["Đó là lý do khiến tôi trở"]},{"code":401,"indent":0,"parameters":["thành 1 pháp sư."]},{"code":101,"indent":0,"parameters":["Kora",0,0,2]},{"code":401,"indent":0,"parameters":["\\C[14]\\N[1]:\\C[0]"]},{"code":401,"indent":0,"parameters":["um... Tại sao anh không"]},{"code":401,"indent":0,"parameters":["chọn là 1 chiến binh?"]},{"code":101,"indent":0,"parameters":["Valha",0,0,2]},{"code":401,"indent":0,"parameters":["\\C[14]Valha:\\C[0]"]},{"code":401,"indent":0,"parameters":["Tôi đã từng muốn là 1 chiến"]},{"code":401,"indent":0,"parameters":["binh nhưng tôi nhận ra rằng"]},{"code":401,"indent":0,"parameters":["bản thân mình có sức mạnh."]},{"code":101,"indent":0,"parameters":["Valha",0,0,2]},{"code":401,"indent":0,"parameters":["\\C[14]Valha:\\C[0]"]},{"code":401,"indent":0,"parameters":["Và khả năng sử dụng phép"]},{"code":401,"indent":0,"parameters":["thuật tôt hơn. Nên tôi quyết"]},{"code":401,"indent":0,"parameters":["định chọn làm 1 pháp sư."]},{"code":101,"indent":0,"parameters":["Kora",0,0,2]},{"code":401,"indent":0,"parameters":["\\C[14]\\N[1]:\\C[0]"]},{"code":401,"indent":0,"parameters":["... Chúng ta nên rời khỏi"]},{"code":401,"indent":0,"parameters":["đây thôi."]},{"code":356,"indent":0,"parameters":["Autosave"]},{"code":121,"indent":0,"parameters":[4,4,0]},{"code":123,"indent":0,"parameters":["B",1]},{"code":123,"indent":0,"parameters":["D",0]},{"code":0,"indent":0,"parameters":[]}],"moveFrequency":3,"moveRoute":{"list":[{"code":0,"parameters":[]}],"repeat":true,"skippable":false,"wait":false},"moveSpeed":3,"moveType":0,"priorityType":0,"stepAnime":false,"through":false,"trigger":3,"walkAnime":true},{"conditions":{"actorId":1,"actorValid":false,"itemId":1,"itemValid":false,"selfSwitchCh":"D","selfSwitchValid":true,"switch1Id":1,"switch1Valid":false,"switch2Id":1,"switch2Valid":false,"variableId":1,"variableValid":false,"variableValue":0},"directionFix":false,"image":{"characterIndex":0,"characterName":"","direction":2,"pattern":0,"tileId":0},"list":[{"code":0,"indent":0,"parameters":[]}],"moveFrequency":3,"moveRoute":{"list":[{"code":0,"parameters":[]}],"repeat":true,"skippable":false,"wait":false},"moveSpeed":3,"moveType":0,"priorityType":0,"stepAnime":false,"through":false,"trigger":0,"walkAnime":true},{"conditions":{"actorId":1,"actorValid":false,"itemId":1,"itemValid":false,"selfSwitchCh":"C","selfSwitchValid":true,"switch1Id":1,"switch1Valid":false,"switch2Id":1,"switch2Valid":false,"variableId":1,"variableValid":false,"variableValue":0},"directionFix":false,"image":{"tileId":0,"characterName":"!Crystal","direction":2,"pattern":1,"characterIndex":2},"list":[{"code":108,"indent":0,"parameters":["N start all shared"]},{"code":111,"indent":0,"parameters":[0,3,0]},{"code":101,"indent":1,"parameters":["Kora",0,0,2]},{"code":401,"indent":1,"parameters":["\\C[14]\\N[1]:\\C[0]"]},{"code":401,"indent":1,"parameters":["Cái thứ này là gì ta ?"]},{"code":108,"indent":1,"parameters":["N wait"]},{"code":101,"indent":1,"parameters":["Valha",0,0,2]},{"code":401,"indent":1,"parameters":["\\C[14]Valha:\\C[0]"]},{"code":401,"indent":1,"parameters":["Có vẻ như nó bị khóa bởi 1 loại"]},{"code":401,"indent":1,"parameters":["pháp thuật nào đó."]},{"code":108,"indent":1,"parameters":["N wait"]},{"code":101,"indent":1,"parameters":["Kora",0,0,2]},{"code":401,"indent":1,"parameters":["\\C[14]\\N[1]:\\C[0]"]},{"code":401,"indent":1,"parameters":["Anh có thể phá được nó không ?"]},{"code":108,"indent":1,"parameters":["N wait"]},{"code":101,"indent":1,"parameters":["Valha",0,0,2]},{"code":401,"indent":1,"parameters":["\\C[14]Valha:\\C[0]"]},{"code":401,"indent":1,"parameters":["Được chứ! Mà sao mới thấy nó"]},{"code":401,"indent":1,"parameters":["đã phá vậy?"]},{"code":108,"indent":1,"parameters":["N wait"]},{"code":101,"indent":1,"parameters":["Kora",0,0,2]},{"code":401,"indent":1,"parameters":["\\C[14]\\N[1]:\\C[0]"]},{"code":401,"indent":1,"parameters":["Ừ thì do nó ... chỉ là ..."]},{"code":108,"indent":1,"parameters":["N wait"]},{"code":101,"indent":1,"parameters":["Kora",0,0,2]},{"code":401,"indent":1,"parameters":["\\C[14]\\N[1]:\\C[0]"]},{"code":401,"indent":1,"parameters":["Tôi nghĩ nó là nguyên nhân"]},{"code":401,"indent":1,"parameters":["gây dịch bệnh cho dân làng."]},{"code":108,"indent":1,"parameters":["N wait"]},{"code":101,"indent":1,"parameters":["Valha",0,0,2]},{"code":401,"indent":1,"parameters":["\\C[14]Valha:\\C[0]"]},{"code":401,"indent":1,"parameters":["Được rồi! Không thành vấn đề"]},{"code":401,"indent":1,"parameters":["với 1 pháp sư siêu cấp vjppro"]},{"code":401,"indent":1,"parameters":["như tôi."]},{"code":108,"indent":1,"parameters":["N wait"]},{"code":101,"indent":1,"parameters":["Kora",0,0,2]},{"code":401,"indent":1,"parameters":["\\C[14]\\N[1]:\\C[0]"]},{"code":401,"indent":1,"parameters":["(May quá ít ra cậu ta còn có"]},{"code":401,"indent":1,"parameters":["ích)"]},{"code":108,"indent":1,"parameters":["N wait"]},{"code":212,"indent":1,"parameters":[0,2,true]},{"code":108,"indent":1,"parameters":["N wait"]},{"code":101,"indent":1,"parameters":["Valha",0,0,2]},{"code":401,"indent":1,"parameters":["\\C[14]Valha:\\C[0]"]},{"code":401,"indent":1,"parameters":["Hả? Sao lại không được nhỉ?"]},{"code":108,"indent":1,"parameters":["N wait"]},{"code":212,"indent":1,"parameters":[0,2,true]},{"code":108,"indent":1,"parameters":["N wait"]},{"code":101,"indent":1,"parameters":["Valha",0,0,2]},{"code":401,"indent":1,"parameters":["\\C[14]Valha:\\C[0]"]},{"code":401,"indent":1,"parameters":["Vô lý!"]},{"code":108,"indent":1,"parameters":["N wait"]},{"code":213,"indent":1,"parameters":[-1,6,true]},{"code":108,"indent":1,"parameters":["N wait"]},{"code":101,"indent":1,"parameters":["Kora",0,0,2]},{"code":401,"indent":1,"parameters":["\\C[14]\\N[1]:\\C[0]"]},{"code":401,"indent":1,"parameters":["(Mình rút lại suy nghĩ vừa"]},{"code":401,"indent":1,"parameters":["rồi)"]},{"code":108,"indent":1,"parameters":["N wait"]},{"code":101,"indent":1,"parameters":["Valha",0,0,2]},{"code":401,"indent":1,"parameters":["\\C[14]Valha:\\C[0]"]},{"code":401,"indent":1,"parameters":["Lùi lại \\N[1] tôi sẽ sử dụng"]},{"code":401,"indent":1,"parameters":["pháp thuật đặc biệt này!"]},{"code":108,"indent":1,"parameters":["N wait"]},{"code":101,"indent":1,"parameters":["Kora",0,0,2]},{"code":401,"indent":1,"parameters":["\\C[14]\\N[1]:\\C[0]"]},{"code":401,"indent":1,"parameters":["Sao cũng được."]},{"code":108,"indent":1,"parameters":["N wait"]},{"code":205,"indent":1,"parameters":[-1,{"list":[{"code":35,"indent":null},{"code":13,"indent":null},{"code":36,"indent":null},{"code":0}],"repeat":false,"skippable":true,"wait":true}]},{"code":505,"indent":1,"parameters":[{"code":35,"indent":null}]},{"code":505,"indent":1,"parameters":[{"code":13,"indent":null}]},{"code":505,"indent":1,"parameters":[{"code":36,"indent":null}]},{"code":108,"indent":1,"parameters":["N wait"]},{"code":230,"indent":1,"parameters":[60]},{"code":108,"indent":1,"parameters":["N wait"]},{"code":212,"indent":1,"parameters":[0,40,true]},{"code":108,"indent":1,"parameters":["N wait"]},{"code":101,"indent":1,"parameters":["Valha",0,0,2]},{"code":401,"indent":1,"parameters":["\\C[14]Valha:\\C[0]"]},{"code":401,"indent":1,"parameters":["Nó đang vỡ ra!"]},{"code":108,"indent":1,"parameters":["N wait"]},{"code":101,"indent":1,"parameters":["Kora",0,0,2]},{"code":401,"indent":1,"parameters":["\\C[14]\\N[1]:\\C[0]"]},{"code":401,"indent":1,"parameters":["Anh ta. Làm được thật à?"]},{"code":123,"indent":1,"parameters":["C",1]},{"code":123,"indent":1,"parameters":["A",0]},{"code":0,"indent":1,"parameters":[]},{"code":411,"indent":0,"parameters":[]},{"code":101,"indent":1,"parameters":["Kora",0,0,2]},{"code":401,"indent":1,"parameters":["\\C[14]\\N[1]:\\C[0]"]},{"code":401,"indent":1,"parameters":["Mình cần 1 người hoặc thứ gì"]},{"code":401,"indent":1,"parameters":["đó để pháp lớp giáp ma thuật"]},{"code":401,"indent":1,"parameters":["này."]},{"code":0,"indent":1,"parameters":[]},{"code":412,"indent":0,"parameters":[]},{"code":0,"indent":0,"parameters":[]}],"moveFrequency":3,"moveRoute":{"list":[{"code":0,"parameters":[]}],"repeat":true,"skippable":false,"wait":false},"moveSpeed":3,"moveType":0,"priorityType":1,"stepAnime":false,"through":false,"trigger":0,"walkAnime":true}],"x":9,"y":10},
{"id":18,"name":"EV018","note":"","pages":[{"conditions":{"actorId":1,"actorValid":false,"itemId":1,"itemValid":false,"selfSwitchCh":"A","selfSwitchValid":false,"switch1Id":1,"switch1Valid":false,"switch2Id":1,"switch2Valid":false,"variableId":1,"variableValid":false,"variableValue":0},"directionFix":true,"image":{"characterIndex":2,"characterName":"!Chest","direction":2,"pattern":1,"tileId":0},"list":[{"code":108,"indent":0,"parameters":["N all virtual"]},{"code":250,"indent":0,"parameters":[{"name":"Chest1","pan":0,"pitch":100,"volume":90}]},{"code":205,"indent":0,"parameters":[0,{"list":[{"code":36},{"code":17},{"code":15,"parameters":[3]},{"code":18},{"code":15,"parameters":[3]},{"code":0}],"repeat":false,"skippable":false,"wait":true}]},{"code":505,"indent":0,"parameters":[{"code":36}]},{"code":505,"indent":0,"parameters":[{"code":17}]},{"code":505,"indent":0,"parameters":[{"code":15,"parameters":[3]}]},{"code":505,"indent":0,"parameters":[{"code":18}]},{"code":505,"indent":0,"parameters":[{"code":15,"parameters":[3]}]},{"code":123,"indent":0,"parameters":["A",0]},{"code":125,"indent":0,"parameters":[0,0,100]},{"code":101,"indent":0,"parameters":["",0,0,2]},{"code":401,"indent":0,"parameters":["Nhận được 100 \\G!"]},{"code":0,"indent":0,"parameters":[]}],"moveFrequency":3,"moveRoute":{"list":[{"code":0,"parameters":[]}],"repeat":true,"skippable":false,"wait":false},"moveSpeed":3,"moveType":0,"priorityType":1,"stepAnime":false,"through":false,"trigger":0,"walkAnime":false},{"conditions":{"actorId":1,"actorValid":false,"itemId":1,"itemValid":false,"selfSwitchCh":"A","selfSwitchValid":true,"switch1Id":1,"switch1Valid":false,"switch2Id":1,"switch2Valid":false,"variableId":1,"variableValid":false,"variableValue":0},"directionFix":true,"image":{"characterIndex":2,"characterName":"!Chest","direction":8,"pattern":1,"tileId":0},"list":[{"code":0,"indent":0,"parameters":[]}],"moveFrequency":3,"moveRoute":{"list":[{"code":0,"parameters":[]}],"repeat":true,"skippable":false,"wait":false},"moveSpeed":3,"moveType":0,"priorityType":1,"stepAnime":false,"through":false,"trigger":0,"walkAnime":false}],"x":4,"y":32},
{"id":19,"name":"EV019","note":"","pages":[{"conditions":{"actorId":1,"actorValid":false,"itemId":1,"itemValid":false,"selfSwitchCh":"A","selfSwitchValid":false,"switch1Id":1,"switch1Valid":false,"switch2Id":1,"switch2Valid":false,"variableId":1,"variableValid":false,"variableValue":0},"directionFix":true,"image":{"characterIndex":2,"characterName":"!Chest","direction":2,"pattern":1,"tileId":0},"list":[{"code":108,"indent":0,"parameters":["N all virtual"]},{"code":250,"indent":0,"parameters":[{"name":"Chest1","pan":0,"pitch":100,"volume":90}]},{"code":205,"indent":0,"parameters":[0,{"list":[{"code":36},{"code":17},{"code":15,"parameters":[3]},{"code":18},{"code":15,"parameters":[3]},{"code":0}],"repeat":false,"skippable":false,"wait":true}]},{"code":505,"indent":0,"parameters":[{"code":36}]},{"code":505,"indent":0,"parameters":[{"code":17}]},{"code":505,"indent":0,"parameters":[{"code":15,"parameters":[3]}]},{"code":505,"indent":0,"parameters":[{"code":18}]},{"code":505,"indent":0,"parameters":[{"code":15,"parameters":[3]}]},{"code":123,"indent":0,"parameters":["A",0]},{"code":126,"indent":0,"parameters":[3,0,0,1]},{"code":101,"indent":0,"parameters":["",0,0,2]},{"code":401,"indent":0,"parameters":["Tìm thấy Nấm!"]},{"code":0,"indent":0,"parameters":[]}],"moveFrequency":3,"moveRoute":{"list":[{"code":0,"parameters":[]}],"repeat":true,"skippable":false,"wait":false},"moveSpeed":3,"moveType":0,"priorityType":1,"stepAnime":false,"through":false,"trigger":0,"walkAnime":false},{"conditions":{"actorId":1,"actorValid":false,"itemId":1,"itemValid":false,"selfSwitchCh":"A","selfSwitchValid":true,"switch1Id":1,"switch1Valid":false,"switch2Id":1,"switch2Valid":false,"variableId":1,"variableValid":false,"variableValue":0},"directionFix":true,"image":{"characterIndex":2,"characterName":"!Chest","direction":8,"pattern":1,"tileId":0},"list":[{"code":0,"indent":0,"parameters":[]}],"moveFrequency":3,"moveRoute":{"list":[{"code":0,"parameters":[]}],"repeat":true,"skippable":false,"wait":false},"moveSpeed":3,"moveType":0,"priorityType":1,"stepAnime":false,"through":false,"trigger":0,"walkAnime":false}],"x":20,"y":7}
]
}