[
null,
{"id":1,"animationId":1,"description":"","etypeId":1,"traits":[{"code":31,"dataId":1,"value":0}],"iconIndex":96,"name":"Hunter Dagger","note":"","params":[0,0,10,0,0,0,0,0],"price":500,"wtypeId":1},
{"id":2,"animationId":16,"description":"","etypeId":1,"traits":[{"code":31,"dataId":1,"value":0}],"iconIndex":105,"name":"Wolf Claw","note":"","params":[0,0,15,0,0,0,0,0],"price":1000,"wtypeId":10},
{"id":3,"animationId":3,"description":"","etypeId":1,"traits":[{"code":31,"dataId":2,"value":0}],"iconIndex":101,"name":"Wooden Cane","note":"","params":[0,0,5,0,5,0,0,0],"price":500,"wtypeId":6},
{"id":4,"animationId":13,"description":"","etypeId":1,"traits":[{"code":31,"dataId":2,"value":0}],"iconIndex":106,"name":"Shinny Glove","note":"","params":[0,0,5,0,10,0,0,0],"price":1000,"wtypeId":11},
{"id":5,"animationId":1,"description":"","etypeId":1,"traits":[{"code":31,"dataId":1,"value":0}],"iconIndex":96,"name":"Shadow Dagger","note":"","params":[0,0,20,0,5,0,0,0],"price":1500,"wtypeId":1},
{"id":6,"animationId":16,"description":"","etypeId":1,"traits":[{"code":31,"dataId":1,"value":0}],"iconIndex":105,"name":"Silver Claw","note":"","params":[0,0,25,0,10,0,0,5],"price":2000,"wtypeId":10},
{"id":7,"animationId":3,"description":"","etypeId":1,"traits":[{"code":31,"dataId":2,"value":0}],"iconIndex":101,"name":"Fire Cane","note":"","params":[0,0,10,0,15,0,0,0],"price":1500,"wtypeId":6},
{"id":8,"animationId":13,"description":"","etypeId":1,"traits":[{"code":31,"dataId":2,"value":0}],"iconIndex":106,"name":"Brozen Glove","note":"","params":[0,0,15,0,20,0,0,0],"price":2000,"wtypeId":11},
{"id":9,"animationId":6,"description":"","etypeId":1,"traits":[{"code":31,"dataId":3,"value":0}],"iconIndex":102,"name":"IceBow","note":"","params":[0,0,20,0,5,0,0,0],"price":1500,"wtypeId":7},
{"id":10,"animationId":9,"description":"","etypeId":1,"traits":[{"code":31,"dataId":1,"value":0}],"iconIndex":103,"name":"Air Crossbow","note":"","params":[0,0,25,0,10,0,0,0],"price":2000,"wtypeId":8},
{"id":11,"animationId":1,"description":"","etypeId":1,"traits":[{"code":31,"dataId":1,"value":0}],"iconIndex":96,"name":"Plama Dagger","note":"","params":[0,0,25,0,10,0,0,0],"price":2500,"wtypeId":1},
{"id":12,"animationId":16,"description":"","etypeId":1,"traits":[{"code":31,"dataId":1,"value":0}],"iconIndex":105,"name":"Golden Claw","note":"","params":[0,0,30,0,15,0,0,0],"price":3000,"wtypeId":10},
{"id":13,"animationId":2,"description":"","etypeId":1,"traits":[{"code":31,"dataId":2,"value":0}],"iconIndex":101,"name":"FireFly Cane","note":"","params":[0,0,15,0,20,0,0,0],"price":2500,"wtypeId":6},
{"id":14,"animationId":13,"description":"","etypeId":1,"traits":[{"code":31,"dataId":2,"value":0}],"iconIndex":106,"name":"Flame Glove","note":"","params":[0,0,20,0,25,0,0,0],"price":3000,"wtypeId":11},
{"id":15,"animationId":6,"description":"","etypeId":1,"traits":[{"code":31,"dataId":3,"value":0}],"iconIndex":102,"name":"Mortal Bow","note":"","params":[0,0,25,0,10,0,0,0],"price":2500,"wtypeId":7},
{"id":16,"animationId":9,"description":"","etypeId":1,"traits":[{"code":31,"dataId":3,"value":0}],"iconIndex":103,"name":"Hell CrossBow","note":"","params":[0,0,30,0,15,0,0,0],"price":3000,"wtypeId":8},
{"id":17,"animationId":5,"description":"","etypeId":1,"traits":[{"code":31,"dataId":4,"value":0}],"iconIndex":97,"name":"Knight Sword","note":"","params":[0,0,20,0,30,0,0,0],"price":3500,"wtypeId":2},
{"id":18,"animationId":10,"description":"","etypeId":1,"traits":[{"code":31,"dataId":4,"value":0}],"iconIndex":99,"name":"Plama Axe","note":"","params":[0,0,30,0,40,0,0,0],"price":4000,"wtypeId":4},
{"id":19,"animationId":1,"description":"","etypeId":1,"traits":[{"code":31,"dataId":1,"value":0}],"iconIndex":96,"name":"RedRose Dagger","note":"","params":[0,0,35,0,20,0,0,0],"price":3500,"wtypeId":1},
{"id":20,"animationId":3,"description":"","etypeId":1,"traits":[{"code":31,"dataId":2,"value":0}],"iconIndex":101,"name":"CrossLine Cane","note":"","params":[0,0,25,0,30,0,0,0],"price":3500,"wtypeId":6},
{"id":21,"animationId":6,"description":"","etypeId":1,"traits":[{"code":31,"dataId":3,"value":0}],"iconIndex":102,"name":"BlueRose Bow","note":"","params":[0,0,35,0,20,0,0,0],"price":3500,"wtypeId":7},
{"id":22,"animationId":13,"description":"","etypeId":1,"traits":[{"code":31,"dataId":2,"value":0}],"iconIndex":106,"name":"Blessing Glove","note":"","params":[0,0,35,0,40,0,0,0],"price":5500,"wtypeId":11},
{"id":23,"animationId":16,"description":"","etypeId":1,"traits":[{"code":31,"dataId":1,"value":0}],"iconIndex":105,"name":"Fury Claw","note":"","params":[0,0,45,0,30,0,0,0],"price":5500,"wtypeId":10},
{"id":24,"animationId":9,"description":"","etypeId":1,"traits":[{"code":31,"dataId":3,"value":0}],"iconIndex":103,"name":"Meteor Crossbow","note":"","params":[0,0,40,0,35,0,0,0],"price":5000,"wtypeId":8},
{"id":25,"animationId":1,"description":"","etypeId":1,"traits":[{"code":31,"dataId":1,"value":0}],"iconIndex":96,"name":"Fleshshaper Dagger","note":"","params":[0,0,55,0,40,0,0,0],"price":7500,"wtypeId":1},
{"id":26,"animationId":3,"description":"","etypeId":1,"traits":[{"code":31,"dataId":2,"value":0}],"iconIndex":101,"name":"Souleater Cane","note":"","params":[0,0,45,0,50,0,0,0],"price":7500,"wtypeId":6},
{"id":27,"animationId":6,"description":"","etypeId":1,"traits":[{"code":31,"dataId":3,"value":0}],"iconIndex":102,"name":"Bullseye Bow","note":"","params":[0,0,55,0,40,0,0,0],"price":7500,"wtypeId":7},
{"id":28,"animationId":5,"description":"","etypeId":1,"traits":[{"code":31,"dataId":4,"value":0}],"iconIndex":97,"name":"Echo Sword","note":"","params":[0,0,40,0,50,0,0,0],"price":7500,"wtypeId":2}
]